svm_type c_svc
kernel_type polynomial
degree 2
gamma 0.1
coef0 0.6
nr_class 14
total_sv 406
rho 0.110946 -0.315158 -0.636095 -0.172824 -0.257594 -0.413217 -0.575835 0.224715 -0.375626 -0.492031 -0.250009 -0.295174 -0.490156 -0.277012 -0.373857 -0.264368 -0.355002 -0.448227 -0.361171 0.00908242 -0.827587 -0.573518 -0.222573 -0.311943 -0.430133 -0.2717 0.224597 -0.234344 -0.218865 -0.189947 0.396179 -0.318029 -0.313664 -0.0999741 -0.091077 -0.197332 0.379343 0.130685 -0.000472953 0.145389 0.480038 0.073982 -0.174837 0.189048 0.0410051 -0.113653 -0.36164 -0.224854 -0.163957 0.179153 -0.190539 -0.581577 -0.268711 -0.351463 -0.696075 -0.145435 -0.00926817 0.309215 -0.0687835 -0.290367 0.0802069 -0.0603102 -0.271565 0.0656249 0.432998 0.0268267 -0.173446 0.120976 0.010962 -0.174739 0.270834 3.63711e-05 -0.422381 -0.0379582 -0.0360289 -0.34118 -0.406019 -0.533509 -0.34234 -0.250245 -0.580881 -0.048237 0.0267635 0.024253 -0.141906 0.412814 0.19692 -0.00317805 -0.0404325 -0.314038 -0.247422
label 2 13 21 16 1 25 37 6 5 67 4 35 27 81
nr_sv 59 42 47 27 86 20 9 54 27 2 7 17 4 5
SV
0 0 0 0.1009120320284737 0 0 0 0 0 0 0 0 0 2:1 18:1 36:1 53:1 73:1 86:1 135:1 168:1 238:1 310:1 382:1 585:1 10004:1 19743:1 29148:1 38842:1 48205:1 48207:1 48209:1 48317:1 54509:1 60886:1 67257:1 73406:1 
0 0.09286117306446862 0 0 0 0 0 0 0 0 0 0 0 2:1 18:1 36:1 53:1 68:1 91:1 111:1 175:1 238:1 310:1 382:1 465:1 10004:1 19576:1 29117:1 38969:1 48205:1 48207:1 48209:1 48220:1 54509:1 60808:1 67127:1 73406:1 
0 0 0 0.4514437077104691 0 0 0 0 0 0 0 0 0 2:1 18:1 36:1 55:1 71:1 88:1 111:1 175:1 238:1 310:1 382:1 465:1 10004:1 19570:1 29117:1 38882:1 48205:1 48207:1 48209:1 48220:1 54509:1 60838:1 67122:1 73406:1 
0 0 0.219583858334248 0.2964380428842749 0 0 0 0 0 0 0 0 0 2:1 18:1 37:1 52:1 70:1 88:1 116:1 168:1 238:1 310:1 382:1 480:1 10004:1 20529:1 30080:1 38759:1 48205:1 48207:1 48209:1 48233:1 54509:1 60825:1 67821:1 73406:1 
0 0 0 0 0 0 0 0.1606651919859816 0 0 0 0 0 2:1 18:1 36:1 54:1 69:1 86:1 135:1 168:1 238:1 310:1 382:1 585:1 10004:1 20667:1 29130:1 39766:1 48205:1 48207:1 48209:1 48317:1 54509:1 61618:1 67918:1 73406:1 
0 0 0.08598543321762668 0 0 0 0 0 0 0 0 0 0 2:1 18:1 36:1 57:1 74:1 93:1 111:1 175:1 238:1 310:1 382:1 465:1 10004:1 19566:1 29117:1 39797:1 48205:1 48207:1 48209:1 48220:1 54509:1 61407:1 67118:1 73406:1 
0 0 0 0.1241701531185486 0 0 0 0 0 0 0 0 0 2:1 18:1 36:1 51:1 68:1 86:1 135:1 168:1 238:1 310:1 382:1 585:1 10004:1 20970:1 29106:1 40069:1 48205:1 48207:1 48209:1 48317:1 54509:1 60933:1 68107:1 73406:1 
0 0 0 0.09196592988335402 0 0 0 0 0 0 0 0 0 2:1 18:1 36:1 61:1 74:1 88:1 111:1 175:1 238:1 310:1 382:1 465:1 10004:1 19570:1 29117:1 39927:1 48205:1 48207:1 48209:1 48220:1 54509:1 60812:1 67122:1 73406:1 
0 0 0 0 0 0 0 0.2203427456215395 0 0 0 0 0 2:1 18:1 36:1 57:1 72:1 88:1 111:1 175:1 238:1 310:1 382:1 465:1 10004:1 19566:1 29117:1 39146:1 48205:1 48207:1 48209:1 48220:1 54509:1 60812:1 67118:1 73406:1 
0.08824359288841804 0 0 0 0 0 0 0 0 0 0 0 0 2:1 18:1 36:1 53:1 68:1 92:1 111:1 175:1 238:1 310:1 382:1 493:1 10004:1 20784:1 29148:1 38796:1 48205:1 48207:1 48209:1 48243:1 54509:1 60808:1 67987:1 73406:1 
0 0 0 0 0 0 0 0.1507109801242622 0 0 0 0 0 2:1 18:1 36:1 58:1 72:1 89:1 111:1 175:1 238:1 310:1 382:1 465:1 10004:1 19570:1 29117:1 38718:1 48205:1 48207:1 48209:1 48220:1 54509:1 60866:1 67122:1 73406:1 
0.1320423375941921 0.2945529417836111 0 0.1466320321148362 0 0 0.134731044990556 0.2179531733019862 0 0 0.1066943625539924 0 0 3:1 18:1 36:1 52:1 70:1 88:1 152:1 206:1 238:1 310:1 382:1 2287:1 10004:1 21388:1 29235:1 40486:1 48205:1 48207:1 48209:1 49467:1 54509:1 60975:1 68365:1 73406:1 
0 0 0 0 0 0 0 0.1907391797430505 0 0 0 0 0 2:1 18:1 36:1 52:1 70:1 86:1 135:1 168:1 238:1 310:1 382:1 585:1 10004:1 21389:1 29235:1 40488:1 48205:1 48207:1 48209:1 48317:1 54509:1 62064:1 68366:1 73406:1 
0 0 0.08899424244829159 0.2070330863280961 0 0 0 0.3187976755194805 0 0 0 0 0 2:1 18:1 36:1 54:1 69:1 86:1 135:1 168:1 238:1 310:1 382:1 585:1 10004:1 20531:1 29130:1 40489:1 48205:1 48207:1 48209:1 48317:1 54509:1 62066:1 67823:1 73406:1 
0 0 0.1532774592722228 0.1740340490212398 0 0 0 0 0 0 0 0 0 2:1 18:1 37:1 52:1 70:1 91:1 111:1 175:1 238:1 310:1 382:1 493:1 10004:1 20925:1 30082:1 39800:1 48205:1 48207:1 48209:1 48243:1 54509:1 60808:1 68083:1 73406:1 
0 0.1446117024989795 0 0 0 0 0 0 0 0 0.1743031144954664 0 0 2:1 18:1 36:1 58:1 72:1 89:1 111:1 175:1 238:1 310:1 382:1 493:1 10004:1 21604:1 29148:1 38718:1 48205:1 48207:1 48209:1 48243:1 54509:1 60831:1 68496:1 73406:1 
0 0 0 0 0 0 0 0 0 0 0 0.08578135201601814 0 2:1 18:1 36:1 61:1 77:1 88:1 111:1 175:1 238:1 310:1 382:1 493:1 10004:1 21606:1 29148:1 38672:1 48205:1 48207:1 48209:1 48243:1 54509:1 60808:1 68497:1 73406:1 
0 0 0 0 0 0 0.1065881263085703 0.09969548037796529 0 0 0 0 0 2:1 18:1 36:1 55:1 72:1 91:1 111:1 175:1 238:1 310:1 382:1 493:1 10004:1 21590:1 29148:1 39080:1 48205:1 48207:1 48209:1 48243:1 54509:1 60808:1 68482:1 73406:1 
0 0.1990613364313262 0 0 0 0 0 0 0 0 0 0 0 2:1 18:1 36:1 55:1 71:1 91:1 111:1 175:1 238:1 310:1 382:1 465:1 10004:1 19579:1 29117:1 40857:1 48205:1 48207:1 48209:1 48220:1 54509:1 61369:1 67129:1 73406:1 
0 0 0 0 0 0 0 0.1086774168289193 0 0 0 0 0 2:1 18:1 36:1 53:1 68:1 86:1 135:1 168:1 238:1 310:1 382:1 585:1 10004:1 21786:1 29148:1 40885:1 48205:1 48207:1 48209:1 48317:1 54509:1 60886:1 68614:1 73406:1 
0 0 0 0 0.1050837246445721 0 0 0 0 0 0 0 0 2:1 18:1 36:1 53:1 68:1 91:1 111:1 175:1 238:1 310:1 382:1 493:1 10004:1 20197:1 29148:1 39256:1 48205:1 48207:1 48209:1 48243:1 54509:1 60808:1 67593:1 73406:1 
0 0 0 0.1073784062428447 0 0 0 0 0 0 0 0 0 2:1 18:1 36:1 52:1 71:1 91:1 111:1 175:1 238:1 310:1 382:1 493:1 10004:1 21592:1 29130:1 38699:1 48205:1 48207:1 48209:1 48243:1 54509:1 60808:1 68484:1 73406:1 
0 0 0 0 0.1464868761306654 0 0 0 0 0 0 0 0 2:1 18:1 36:1 53:1 68:1 91:1 111:1 175:1 238:1 310:1 382:1 465:1 10004:1 19745:1 29117:1 38662:1 48205:1 48207:1 48209:1 48220:1 54509:1 60808:1 67259:1 73406:1 
0 0 0 0.3148798337833442 0 0 0 0 0 0 0 0 0 2:1 18:1 37:1 52:1 70:1 89:1 111:1 175:1 238:1 310:1 382:1 465:1 10004:1 20925:1 30082:1 38718:1 48205:1 48207:1 48209:1 48220:1 54509:1 60822:1 68083:1 73406:1 
0 0 0 0.2367877313148339 0 0 0 0 0 0 0 0 0 2:1 18:1 42:1 53:1 70:1 91:1 111:1 175:1 238:1 310:1 382:1 465:1 10004:1 22141:1 29296:1 41461:1 48205:1 48207:1 48209:1 48220:1 54509:1 60808:1 68839:1 73406:1 
0.1266102734807209 0 0 0 0 0 0 0 0 0 0 0 0 3:1 18:1 36:1 53:1 68:1 88:1 105:1 167:1 238:1 311:1 382:1 3279:1 10004:1 22381:1 29117:1 41478:1 48205:1 48207:1 48209:1 50095:1 54771:1 60831:1 68993:1 73406:1 
0 0.1375779327614101 0 0 0 0 0 0 0 0 0 0 0 8:1 18:1 36:1 53:1 68:1 88:1 144:1 167:1 238:1 310:1 382:1 3280:1 10004:1 22541:1 29117:1 41479:1 48205:1 48207:1 48209:1 48472:1 54509:1 60943:1 69093:1 73406:1 
0 0 0 0 0 0 0 0.1792343019742881 0 0 0 0 0 3:1 18:1 36:1 53:1 68:1 88:1 105:1 167:1 238:1 311:1 382:1 3279:1 10004:1 22541:1 29117:1 41478:1 48205:1 48207:1 48209:1 50095:1 54771:1 60980:1 69093:1 73406:1 
0.165699247983553 0 0 0 0 0 0 0 0 0 0 0 0 2:1 18:1 36:1 56:1 71:1 91:1 111:1 175:1 238:1 310:1 382:1 465:1 10004:1 22256:1 29117:1 41746:1 48205:1 48207:1 48209:1 48220:1 54509:1 60997:1 68919:1 73406:1 
0.1436075128997341 0 0 0 0 0 0.172590865625132 0 0 0 0.1977684892968867 0 0.1095773596674753 8:1 18:1 36:1 53:1 68:1 88:1 144:1 167:1 238:1 310:1 382:1 3280:1 10004:1 22651:1 29117:1 41479:1 48205:1 48207:1 48209:1 48472:1 54509:1 60943:1 69168:1 73406:1 
0 0.2631140132965282 0 0 0 0.115426498473207 0 0.08833184307762086 0.08824134319608401 0 0 0.105830088865501 0 3:1 18:1 36:1 53:1 68:1 88:1 105:1 176:1 238:1 311:1 382:1 3279:1 10004:1 22651:1 29117:1 41478:1 48205:1 48207:1 48209:1 50095:1 54771:1 61054:1 69168:1 73406:1 
0 0 0 0 0 0 0 0 0 0 0.1124379639138287 0 0 2:1 18:1 41:1 59:1 70:1 89:1 111:1 175:1 238:1 310:1 382:1 465:1 10004:1 22661:1 29118:1 38718:1 48205:1 48207:1 48209:1 48220:1 54509:1 60808:1 69174:1 73406:1 
0 0 0.09774911050317057 0 0 0 0 0 0 0 0 0 0 2:1 18:1 36:1 52:1 70:1 88:1 111:1 175:1 238:1 310:1 382:1 465:1 10004:1 22664:1 29130:1 38907:1 48205:1 48207:1 48209:1 48220:1 54509:1 60862:1 69176:1 73406:1 
0 0 0 0 0 0.0827098791076743 0 0 0 0 0 0 0.1571843610552367 2:1 18:1 36:1 52:1 71:1 91:1 111:1 175:1 238:1 310:1 382:1 465:1 10004:1 22759:1 29130:1 41192:1 48205:1 48207:1 48209:1 48220:1 54509:1 60808:1 69231:1 73406:1 
0 0 0 0.1720598346631787 0 0 0 0 0 0 0 0 0 2:1 18:1 41:1 59:1 70:1 88:1 111:1 175:1 238:1 310:1 382:1 465:1 10004:1 23010:1 29118:1 40155:1 48205:1 48207:1 48209:1 48220:1 54509:1 60812:1 69378:1 73406:1 
0 0 0 0.1547037880196709 0 0 0 0.1378739382631586 0 0 0 0 0 8:1 18:1 36:1 55:1 71:1 88:1 144:1 167:1 238:1 310:1 382:1 3280:1 10004:1 23055:1 29117:1 41479:1 48205:1 48207:1 48209:1 48472:1 54509:1 60943:1 69403:1 73406:1 
0.2020741265845745 0 0 0 0 0 0 0 0 0 0 0 0 3:1 18:1 36:1 55:1 71:1 88:1 105:1 167:1 238:1 311:1 382:1 3279:1 10004:1 23055:1 29117:1 41478:1 48205:1 48207:1 48209:1 50095:1 54771:1 61356:1 69403:1 73406:1 
0 0 0 0 0 0 0 0 0.1500420857461487 0 0 0 0 2:1 18:1 36:1 55:1 73:1 91:1 111:1 175:1 238:1 310:1 382:1 465:1 10004:1 23034:1 29117:1 42271:1 48205:1 48207:1 48209:1 48220:1 54509:1 60939:1 69389:1 73406:1 
0 0 0 0.08023900180554647 0.09531151259435539 0 0 0 0 0.1769190125736878 0 0 0 8:1 18:1 35:1 54:1 70:1 88:1 115:1 167:1 238:1 310:1 382:1 5198:1 10004:1 20529:1 33395:1 42712:1 48205:1 48207:1 48209:1 51340:1 54509:1 60825:1 67821:1 73406:1 
0.1665796243568536 0.1771628999620477 0 0 0 0 0 0.08745874894618909 0.09649151791635187 0 0 0 0 3:1 18:1 35:1 54:1 70:1 89:1 105:1 169:1 238:1 311:1 382:1 4512:1 10004:1 20529:1 33395:1 39170:1 48205:1 48207:1 48209:1 50884:1 57639:1 63937:1 67821:1 73406:1 
0 0 0 0 0 0 0.1456566059757419 0 0 0 0 0.08876082356723518 0 4:1 18:1 35:1 54:1 70:1 91:1 106:1 201:1 238:1 313:1 382:1 970:1 10004:1 20529:1 33395:1 43397:1 48205:1 48207:1 48209:1 48227:1 57183:1 63936:1 67821:1 73406:1 
0 0 0 0 0.1460362481964443 0.1186701586519053 0 0 0 0 0 0 0 6:1 18:1 35:1 54:1 70:1 88:1 118:1 181:1 238:1 345:1 382:1 5197:1 10004:1 20529:1 33395:1 43396:1 48205:1 48207:1 48209:1 51339:1 54526:1 60812:1 67821:1 73406:1 
0.208200213531824 0.1286622794368778 0 0 0 0 0 0.127557731328416 0 0 0 0 0 3:1 18:1 35:1 54:1 70:1 89:1 114:1 169:1 238:1 325:1 382:1 5196:1 10004:1 20529:1 33395:1 38671:1 48205:1 48207:1 48209:1 51338:1 57638:1 61133:1 67821:1 73406:1 
0.09426040126763893 0 0.06206324392496948 0 0 0 0.2043882000522891 0 0 0 0 0 0 4:1 18:1 35:1 54:1 70:1 95:1 113:1 167:1 238:1 313:1 382:1 471:1 10004:1 20529:1 33395:1 38813:1 48205:1 48207:1 48209:1 48214:1 57637:1 60838:1 67821:1 73406:1 
0 0 0 0 0.1598149359215183 0.1112342186960686 0 0.08566541312989072 0 0.1015227417723597 0.127519710808663 0 0.1270756059288201 10:1 18:1 35:1 54:1 70:1 89:1 127:1 169:1 238:1 311:1 382:1 613:1 10004:1 20529:1 33395:1 38939:1 48205:1 48207:1 48209:1 48535:1 54513:1 61682:1 67821:1 73406:1 
0 0 0 0.1708574953279908 0 0.07428236148688275 0.1215134313892537 0 0 0 0 0 0 4:1 18:1 35:1 54:1 70:1 91:1 109:1 167:1 238:1 313:1 382:1 739:1 10004:1 20529:1 33395:1 41496:1 48205:1 48207:1 48209:1 48240:1 54834:1 60812:1 67821:1 73406:1 
0 0 0 0 0 0 0.205961684444297 0 0 0 0 0 0 2:1 18:1 36:1 52:1 69:1 88:1 111:1 175:1 238:1 310:1 382:1 465:1 10004:1 24332:1 29235:1 43439:1 48205:1 48207:1 48209:1 48220:1 54509:1 60812:1 70258:1 73406:1 
0 0 0 0 0 0 0 0 0 0.1597820734997782 0 0 0 2:1 18:1 36:1 52:1 71:1 88:1 111:1 175:1 238:1 310:1 382:1 465:1 10004:1 23813:1 29235:1 39470:1 48205:1 48207:1 48209:1 48220:1 54509:1 60808:1 69918:1 73406:1 
0 0 0 0.5 0 0 0 0.1891012469518337 0 0 0 0 0 2:1 18:1 37:1 53:1 68:1 86:1 135:1 168:1 238:1 310:1 382:1 585:1 10004:1 24140:1 29848:1 39397:1 48205:1 48207:1 48209:1 48317:1 54509:1 60808:1 70137:1 73406:1 
0 0.1621545701484774 0 0.2102777303487146 0 0 0.1713559541959227 0.1642574229455477 0 0.1476562779308898 0.173611121148643 0.1361240385383509 0 9:1 18:1 35:1 56:1 71:1 91:1 121:1 167:1 238:1 310:1 382:1 4360:1 10004:1 25038:1 33395:1 43647:1 48205:1 48207:1 48209:1 50760:1 54509:1 60808:1 70720:1 73406:1 
0 0 0.09894651828100225 0.1699797169848027 0 0 0.09687763557686052 0 0 0 0 0 0 2:1 18:1 35:1 54:1 70:1 88:1 116:1 168:1 238:1 310:1 383:1 480:1 10004:1 23823:1 33395:1 42543:1 48205:1 48207:1 48209:1 48233:1 54509:1 60909:1 69924:1 75970:1 
0 0 0 0.1808017248257394 0 0 0 0.2152267133693035 0 0 0 0 0 2:1 18:1 36:1 53:1 74:1 86:1 135:1 168:1 238:1 310:1 382:1 585:1 10004:1 27216:1 29117:1 46315:1 48205:1 48207:1 48209:1 48317:1 54509:1 60997:1 72151:1 73406:1 
0 0.1088686377580477 0 0.1600896912049238 0 0 0.1348393381734012 0.1928494953405567 0 0 0.0828163706789712 0 0 10:1 18:1 36:1 53:1 71:1 92:1 140:1 179:1 238:1 310:1 382:1 9495:1 10004:1 28596:1 29148:1 47694:1 48205:1 48207:1 48209:1 54180:1 54509:1 66777:1 73078:1 73406:1 
0.1662700869227808 0 0.173487223700552 0 0.1453488383470489 0 0 0 0 0 0 0 0 7:1 18:1 36:1 53:1 71:1 88:1 112:1 178:1 238:1 323:1 382:1 9494:1 10004:1 28596:1 29148:1 47693:1 48205:1 48207:1 48209:1 48223:1 60479:1 60886:1 73078:1 73406:1 
0.1082314743423805 0.1935832591949946 0 0.1240923300364026 0 0 0.1770186297462419 0.3371285426160998 0 0.09343190490314299 0.1396756344141952 0.07375219410580809 0.08268248094703265 3:1 18:1 49:1 53:1 75:1 87:1 152:1 179:1 238:1 310:1 382:1 9535:1 10004:1 26762:1 29416:1 38680:1 48205:1 48207:1 48209:1 54206:1 54509:1 66803:1 71845:1 73406:1 
0 0 0.1237455321511517 0.186434162602866 0 0 0 0 0 0 0 0 0 2:1 18:1 49:1 53:1 75:1 88:1 116:1 178:1 238:1 323:1 382:1 480:1 10004:1 26762:1 29416:1 47734:1 48205:1 48207:1 48209:1 48233:1 60505:1 60886:1 71845:1 73406:1 
0 0 0.09735318385728094 0 0 0 0 0 0 0 0 0 0 10:1 18:1 36:1 53:1 68:1 92:1 140:1 179:1 238:1 310:1 382:1 9495:1 10004:1 28636:1 29148:1 47694:1 48205:1 48207:1 48209:1 54180:1 54509:1 66803:1 73104:1 73406:1 
0.07915237056688987 0.1604695793412039 0 0 0 0.1044353701488056 0 0.1827215086941606 0 0 0.09622634014946102 0 0 7:1 18:1 36:1 53:1 68:1 88:1 112:1 178:1 238:1 323:1 382:1 9494:1 10004:1 28636:1 29148:1 47734:1 48205:1 48207:1 48209:1 48223:1 60479:1 60821:1 73104:1 73406:1 
0.07612713115901629 0.1736111042124256 0.1855287451398442 0.3086419971118972 0.07829959161807026 0.08099714023902341 0.2 0.269541776204258 0.05380411211905861 0.07023422540623617 0.1736111042124256 0.06949814970988802 0.090928623265393 2:1 18:1 38:1 56:1 71:1 86:1 135:1 168:1 238:1 310:1 382:1 585:1 10004:1 28896:1 29134:1 47995:1 48205:1 48207:1 48209:1 48317:1 54509:1 60812:1 73275:1 73406:1 
-0 0 0 0 0 0 0.07605114084656424 0.07128074531321921 0 0 0 0 0 4:1 18:1 36:1 53:1 72:1 88:1 113:1 167:1 238:1 319:1 382:1 950:1 10004:1 20025:1 29148:1 38824:1 48205:1 48207:1 48209:1 48283:1 54542:1 60838:1 67467:1 73406:1 
-0 0 0 0 0.08842556507753951 0 0 0 0 0 0 0 0 6:1 18:1 36:1 53:1 72:1 92:1 137:1 186:1 244:1 319:1 382:1 994:1 10252:1 20076:1 29148:1 38966:1 48205:1 48207:1 48209:1 48607:1 54542:1 60847:1 67502:1 73406:1 
-0 0 0 0 0 0 0 0.1429630116764764 0 0 0 0 0 3:1 18:1 36:1 53:1 72:1 91:1 122:1 172:1 243:1 319:1 382:1 784:1 10004:1 19570:1 29117:1 39214:1 48205:1 48207:1 48209:1 48470:1 54519:1 61230:1 67122:1 73406:1 
-0.1662700869227808 0 0 0 0 0 0 0 0 0 0 0 0 8:1 18:1 36:1 53:1 72:1 88:1 115:1 167:1 238:1 319:1 382:1 1140:1 10004:1 19566:1 29117:1 39334:1 48205:1 48207:1 48209:1 48721:1 54519:1 60812:1 67118:1 73406:1 
-0.2020741265845745 0.1387838302437061 0 0 0 0 0 0.1656919558883257 0 0 0 0 0.1074202344751789 3:1 18:1 36:1 56:1 71:1 89:1 114:1 169:1 238:1 319:1 382:1 1118:1 10004:1 20365:1 29148:1 39317:1 48205:1 48207:1 48209:1 48708:1 54542:1 60808:1 67704:1 73406:1 
-0.208200213531824 0.1756701655548936 0 0.1573513421879827 0 0.1786632565001028 0.1359749318447146 0.1668073075518338 0.1106564440651796 0 0 0 0 3:1 18:1 37:1 52:1 70:1 89:1 105:1 169:1 238:1 312:1 382:1 559:1 10004:1 20529:1 30080:1 38781:1 48205:1 48207:1 48209:1 48298:1 54532:1 61521:1 67821:1 73406:1 
-0 0 0 0 0 0 0 0 0 0 0 0.2171731847224959 0 6:1 18:1 36:1 53:1 68:1 85:1 108:1 166:1 244:1 319:1 382:1 675:1 10004:1 20606:1 29148:1 38654:1 48205:1 48207:1 48209:1 48258:1 54542:1 60808:1 67874:1 73406:1 
-0 0 0.1381412482421326 0 0 0 0 0.09300575422420929 0 0 0 0 0 3:1 18:1 36:1 52:1 70:1 89:1 114:1 169:1 238:1 319:1 382:1 488:1 10004:1 20553:1 29130:1 38687:1 48205:1 48207:1 48209:1 48238:1 54542:1 61354:1 67838:1 73406:1 
-0 0 0 0 0.1386433994996739 0 0 0 0 0 0 0 0 6:1 18:1 36:1 52:1 70:1 91:1 110:1 184:1 238:1 319:1 382:1 1232:1 10004:1 20784:1 29130:1 38699:1 48205:1 48207:1 48209:1 48785:1 54542:1 60808:1 67987:1 73406:1 
-0 0 0.08169744143463775 0 0 0 0 0 0 0.1403032783996873 0 0 0 8:1 18:1 36:1 55:1 72:1 91:1 115:1 187:1 238:1 319:1 382:1 1022:1 10004:1 20867:1 29148:1 39966:1 48205:1 48207:1 48209:1 48306:1 54542:1 60808:1 68044:1 73406:1 
-0 0 0 0 0 0 0.06822063019589367 0 0 0 0 0 0 6:1 18:1 36:1 52:1 71:1 85:1 108:1 166:1 244:1 319:1 382:1 499:1 10004:1 20924:1 29235:1 38654:1 48205:1 48207:1 48209:1 48249:1 54542:1 60808:1 68082:1 73406:1 
-0 0.1071599779906875 0 0 0 0 0 0 0 0 0 0 0 3:1 18:1 36:1 60:1 74:1 85:1 105:1 166:1 243:1 319:1 382:1 1826:1 10004:1 19576:1 29117:1 38654:1 48205:1 48207:1 48209:1 49187:1 54519:1 60808:1 67127:1 73406:1 
-0 0 0 0 0 0 0 0 0 0.1035983009735971 0 0 0 7:1 18:1 36:1 53:1 73:1 85:1 119:1 166:1 238:1 319:1 382:1 875:1 10004:1 19566:1 29117:1 38654:1 48205:1 48207:1 48209:1 48251:1 54519:1 60808:1 67118:1 73406:1 
-0 0 0 0.07901791351960054 0 0 0 0 0 0 0 0 0 6:1 18:1 36:1 53:1 75:1 95:1 108:1 181:1 272:1 319:1 382:1 1025:1 10030:1 19570:1 29117:1 40135:1 48205:1 48207:1 48209:1 48488:1 54519:1 60808:1 67122:1 73406:1 
-0.1266102734807209 0 0 0.09346469988522225 0 0.09642502219560047 0 0.1160227252801568 0 0 0 0 0 7:1 18:1 36:1 53:1 68:1 85:1 112:1 166:1 238:1 319:1 382:1 596:1 10004:1 20784:1 29148:1 38654:1 48205:1 48207:1 48209:1 48326:1 54542:1 60808:1 67987:1 73406:1 
-0 0 0 0 0 0 0 0 0.1150432782680269 0 0 0 0 3:1 18:1 36:1 59:1 75:1 89:1 105:1 169:1 238:1 319:1 382:1 1018:1 10004:1 19566:1 29117:1 38658:1 48205:1 48207:1 48209:1 48638:1 54519:1 61677:1 67118:1 73406:1 
-0 0 0 0 0 0 0.1699774960565816 0 0 0 0 0 0 4:1 18:1 36:1 58:1 72:1 88:1 109:1 167:1 238:1 319:1 382:1 518:1 10004:1 19570:1 29117:1 39050:1 48205:1 48207:1 48209:1 48264:1 54519:1 62038:1 67122:1 73406:1 
-0 0 0 0.1723023483411243 0 0 0 0 0 0 0 0 0 6:1 18:1 37:1 52:1 70:1 85:1 108:1 166:1 244:1 319:1 382:1 1600:1 10004:1 20925:1 30082:1 38654:1 48205:1 48207:1 48209:1 48456:1 54542:1 60808:1 68083:1 73406:1 
-0 0.1608456387964005 0 0 0 0.1040647714042727 0 0 0 0 0 0 0 4:1 18:1 36:1 53:1 72:1 91:1 109:1 167:1 238:1 319:1 382:1 518:1 10004:1 21588:1 29148:1 40377:1 48205:1 48207:1 48209:1 48264:1 54542:1 60808:1 68480:1 73406:1 
-0 0 0 0 0 0 0.1194140364531326 0 0 0 0 0 0 4:1 18:1 36:1 53:1 72:1 87:1 109:1 179:1 238:1 319:1 382:1 518:1 10004:1 21601:1 29148:1 38680:1 48205:1 48207:1 48209:1 48264:1 54542:1 60862:1 68493:1 73406:1 
-0 0 0 0 0 0 0 0 0 0 0.08285466918512255 0 0 4:1 18:1 36:1 58:1 72:1 87:1 109:1 179:1 238:1 319:1 382:1 518:1 10004:1 21604:1 29148:1 38680:1 48205:1 48207:1 48209:1 48264:1 54542:1 60862:1 68496:1 73406:1 
-0 0 0.135331693313286 0 0 0 0 0 0 0 0 0 0 4:1 18:1 36:1 58:1 72:1 88:1 109:1 167:1 238:1 319:1 382:1 463:1 10004:1 19576:1 29117:1 39149:1 48205:1 48207:1 48209:1 48214:1 54519:1 61184:1 67127:1 73406:1 
-0 0 0 0 0 0 0 0 0.1391863956289713 0 0 0 0 6:1 18:1 36:1 53:1 75:1 92:1 108:1 179:1 238:1 319:1 382:1 511:1 10004:1 19579:1 29117:1 38818:1 48205:1 48207:1 48209:1 48258:1 54519:1 60847:1 67129:1 73406:1 
-0 0 0 0 0 0 0 0 0 0 0.1414768815441378 0 0 3:1 18:1 36:1 53:1 73:1 89:1 105:1 169:1 238:1 319:1 382:1 2833:1 10004:1 21921:1 29148:1 38718:1 48205:1 48207:1 48209:1 49801:1 54542:1 61184:1 68697:1 73406:1 
-0.1320423375941921 0 0 0.1044601584600015 0 0 0.1730428196022809 0 0 0 0 0 0 4:1 18:1 41:1 59:1 70:1 88:1 113:1 167:1 238:1 319:1 382:1 1126:1 10004:1 22141:1 29118:1 38744:1 48205:1 48207:1 48209:1 48283:1 54519:1 60816:1 68839:1 73406:1 
-0 0 0 0 0 0 0 0 0 0 0.1313472894700198 0 0 9:1 18:1 41:1 59:1 70:1 91:1 121:1 167:1 238:1 319:1 382:1 3060:1 10004:1 22161:1 29118:1 40059:1 48205:1 48207:1 48209:1 49956:1 54519:1 60821:1 68854:1 73406:1 
-0 0 0 0.09732802424108801 0 0 0 0 0 0 0 0 0 9:1 18:1 41:1 59:1 70:1 91:1 121:1 167:1 238:1 319:1 382:1 3060:1 10004:1 22161:1 29118:1 40946:1 48205:1 48207:1 48209:1 49956:1 54519:1 60808:1 68854:1 73406:1 
-0 0 0 0 0 0 0 0 0.1958100510459881 0 0 0 0 6:1 18:1 36:1 55:1 73:1 92:1 110:1 179:1 238:1 319:1 382:1 2156:1 10004:1 22289:1 29117:1 38668:1 48205:1 48207:1 48209:1 48270:1 54519:1 61584:1 68942:1 73406:1 
-0 0.0949487372040641 0 0 0 0 0 0 0.1631667849060669 0 0 0 0 3:1 18:1 36:1 52:1 71:1 89:1 122:1 169:1 238:1 319:1 382:1 1699:1 10004:1 22202:1 29130:1 38758:1 48205:1 48207:1 48209:1 49101:1 54519:1 60939:1 68878:1 73406:1 
-0.1436075128997341 0.1965024077765007 0.1054010161019535 0 0 0 0 0.09531609920543134 0 0 0 0 0 3:1 18:1 36:1 53:1 68:1 87:1 105:1 179:1 238:1 311:1 382:1 3278:1 10004:1 22381:1 29117:1 38680:1 48205:1 48207:1 48209:1 48345:1 56394:1 62692:1 68993:1 73406:1 
-0.1082314743423805 0 0 0 0 0 0 0 0 0 0 0 0 8:1 18:1 36:1 53:1 73:1 88:1 131:1 167:1 238:1 319:1 382:1 3361:1 10004:1 22462:1 29117:1 38672:1 48205:1 48207:1 48209:1 50144:1 54519:1 60929:1 69042:1 73406:1 
-0.08824359288841804 0 0 0 0 0.1862222247653537 0 0.1717866737075393 0 0 0 0 0.08880152523445556 1:1 18:1 36:1 53:1 68:1 88:1 103:1 183:1 238:1 319:1 382:1 3360:1 10004:1 22532:1 29117:1 38810:1 48205:1 48207:1 48209:1 50143:1 54519:1 60838:1 69088:1 73406:1 
-0.1552795017259062 0 0 0 0 0 0 0 0 0 0 0 0 6:1 18:1 36:1 56:1 71:1 91:1 110:1 184:1 238:1 319:1 382:1 3546:1 10004:1 22256:1 29117:1 39286:1 48205:1 48207:1 48209:1 48410:1 54519:1 60847:1 68919:1 73406:1 
-0 0 0 0 0 0 0 0 0.08592006666116614 0 0 0 0 3:1 18:1 36:1 52:1 70:1 89:1 105:1 169:1 243:1 319:1 382:1 707:1 10004:1 22664:1 29130:1 38718:1 48205:1 48207:1 48209:1 48412:1 54519:1 61017:1 69176:1 73406:1 
-0 0.1828864087794515 0 0 0 0 0 0 0 0 0 0 0 3:1 18:1 41:1 59:1 70:1 91:1 114:1 185:1 243:1 319:1 382:1 3446:1 10004:1 22709:1 29118:1 41804:1 48205:1 48207:1 48209:1 50199:1 54519:1 60808:1 69197:1 73406:1 
-0 0 0 0 0 0 0 0.09910331288023694 0 0.07855609381906969 0 0 0 9:1 18:1 41:1 59:1 70:1 92:1 121:1 179:1 238:1 319:1 382:1 3654:1 10004:1 22755:1 29118:1 38818:1 48205:1 48207:1 48209:1 50331:1 54519:1 62928:1 69229:1 73406:1 
-0 0 0 0 0 0 0 0 0 0 0 0.1149650330099324 0 6:1 18:1 41:1 59:1 70:1 85:1 108:1 166:1 238:1 319:1 382:1 1056:1 10004:1 20417:1 29118:1 38654:1 48205:1 48207:1 48209:1 48249:1 54519:1 60808:1 67743:1 73406:1 
-0.09426040126763893 0 0 0.1459996666030086 0 0 0.1051231475195796 0.1173077412649519 0 0 0 0 0 4:1 18:1 36:1 54:1 69:1 91:1 109:1 167:1 238:1 319:1 382:1 518:1 10004:1 21599:1 29130:1 41426:1 48205:1 48207:1 48209:1 48264:1 54519:1 60847:1 68491:1 73406:1 
-0.165699247983553 0.2754972818117351 0 0.1642102315188085 0.152772844634392 0.0869818932235992 0.09858894228878311 0.1702737566912756 0 0 0.1250483169456799 0.140269254930465 0.1310472166920115 3:1 18:1 36:1 55:1 71:1 88:1 105:1 176:1 238:1 311:1 382:1 3278:1 10004:1 23055:1 29117:1 39395:1 48205:1 48207:1 48209:1 48345:1 56394:1 60881:1 69403:1 73406:1 
-0 0.1539984709093762 0 0 0 0 0 0 0 0 0 0 0 3:1 18:1 36:1 53:1 68:1 89:1 105:1 169:1 238:1 319:1 382:1 4085:1 10004:1 23186:1 29117:1 38658:1 48205:1 48207:1 48209:1 50563:1 54519:1 61055:1 69461:1 73406:1 
-0.1665796243568536 0.09993843047469712 0.06899120188403168 0.08577268469355319 0.1292378928714606 0.1056750239438806 0.07756476061492774 0.1132057354052636 0 0.1321668885835349 0.1134082790064463 0.1130458742809184 0 3:1 18:1 35:1 54:1 70:1 89:1 114:1 169:1 243:1 312:1 383:1 4343:1 10004:1 23823:1 33395:1 38966:1 48205:1 48207:1 48209:1 50746:1 54532:1 65445:1 69924:1 75970:1 
-0 0.1636661303093792 0.0735820602912684 0.09206404525462196 0.1736111042124256 0.05172312595254767 0.08761498946281492 0.1636661303093792 0.05300968624419959 0.1636661303093792 0.1552795017259062 0.04870109729944679 0.1552795017259062 6:1 18:1 36:1 52:1 70:1 85:1 137:1 166:1 239:1 319:1 382:1 1814:1 10030:1 27215:1 29235:1 38654:1 48205:1 48207:1 48209:1 48399:1 54519:1 60808:1 72150:1 73406:1 
-0.1604695793412039 -0.1608456387964005 0 0 0 0 0 0.1912487733054936 0 0 0 0 0 3:1 18:1 36:1 55:1 71:1 88:1 105:1 176:1 238:1 310:1 382:1 494:1 10004:1 19597:1 29148:1 38688:1 48205:1 48207:1 48209:1 48244:1 54509:1 60939:1 67144:1 73406:1 
-0 -0 0 0 0 0 0 0.1995440427447196 0 0 0 0 0 3:1 18:1 36:1 58:1 72:1 93:1 105:1 176:1 238:1 310:1 382:1 852:1 10004:1 19953:1 29148:1 39051:1 48205:1 48207:1 48209:1 48510:1 54509:1 60896:1 67408:1 73406:1 
-0 -0 0 0.219230329561804 0 0 0 0 0 0 0 0 0 3:1 18:1 37:1 53:1 76:1 89:1 105:1 169:1 238:1 310:1 382:1 610:1 10004:1 20178:1 29144:1 38780:1 48205:1 48207:1 48209:1 48335:1 54509:1 61279:1 67579:1 73406:1 
-0.1935832591949946 -0 0.09788166881249982 0 0 0 0.1411790919601772 0.1505482007441889 0 0 0 0 0 3:1 18:1 42:1 53:1 75:1 88:1 114:1 167:1 238:1 310:1 382:1 1110:1 10004:1 19595:1 29296:1 38808:1 48205:1 48207:1 48209:1 48335:1 54509:1 60838:1 67142:1 73406:1 
-0 -0 0 0.1085834598843157 0 0 0 0 0 0 0 0 0 3:1 18:1 42:1 53:1 68:1 89:1 114:1 169:1 238:1 310:1 382:1 1110:1 10004:1 20213:1 29296:1 39312:1 48205:1 48207:1 48209:1 48335:1 54509:1 61301:1 67601:1 73406:1 
-0.1088686377580477 -0 0 0 0 0 0 0.2113252686736255 0 0 0 0 0 3:1 18:1 41:1 59:1 74:1 89:1 114:1 169:1 238:1 310:1 382:1 1384:1 10004:1 20340:1 29118:1 39583:1 48205:1 48207:1 48209:1 48335:1 54509:1 61075:1 67688:1 73406:1 
-0 -0 0 0 0 0 0 0 0 0 0.1570357683308109 0 0 3:1 18:1 36:1 56:1 71:1 88:1 122:1 167:1 238:1 310:1 382:1 1432:1 10004:1 20533:1 29130:1 38759:1 48205:1 48207:1 48209:1 48927:1 54509:1 60825:1 67825:1 73406:1 
-0 -0 0 0.1308001745295727 0 0 0 0 0 0 0.1622320893450925 0 0 3:1 18:1 36:1 53:1 68:1 91:1 105:1 185:1 238:1 310:1 382:1 494:1 10004:1 20544:1 29148:1 38745:1 48205:1 48207:1 48209:1 48244:1 54509:1 61530:1 67833:1 73406:1 
-0 -0 0 0.1616334632596164 0 0 0 0 0 0 0 0 0 3:1 18:1 37:1 54:1 69:1 89:1 105:1 169:1 238:1 310:1 382:1 610:1 10004:1 20659:1 30210:1 38690:1 48205:1 48207:1 48209:1 48335:1 54509:1 60945:1 67911:1 73406:1 
-0.1286622794368778 -0 0 0.1087069005305517 0 0 0 0.2002005186205906 0 0.1380227511955379 0 0 0 3:1 18:1 38:1 52:1 70:1 88:1 122:1 167:1 238:1 310:1 382:1 1432:1 10004:1 20661:1 29108:1 39760:1 48205:1 48207:1 48209:1 48927:1 54509:1 60933:1 67913:1 73406:1 
-0 -0.1539984709093762 0 0 0 0 0 0 0.1613168703348712 0 0 0 0 3:1 18:1 36:1 52:1 70:1 89:1 105:1 169:1 238:1 310:1 382:1 559:1 10004:1 20666:1 29235:1 38758:1 48205:1 48207:1 48209:1 48298:1 54509:1 60945:1 67917:1 73406:1 
-0 -0 0 0.1637045002383942 0 0 0.1879447990388199 0 0 0 0 0.1002592924796341 0 3:1 18:1 36:1 59:1 71:1 88:1 122:1 167:1 238:1 310:1 382:1 1432:1 10004:1 20668:1 29115:1 38759:1 48205:1 48207:1 48209:1 48927:1 54509:1 60838:1 67919:1 73406:1 
-0 -0.09993843047469712 0 0 0 0 0 0.08692795729315475 0 0 0 0 0 3:1 18:1 36:1 53:1 68:1 86:1 122:1 193:1 243:1 310:1 382:1 1432:1 10004:1 20397:1 29148:1 40024:1 48205:1 48207:1 48209:1 48927:1 54509:1 60847:1 67726:1 73406:1 
-0 -0 0 0 0.1181066272479558 0 0 0 0 0 0 0 0 3:1 18:1 36:1 52:1 70:1 89:1 114:1 169:1 238:1 310:1 382:1 1110:1 10004:1 20969:1 29235:1 38687:1 48205:1 48207:1 48209:1 48335:1 54509:1 61528:1 68106:1 73406:1 
-0.2945529417836111 -0.1965024077765007 0.1250285612326636 0.1637871079657644 0.1721539639706714 0.1153049245959293 0.1100265055327259 0.1967477736323306 0 0 0.1164411672592943 0 0 3:1 18:1 36:1 52:1 70:1 88:1 152:1 202:1 238:1 350:1 382:1 2286:1 10004:1 21388:1 29235:1 38863:1 48205:1 48207:1 48209:1 49466:1 55766:1 60812:1 68365:1 73406:1 
-0 -0 0 0 0.09013201419647912 0 0 0 0 0 0 0 0 3:1 18:1 36:1 59:1 72:1 88:1 122:1 176:1 238:1 310:1 382:1 1432:1 10004:1 21390:1 29117:1 40486:1 48205:1 48207:1 48209:1 48927:1 54509:1 60975:1 68367:1 73406:1 
-0 -0 0 0 0 0 0 0.1759004687554838 0 0 0 0 0 3:1 18:1 36:1 57:1 73:1 89:1 105:1 169:1 238:1 310:1 382:1 798:1 10004:1 21079:1 29130:1 38760:1 48205:1 48207:1 48209:1 48335:1 54509:1 60837:1 68178:1 73406:1 
-0 -0 0 0.1652648275438068 0 0 0 0 0 0.1207318953316871 0 0 0 3:1 18:1 41:1 52:1 74:1 85:1 114:1 166:1 243:1 310:1 382:1 1110:1 10004:1 21484:1 29118:1 38654:1 48205:1 48207:1 48209:1 48335:1 54509:1 60808:1 68423:1 73406:1 
-0 -0 0.08611108971225037 0 0 0 0 0 0 0 0 0 0 3:1 18:1 43:1 57:1 76:1 89:1 105:1 169:1 238:1 310:1 382:1 610:1 10004:1 21548:1 29159:1 38690:1 48205:1 48207:1 48209:1 48335:1 54509:1 60945:1 68458:1 73406:1 
-0.09286117306446862 -0 0 0 0 0 0 0 0 0 0 0 0 3:1 18:1 36:1 51:1 68:1 92:1 105:1 179:1 243:1 310:1 382:1 610:1 10004:1 20969:1 29106:1 39071:1 48205:1 48207:1 48209:1 48335:1 54509:1 60933:1 68106:1 73406:1 
-0 -0 0 0 0 0 0 0.2409630263663513 0 0 0 0 0 3:1 18:1 40:1 55:1 74:1 89:1 105:1 169:1 238:1 310:1 382:1 610:1 10004:1 21741:1 30414:1 38690:1 48205:1 48207:1 48209:1 48335:1 54509:1 60945:1 68584:1 73406:1 
-0 -0.1071599779906875 0 0 0 0 0 0 0 0 0 0 0 3:1 18:1 36:1 60:1 70:1 87:1 105:1 166:1 243:1 310:1 382:1 610:1 10004:1 21594:1 29130:1 38654:1 48205:1 48207:1 48209:1 48335:1 54509:1 60808:1 68486:1 73406:1 
-0 -0.1828864087794515 0 0 0 0 0 0 0 0 0 0 0 3:1 18:1 41:1 59:1 70:1 89:1 114:1 169:1 238:1 310:1 382:1 1110:1 10004:1 21887:1 29118:1 39583:1 48205:1 48207:1 48209:1 48335:1 54509:1 60945:1 68677:1 73406:1 
-0 -0 0 0 0 0 0 0 0.1058723142682703 0 0 0 0 3:1 18:1 36:1 52:1 75:1 89:1 114:1 169:1 238:1 310:1 382:1 1384:1 10004:1 21887:1 29130:1 38687:1 48205:1 48207:1 48209:1 48335:1 54509:1 60866:1 68677:1 73406:1 
-0 -0 0 0 0 0 0 0.1311766849834679 0 0 0 0 0 3:1 18:1 43:1 61:1 74:1 89:1 105:1 169:1 238:1 310:1 382:1 610:1 10004:1 21878:1 29159:1 38780:1 48205:1 48207:1 48209:1 48335:1 54509:1 60866:1 68670:1 73406:1 
-0.1375779327614101 -0 0 0.08715302718799679 0.159059221767838 0 0 0 0 0 0 0 0 3:1 18:1 36:1 53:1 68:1 91:1 105:1 176:1 238:1 310:1 382:1 2903:1 10004:1 20529:1 29148:1 38699:1 48205:1 48207:1 48209:1 49849:1 54509:1 60808:1 67821:1 73406:1 
-0 -0 0 0 0 0 0 0.1906108956498504 0 0 0 0 0 3:1 18:1 36:1 52:1 71:1 86:1 122:1 205:1 238:1 310:1 382:1 1432:1 10004:1 19570:1 29130:1 40025:1 48205:1 48207:1 48209:1 48927:1 54509:1 60862:1 67122:1 73406:1 
-0 -0.2754972818117351 0 0 0 0 0 0 0 0 0 0.1438878592313102 0 3:1 18:1 36:1 53:1 68:1 91:1 105:1 176:1 238:1 311:1 382:1 3278:1 10004:1 22541:1 29117:1 40059:1 48205:1 48207:1 48209:1 48345:1 56394:1 60808:1 69093:1 73406:1 
-0 -0 0 0.184499419515426 0 0 0.1237859259188864 0.1333898422339507 0 0 0 0 0 3:1 18:1 36:1 53:1 68:1 86:1 105:1 176:1 238:1 310:1 382:1 3106:1 10004:1 22601:1 29117:1 41700:1 48205:1 48207:1 48209:1 49985:1 54509:1 60816:1 69135:1 73406:1 
-0.2631140132965282 -0.1756701655548936 0 0 0 0.1734472083146776 0 0 0.1131599724199117 0 0 0 0 3:1 18:1 36:1 53:1 68:1 91:1 105:1 176:1 238:1 320:1 382:1 3278:1 10004:1 22651:1 29117:1 38969:1 48205:1 48207:1 48209:1 48345:1 56394:1 60808:1 69168:1 73406:1 
-0 -0 0 0 0 0 0 0 0 0 0.1085780391117843 0.1272837247297975 0 3:1 18:1 41:1 52:1 70:1 89:1 114:1 169:1 238:1 310:1 382:1 1110:1 10004:1 22784:1 29118:1 38687:1 48205:1 48207:1 48209:1 48335:1 54509:1 60821:1 69241:1 73406:1 
-0 -0 0 0 0 0 0 0 0 0 0.1139282202146552 0 0 3:1 18:1 36:1 51:1 68:1 89:1 105:1 169:1 238:1 310:1 382:1 610:1 10004:1 22796:1 29106:1 38780:1 48205:1 48207:1 48209:1 48335:1 54509:1 61143:1 69250:1 73406:1 
-0.1990613364313262 -0 0.2274014961979217 0 0 0 0 0 0 0 0 0 0 3:1 18:1 36:1 58:1 72:1 86:1 122:1 176:1 238:1 310:1 382:1 1432:1 10004:1 19579:1 29117:1 41120:1 48205:1 48207:1 48209:1 48927:1 54509:1 60831:1 67129:1 73406:1 
-0 -0 0 0 0 0 0 0 0 0 0.09327703079781215 0 0 3:1 18:1 36:1 58:1 72:1 86:1 105:1 176:1 238:1 310:1 382:1 3106:1 10004:1 23004:1 29117:1 40699:1 48205:1 48207:1 48209:1 49985:1 54509:1 60862:1 69373:1 73406:1 
-0.1446117024989795 -0 0 0.2475203899915347 0 0 0 0.2011550974044058 0 0 0 0 0 3:1 18:1 36:1 53:1 68:1 89:1 122:1 169:1 238:1 310:1 382:1 5320:1 10004:1 22760:1 29117:1 38966:1 48205:1 48207:1 48209:1 51218:1 54509:1 62906:1 69232:1 73406:1 
-0.1621545701484774 -0 0 0 0 0 0 0.1078021882748076 0 0 0 0 0 3:1 18:1 40:1 56:1 71:1 89:1 114:1 169:1 238:1 310:1 382:1 1198:1 10004:1 23341:1 29566:1 39044:1 48205:1 48207:1 48209:1 48761:1 54509:1 60808:1 69553:1 73406:1 
-0 -0.1387838302437061 0 0.3170076216059486 0.08105818658915284 0 0 0.2437854424460126 0 0 0.1562943994283754 0 0 3:1 18:1 37:1 57:1 71:1 89:1 114:1 169:1 238:1 310:1 382:1 1198:1 10004:1 23415:1 35832:1 45407:1 48205:1 48207:1 48209:1 48761:1 54509:1 60808:1 69616:1 73406:1 
-0 -0 0 0 0 0 0 0.319407002231495 0 0 0 0 0 3:1 18:1 36:1 60:1 77:1 89:1 114:1 169:1 238:1 310:1 382:1 1198:1 10004:1 27333:1 29130:1 38687:1 48205:1 48207:1 48209:1 48761:1 54509:1 65937:1 68970:1 73406:1 
-0 -0 0 0 0 0 0 0 0 0.09794438055649422 0 0 0.1154377611457141 3:1 18:1 36:1 56:1 71:1 89:1 114:1 169:1 238:1 310:1 382:1 4604:1 10004:1 23341:1 29130:1 39044:1 48205:1 48207:1 48209:1 48761:1 54509:1 60808:1 69553:1 73406:1 
-0 -0 0.1160560460231573 0 0 0.1042834914883673 0.186056643058207 0 0 0 0 0 0 3:1 18:1 36:1 61:1 74:1 89:1 114:1 169:1 238:1 310:1 382:1 1198:1 10004:1 27333:1 29130:1 38687:1 48205:1 48207:1 48209:1 48761:1 54509:1 61233:1 68970:1 73406:1 
-0 -0.0949487372040641 0 0 0 0 0 0 0 0 0 0 0 3:1 18:1 36:1 58:1 71:1 91:1 105:1 185:1 243:1 310:1 382:1 9478:1 10004:1 28579:1 29117:1 45851:1 48205:1 48207:1 48209:1 54133:1 54509:1 61455:1 73066:1 73406:1 
-0 -0 0 0.1890549449901019 0 0 0 0.1402698720887153 0 0.1552795017259062 0 0 0.1651416102426696 3:1 18:1 36:1 55:1 78:1 89:1 105:1 169:1 238:1 310:1 382:1 9478:1 10004:1 28582:1 29130:1 38673:1 48205:1 48207:1 48209:1 54133:1 54509:1 60850:1 73068:1 73406:1 
-0 -0 0 0 0 0 0 0.1647369131485131 0 0 0 0 0 3:1 18:1 36:1 53:1 74:1 91:1 105:1 185:1 243:1 310:1 382:1 2560:1 10004:1 19570:1 29117:1 45851:1 48205:1 48207:1 48209:1 52108:1 54509:1 66836:1 67122:1 73406:1 
-0.1771628999620477 -0 0 0 0.09919814121470681 0 0 0.1058505593310444 0 0 0 0 0 3:1 18:1 38:1 54:1 70:1 91:1 105:1 185:1 243:1 310:1 382:1 1772:1 10004:1 19576:1 29108:1 40542:1 48205:1 48207:1 48209:1 49151:1 54509:1 66852:1 67127:1 73406:1 
-0 -0.1636661303093792 0 0.1041907998562139 0 0 0.07279975378078651 0.1540335138153702 0 0 0 0 0 3:1 18:1 40:1 56:1 71:1 85:1 105:1 166:1 239:1 310:1 382:1 9884:1 10058:1 19576:1 38551:1 38654:1 48205:1 48207:1 48209:1 54436:1 54509:1 60808:1 67127:1 73406:1 
-0.1736111042124256 -0 0 0 0 0 0.09949644080630207 0 0 0 0 0 0 3:1 18:1 36:1 56:1 71:1 89:1 105:1 169:1 238:1 310:1 382:1 6185:1 10004:1 19579:1 29130:1 38801:1 48205:1 48207:1 48209:1 51991:1 54509:1 64388:1 67129:1 73406:1 
-0 -0 0.1636661303093792 0.269541776204258 0.07353411611290003 0.1552795017259062 0.2178649165046736 0.2 0.04227583387987788 0.1855287451398442 0.1245878857068615 0.1855287451398442 0.2178649165046736 3:1 18:1 40:1 56:1 71:1 85:1 105:1 166:1 243:1 310:1 382:1 9995:1 10004:1 19566:1 30166:1 38654:1 48205:1 48207:1 48209:1 54505:1 54509:1 60808:1 67118:1 73406:1 
-0 -0 -0 0.1722392139287639 0 0 0 0 0 0 0 0 0 2:1 18:1 36:1 53:1 68:1 86:1 116:1 178:1 238:1 310:1 382:1 480:1 10004:1 19597:1 29148:1 38696:1 48205:1 48207:1 48209:1 48233:1 54509:1 60831:1 67144:1 73406:1 
-0.08598543321762668 -0 -0 0 0 0 0 0 0 0 0 0 0 2:1 18:1 36:1 53:1 68:1 86:1 116:1 178:1 238:1 310:1 382:1 480:1 10004:1 20479:1 29148:1 39516:1 48205:1 48207:1 48209:1 48233:1 54509:1 61057:1 67786:1 73406:1 
-0.09894651828100225 -0 -0 0 0 0 0 0 0 0 0 0 0 2:1 18:1 36:1 53:1 73:1 86:1 116:1 178:1 238:1 310:1 382:1 480:1 10004:1 20545:1 29148:1 39600:1 48205:1 48207:1 48209:1 48233:1 54509:1 61407:1 67834:1 73406:1 
-0 -0 -0 0 0 0 0.1610248415127318 0 0 0 0 0 0 2:1 18:1 36:1 60:1 81:1 86:1 116:1 178:1 238:1 310:1 382:1 480:1 10004:1 20785:1 29148:1 39884:1 48205:1 48207:1 48209:1 48233:1 54509:1 61383:1 67988:1 73406:1 
-0 -0 -0 0 0 0 0 0.1931354208596338 0 0 0 0 0 2:1 18:1 36:1 57:1 72:1 86:1 116:1 178:1 238:1 310:1 382:1 480:1 10004:1 20970:1 29148:1 40069:1 48205:1 48207:1 48209:1 48233:1 54509:1 60886:1 68107:1 73406:1 
-0 -0 -0.1636661303093792 0.1163421883533171 0 0 0 0 0 0 0 0 0 7:1 18:1 40:1 56:1 76:1 86:1 112:1 178:1 238:1 310:1 382:1 468:1 10004:1 21509:1 31071:1 40584:1 48205:1 48207:1 48209:1 48223:1 54509:1 60933:1 68437:1 73406:1 
-0 -0 -0 0 0.1384696588753928 0 0 0 0 0 0.1489577177996833 0 0 2:1 18:1 36:1 53:1 68:1 86:1 116:1 178:1 238:1 310:1 382:1 480:1 10004:1 21561:1 29148:1 40025:1 48205:1 48207:1 48209:1 48233:1 54509:1 61054:1 68466:1 73406:1 
-0 -0 -0 0 0 0 0 0 0.1320450876129722 0 0 0 0 2:1 18:1 36:1 52:1 75:1 86:1 116:1 178:1 238:1 310:1 382:1 480:1 10004:1 21742:1 29130:1 40841:1 48205:1 48207:1 48209:1 48233:1 54509:1 60933:1 68585:1 73406:1 
-0 -0 -0 0.09694793493213402 0 0 0 0 0 0 0 0 0 7:1 18:1 44:1 57:1 72:1 86:1 112:1 178:1 238:1 310:1 382:1 468:1 10004:1 21946:1 29166:1 41034:1 48205:1 48207:1 48209:1 48223:1 54509:1 60831:1 68710:1 73406:1 
-0 -0 -0.09788166881249982 0.1464248640195878 0 0 0 0 0 0 0 0 0 2:1 18:1 37:1 52:1 70:1 86:1 116:1 178:1 238:1 310:1 382:1 480:1 10004:1 22021:1 30082:1 41120:1 48205:1 48207:1 48209:1 48233:1 54509:1 60831:1 68761:1 73406:1 
-0 -0.1552795017259062 -0 0 0 0 0 0 0 0 0 0 0 2:1 18:1 36:1 52:1 70:1 86:1 116:1 178:1 238:1 310:1 382:1 480:1 10004:1 22021:1 29130:1 40699:1 48205:1 48207:1 48209:1 48233:1 54509:1 60808:1 68761:1 73406:1 
-0 -0 -0 0 0 0 0.1157718544276213 0 0 0 0 0 0 2:1 18:1 36:1 59:1 71:1 86:1 116:1 178:1 238:1 310:1 382:1 480:1 10004:1 22103:1 29130:1 41202:1 48205:1 48207:1 48209:1 48233:1 54509:1 60933:1 68816:1 73406:1 
-0 -0 -0 0.1433248590052853 0 0 0 0 0 0.1379512279896242 0 0 0.1321263073483968 2:1 18:1 36:1 57:1 77:1 86:1 116:1 178:1 238:1 310:1 382:1 480:1 10004:1 22158:1 29117:1 41257:1 48205:1 48207:1 48209:1 48233:1 54509:1 60808:1 68852:1 73406:1 
-0 -0 -0.2274014961979217 0 0 0 0 0 0 0 0 0 0 2:1 18:1 36:1 58:1 72:1 86:1 116:1 178:1 238:1 310:1 382:1 480:1 10004:1 22324:1 29117:1 41423:1 48205:1 48207:1 48209:1 48233:1 54509:1 60831:1 68961:1 73406:1 
-0.1532774592722228 -0 -0 0.208698665971755 0 0 0 0 0 0 0 0 0 2:1 18:1 37:1 52:1 70:1 86:1 116:1 178:1 238:1 310:1 382:1 480:1 10004:1 20925:1 30082:1 41441:1 48205:1 48207:1 48209:1 48233:1 54509:1 60847:1 68083:1 73406:1 
-0 -0 -0 0.2676504638527573 0 0 0 0 0 0 0.1086919721955266 0 0 2:1 18:1 37:1 52:1 70:1 86:1 116:1 178:1 238:1 310:1 382:1 480:1 10004:1 22020:1 30082:1 41859:1 48205:1 48207:1 48209:1 48233:1 54509:1 61057:1 68760:1 73406:1 
-0.1855287451398442 -0 -0 0 0 0.1197377528382183 0 0 0 0 0 0 0 2:1 18:1 36:1 52:1 71:1 86:1 116:1 178:1 238:1 310:1 382:1 480:1 10004:1 22987:1 29130:1 41856:1 48205:1 48207:1 48209:1 48233:1 54509:1 60862:1 69361:1 73406:1 
-0.1423070742039261 -0 -0 0 0 0 0 0 0 0 0 0 0 2:1 18:1 37:1 52:1 70:1 86:1 116:1 178:1 238:1 310:1 382:1 480:1 10004:1 22020:1 30082:1 40025:1 48205:1 48207:1 48209:1 48233:1 54509:1 60831:1 68760:1 73406:1 
-0 -0 -0 0 0 0 0 0.1371572969399866 0 0 0 0 0 2:1 18:1 36:1 52:1 70:1 86:1 116:1 178:1 238:1 310:1 382:1 480:1 10004:1 22234:1 29130:1 41202:1 48205:1 48207:1 48209:1 48233:1 54509:1 61017:1 68903:1 73406:1 
-0 -0.1054010161019535 -0 0 0 0 0 0 0 0 0 0 0 2:1 18:1 36:1 53:1 68:1 86:1 116:1 178:1 238:1 310:1 382:1 480:1 10004:1 22252:1 29117:1 41334:1 48205:1 48207:1 48209:1 48233:1 54509:1 60831:1 68916:1 73406:1 
-0.1393400280552914 -0 -0 0.113594494328765 0 0 0 0.09255646881772357 0 0 0 0 0 2:1 18:1 41:1 59:1 70:1 86:1 116:1 178:1 238:1 310:1 382:1 480:1 10004:1 23267:1 29118:1 42366:1 48205:1 48207:1 48209:1 48233:1 54509:1 61148:1 69501:1 73406:1 
-0.173487223700552 -0.06899120188403168 -0.1250285612326636 0.2141056895627426 0 0 0.09484098771100502 0.1192712837599237 0 0 0 0 0 7:1 18:1 36:1 57:1 74:1 95:1 155:1 178:1 238:1 310:1 382:1 463:1 10004:1 20944:1 29130:1 38743:1 48205:1 48207:1 48209:1 48214:1 54509:1 63301:1 68095:1 73406:1 
-0.1237455321511517 -0.135331693313286 -0.1160560460231573 0.1323291052364363 0 0 0.1140524783835372 0.1220729648059654 0 0 0 0 0 7:1 18:1 38:1 54:1 72:1 88:1 112:1 178:1 238:1 310:1 382:1 468:1 10004:1 25553:1 29113:1 42924:1 48205:1 48207:1 48209:1 48223:1 54509:1 60834:1 71053:1 73406:1 
-0.1867433529514622 -0 -0 0.2031136472435725 0.09971063115981464 0 0 0 0 0.1359385394451782 0.1259335039296094 0.0793364548416706 0 7:1 18:1 38:1 54:1 76:1 88:1 112:1 178:1 238:1 310:1 382:1 468:1 10004:1 20529:1 29113:1 42476:1 48205:1 48207:1 48209:1 48223:1 54509:1 60808:1 67821:1 73406:1 
-0.09735318385728094 -0.1381412482421326 -0.08611108971225037 0.1676303492014317 0.1199407678112211 0.09876850197497322 0.1497952532210154 0.1471905090886626 0 0.09541841369307581 0.1580486492678996 0.104816278413182 0.09427445145989789 7:1 18:1 36:1 58:1 76:1 95:1 155:1 178:1 238:1 310:1 382:1 463:1 10004:1 20761:1 29117:1 39193:1 48205:1 48207:1 48209:1 48214:1 54509:1 64563:1 67974:1 73406:1 
-0 -0 -0 0 0 0 0 0 0 0 0 0.1329652615604675 0 2:1 18:1 41:1 52:1 70:1 86:1 116:1 178:1 238:1 310:1 382:1 480:1 10004:1 20397:1 29118:1 38676:1 48205:1 48207:1 48209:1 48233:1 54509:1 61481:1 67726:1 73406:1 
-0 -0 -0 0.1015227281513566 0.1736111042124256 0.1552795017259062 0.2 0.2 0.1552795017259062 0.07819269051934984 0.1855287451398442 0.1552795017259062 0.1736111042124256 7:1 18:1 36:1 61:1 72:1 86:1 112:1 178:1 238:1 310:1 382:1 468:1 10004:1 20407:1 29130:1 39497:1 48205:1 48207:1 48209:1 48223:1 54509:1 60831:1 67734:1 73406:1 
-0.4514437077104691 -0 -0 -0 0 0 0 0 0 0 0 0 0 2:1 18:1 36:1 56:1 71:1 85:1 111:1 166:1 238:1 310:1 382:1 465:1 10004:1 19570:1 29117:1 38654:1 48205:1 48207:1 48209:1 48220:1 54509:1 60808:1 67122:1 73406:1 
-0.3974043629949223 -0.1723023483411243 -0 -0.1722392139287639 0 0 0 0.2000374379006959 0 0 0 0 0 2:1 18:1 37:1 52:1 70:1 86:1 135:1 168:1 238:1 310:1 382:1 585:1 10004:1 20925:1 30082:1 40024:1 48205:1 48207:1 48209:1 48317:1 54509:1 60847:1 68083:1 73406:1 
-0 -0 -0 -0 0 0 0.2748230593220096 0 0 0 0 0 0 4:1 18:1 37:1 55:1 73:1 92:1 109:1 179:1 238:1 310:1 382:1 463:1 10004:1 19655:1 30298:1 38668:1 48205:1 48207:1 48209:1 48214:1 54509:1 60812:1 67192:1 73406:1 
-0 -0.09732802424108801 -0.1616334632596164 -0 0.09141085121294089 0 0 0 0 0 0.2176647966421849 0 0 5:1 18:1 36:1 52:1 70:1 91:1 117:1 166:1 238:1 310:1 382:1 565:1 10004:1 21705:1 29115:1 38654:1 48205:1 48207:1 48209:1 48216:1 54509:1 60808:1 68561:1 73406:1 
-0.1009120320284737 -0 -0 -0.2031136472435725 0 0 0.1875854128255632 0 0 0 0 0 0 2:1 18:1 36:1 54:1 70:1 86:1 111:1 166:1 238:1 310:1 382:1 465:1 10004:1 19570:1 29117:1 38654:1 48205:1 48207:1 48209:1 48220:1 54509:1 60808:1 67122:1 73406:1 
-0 -0 -0 -0 0 0 0 0.2000428952043885 0 0 0 0 0 2:1 18:1 36:1 57:1 74:1 88:1 111:1 166:1 238:1 310:1 382:1 465:1 10004:1 19570:1 29117:1 38654:1 48205:1 48207:1 48209:1 48220:1 54509:1 60808:1 67122:1 73406:1 
-0 -0 -0 -0 0 0 0 0 0 0 0.1542153888800297 0 0 4:1 18:1 37:1 58:1 73:1 88:1 109:1 167:1 238:1 310:1 382:1 651:1 10004:1 19655:1 29226:1 40966:1 48205:1 48207:1 48209:1 48367:1 54509:1 61139:1 67192:1 73406:1 
-0 -0 -0.269541776204258 -0 0 0.1040023528875575 0 0 0 0 0.1815392325931001 0 0 2:1 18:1 36:1 56:1 71:1 85:1 111:1 166:1 238:1 310:1 382:1 465:1 10004:1 19566:1 29117:1 38654:1 48205:1 48207:1 48209:1 48220:1 54509:1 60808:1 67118:1 73406:1 
-0.1720598346631787 -0 -0 -0.1464248640195878 0 0 0.1754287230883806 0.1140410388516485 0 0 0 0 0 2:1 18:1 36:1 52:1 70:1 88:1 111:1 166:1 238:1 310:1 382:1 493:1 10004:1 21599:1 29130:1 38654:1 48205:1 48207:1 48209:1 48243:1 54509:1 60808:1 68491:1 73406:1 
-0 -0 -0 -0 0 0 0.09291798186343958 0 0 0 0 0 0 4:1 18:1 37:1 53:1 68:1 93:1 113:1 195:1 238:1 310:1 382:1 749:1 10004:1 20649:1 29848:1 39067:1 48205:1 48207:1 48209:1 48311:1 54509:1 62537:1 68510:1 73406:1 
-0.2367877313148339 -0.1642102315188085 -0 -0 0 0 0 0 0 0.1325137446628273 0 0 0.1741079940753168 2:1 18:1 36:1 52:1 70:1 88:1 111:1 166:1 238:1 310:1 382:1 465:1 10004:1 22157:1 29130:1 38654:1 48205:1 48207:1 48209:1 48220:1 54509:1 60808:1 68851:1 73406:1 
-0 -0 -0 -0 0 0 0 0 0 0 0 0.09004877447242493 0 2:1 18:1 36:1 60:1 74:1 93:1 111:1 166:1 238:1 310:1 382:1 465:1 10004:1 22279:1 29117:1 38654:1 48205:1 48207:1 48209:1 48220:1 54509:1 60808:1 68936:1 73406:1 
-0 -0 -0 -0.2141056895627426 0 0 0 0 0 0 0 0 0 7:1 18:1 37:1 53:1 69:1 95:1 155:1 178:1 238:1 310:1 382:1 463:1 10004:1 22336:1 29848:1 38743:1 48205:1 48207:1 48209:1 48214:1 54509:1 62502:1 68970:1 73406:1 
-0 -0 -0 -0 0 0 0.1140121640197569 0 0 0 0 0 0 4:1 18:1 37:1 59:1 74:1 91:1 113:1 182:1 238:1 310:1 382:1 1280:1 10004:1 19655:1 30034:1 39305:1 48205:1 48207:1 48209:1 48240:1 54509:1 61088:1 67192:1 73406:1 
-0 -0 -0 -0 0.1048100230595535 0 0 0 0 0 0 0 0 2:1 18:1 36:1 53:1 78:1 88:1 111:1 166:1 238:1 310:1 382:1 465:1 10004:1 23034:1 29117:1 38654:1 48205:1 48207:1 48209:1 48220:1 54509:1 60808:1 69389:1 73406:1 
-0.1699797169848027 -0 -0 -0 0 0 0 0 0 0 0 0 0 2:1 18:1 37:1 53:1 78:1 88:1 116:1 175:1 238:1 310:1 382:1 480:1 10004:1 23390:1 29848:1 42488:1 48205:1 48207:1 48209:1 48233:1 54509:1 60812:1 69596:1 73406:1 
-0 -0.1855287451398442 -0 -0 0 0 0 0 0 0 0 0 0 6:1 18:1 37:1 55:1 71:1 85:1 108:1 166:1 239:1 310:1 382:1 4633:1 10030:1 23734:1 29848:1 38654:1 48205:1 48207:1 48209:1 50966:1 54509:1 60808:1 69864:1 73406:1 
-0.3086419971118972 -0 -0 -0 0 0 0 0 0 0 0 0 0 2:1 18:1 37:1 55:1 71:1 86:1 135:1 168:1 238:1 310:1 382:1 585:1 10004:1 23441:1 32992:1 41810:1 48205:1 48207:1 48209:1 48317:1 54509:1 60812:1 69641:1 73406:1 
-0 -0 -0 -0 0 0 0.2087560148223704 0 0 0 0 0 0 4:1 18:1 37:1 53:1 68:1 89:1 113:1 214:1 238:1 310:1 382:1 749:1 10004:1 24024:1 32993:1 39480:1 48205:1 48207:1 48209:1 48311:1 54509:1 63751:1 70052:1 73406:1 
-0 -0.07901791351960054 -0 -0 0.1182961882294325 0 0 0 0 0 0 0 0 6:1 18:1 37:1 53:1 73:1 88:1 137:1 181:1 246:1 310:1 382:1 4953:1 11359:1 24054:1 30135:1 43152:1 48205:1 48207:1 48209:1 50614:1 54509:1 63772:1 70072:1 73406:1 
-0 -0 -0 -0 0 0 0 0 0 0 0 0.1543250642446083 0 6:1 18:1 37:1 56:1 71:1 88:1 108:1 181:1 244:1 310:1 382:1 5008:1 10128:1 24109:1 32993:1 42545:1 48205:1 48207:1 48209:1 48774:1 54509:1 60808:1 70112:1 73406:1 
-0 -0 -0 -0 0.1471843921375396 0 0 0 0 0 0 0 0 6:1 18:1 37:1 53:1 68:1 91:1 136:1 167:1 238:1 310:1 382:1 5039:1 10004:1 24140:1 33674:1 43238:1 48205:1 48207:1 48209:1 51166:1 54509:1 60909:1 70137:1 73406:1 
-0 -0 -0 -0 0 0 0 0 0 0 0.08672046047432549 0 0.2190712094125505 1:1 18:1 37:1 53:1 68:1 91:1 103:1 185:1 238:1 310:1 382:1 1429:1 10004:1 23845:1 32993:1 41496:1 48205:1 48207:1 48209:1 48924:1 54509:1 60812:1 69939:1 73406:1 
-0 -0 -0 -0 0 0.08627592782578758 0 0 0 0 0 0 0 1:1 18:1 37:1 53:1 68:1 86:1 103:1 193:1 238:1 310:1 382:1 1429:1 10004:1 24333:1 33884:1 43432:1 48205:1 48207:1 48209:1 48924:1 54509:1 60838:1 69939:1 73406:1 
-0.3636363636363636 -0 -0 -0 0 0 0 0.1518920810848976 0 0 0 0 0 2:1 18:1 37:1 53:1 68:1 86:1 135:1 168:1 238:1 310:1 382:1 585:1 10004:1 24549:1 32993:1 43124:1 48205:1 48207:1 48209:1 48317:1 54509:1 60838:1 70395:1 73406:1 
-0.1241701531185486 -0 -0.1087069005305517 -0 0 0 0.1168013850370824 0 0 0 0 0 0 8:1 18:1 36:1 52:1 71:1 89:1 131:1 166:1 238:1 310:1 382:1 1216:1 10004:1 20297:1 29235:1 38654:1 48205:1 48207:1 48209:1 48453:1 54509:1 60808:1 67657:1 73406:1 
-0 -0 -0 -0 0 0 0.239557707062429 0 0 0 0 0 0 4:1 18:1 37:1 55:1 71:1 88:1 109:1 167:1 238:1 310:1 382:1 739:1 10004:1 19655:1 33374:1 42540:1 48205:1 48207:1 48209:1 48240:1 54509:1 62821:1 67192:1 73406:1 
-0 -0 -0 -0 0 0 0 0 0 0 0 0 0.288057067076701 1:1 18:1 37:1 53:1 68:1 89:1 103:1 169:1 238:1 310:1 382:1 4315:1 10004:1 23845:1 32993:1 38966:1 48205:1 48207:1 48209:1 50719:1 54509:1 61746:1 69939:1 73406:1 
-0 -0 -0 -0 0 0 0.1421998944096945 0 0 0 0 0 0 4:1 18:1 37:1 53:1 68:1 89:1 109:1 191:1 238:1 310:1 382:1 766:1 10004:1 24634:1 32993:1 39968:1 48205:1 48207:1 48209:1 48311:1 54509:1 62784:1 70453:1 73406:1 
-0 -0 -0 -0 0 0.1417733573219586 0 0.1881962723294634 0 0 0 0 0 1:1 18:1 37:1 58:1 70:1 89:1 103:1 169:1 238:1 310:1 382:1 5232:1 10004:1 23845:1 32993:1 38663:1 48205:1 48207:1 48209:1 51361:1 54509:1 62087:1 69939:1 73406:1 
-0 -0 -0 -0 0 0 0.1559438744772589 0 0 0.2618346131867295 0 0 0 5:1 18:1 35:1 54:1 70:1 92:1 117:1 166:1 238:1 310:1 382:1 482:1 10004:1 23415:1 33395:1 38654:1 48205:1 48207:1 48209:1 48216:1 54509:1 60808:1 69616:1 73406:1 
-0 -0 -0 -0 0 0 0.1529487107000513 0 0 0 0 0 0 4:1 18:1 37:1 55:1 71:1 95:1 113:1 167:1 238:1 310:1 382:1 550:1 10004:1 23109:1 34250:1 39079:1 48205:1 48207:1 48209:1 48214:1 54509:1 60825:1 69425:1 73406:1 
-0.3148798337833442 -0 -0 -0 0 0 0 0 0 0 0 0 0 2:1 18:1 37:1 53:1 70:1 88:1 111:1 175:1 238:1 310:1 382:1 465:1 10004:1 24731:1 32992:1 42755:1 48205:1 48207:1 48209:1 48220:1 54509:1 60812:1 70519:1 73406:1 
-0 -0 -0.2182507880193565 -0 0 0 0 0.1575899536315959 0 0 0 0 0 3:1 18:1 37:1 57:1 74:1 89:1 152:1 169:1 238:1 310:1 382:1 5825:1 10004:1 24926:1 34477:1 39676:1 48205:1 48207:1 48209:1 50620:1 54509:1 60808:1 67657:1 73406:1 
-0 -0 -0 -0 0 0 0 0 0 0.2607251232155183 0 0 0 9:1 18:1 37:1 55:1 71:1 89:1 121:1 166:1 238:1 310:1 382:1 1224:1 10004:1 24979:1 29207:1 38654:1 48205:1 48207:1 48209:1 48779:1 54509:1 60808:1 70677:1 73406:1 
-0.1708574953279908 -0 -0 -0.113594494328765 0 0 0.09011904757825336 0.1420164615235947 0 0 0 0 0 2:1 18:1 40:1 55:1 73:1 91:1 116:1 178:1 238:1 310:1 382:1 480:1 10004:1 19655:1 34596:1 43914:1 48205:1 48207:1 48209:1 48233:1 54509:1 60808:1 67192:1 73406:1 
-0 -0 -0 -0.2676504638527573 0 0 0 0 0 0 0 0 0 2:1 18:1 37:1 57:1 72:1 91:1 116:1 178:1 238:1 310:1 382:1 480:1 10004:1 19655:1 34601:1 44150:1 48205:1 48207:1 48209:1 48233:1 54509:1 60831:1 67192:1 73406:1 
-0 -0 -0 -0 0 0 0 0 0 0 0.1057795712810119 0 0 6:1 18:1 37:1 55:1 71:1 88:1 118:1 181:1 239:1 310:1 382:1 5946:1 10304:1 19655:1 33374:1 42451:1 48205:1 48207:1 48209:1 50615:1 54509:1 60812:1 67192:1 73406:1 
-0 -0 -0 -0 0 0 0.1405274134277223 0 0 0 0 0 0 4:1 18:1 37:1 55:1 71:1 88:1 109:1 167:1 238:1 310:1 382:1 766:1 10004:1 24773:1 34661:1 40190:1 48205:1 48207:1 48209:1 48311:1 54509:1 60881:1 70551:1 73406:1 
-0 -0 -0.1637045002383942 -0 0 0 0 0.08136673507155733 0 0 0 0 0 6:1 18:1 37:1 55:1 71:1 88:1 137:1 181:1 238:1 310:1 382:1 6062:1 10004:1 23415:1 34713:1 44261:1 48205:1 48207:1 48209:1 51909:1 54509:1 60867:1 69616:1 73406:1 
-0 -0.1459996666030086 -0 -0 0 0 0 0 0 0 0 0 0 4:1 18:1 37:1 59:1 70:1 91:1 109:1 167:1 238:1 310:1 382:1 518:1 10004:1 20297:1 34084:1 44310:1 48205:1 48207:1 48209:1 48264:1 54509:1 60808:1 67657:1 73406:1 
-0 -0.1573513421879827 -0.2475203899915347 -0 0 0 0 0 0 0 0 0 0 3:1 18:1 37:1 53:1 68:1 89:1 105:1 169:1 238:1 310:1 382:1 2669:1 10004:1 19655:1 34787:1 38673:1 48205:1 48207:1 48209:1 49703:1 54509:1 60816:1 67192:1 73406:1 
-0.1740340490212398 -0 -0 -0 0 0 0.2331560088833041 0.08240928214173782 0 0 0 0 0 4:1 18:1 42:1 54:1 74:1 91:1 109:1 167:1 238:1 310:1 382:1 473:1 10004:1 24140:1 34899:1 42687:1 48205:1 48207:1 48209:1 48227:1 54509:1 60808:1 70137:1 73406:1 
-0.27840009248622 -0.1044601584600015 -0.1308001745295727 -0 0.1552556551583416 0.09265660075501697 0.1868673701608185 0.1613571797089391 0 0.1797612447644688 0.1106011122126379 0.1452103345223929 0 9:1 18:1 35:1 54:1 75:1 91:1 121:1 167:1 238:1 310:1 382:1 1361:1 10004:1 19570:1 33395:1 43148:1 48205:1 48207:1 48209:1 48874:1 54509:1 63330:1 67122:1 73406:1 
-0 -0 -0 -0 0 0 0 0 0 0 0 0 0.3821358389264007 1:1 18:1 37:1 58:1 71:1 94:1 103:1 166:1 238:1 310:1 382:1 470:1 10004:1 23845:1 34856:1 38654:1 48205:1 48207:1 48209:1 48225:1 54509:1 60808:1 69939:1 73406:1 
-0.1240923300364026 -0 -0 -0 0 0 0 0.1073679268979619 0 0 0 0 0 2:1 18:1 37:1 57:1 72:1 88:1 135:1 175:1 238:1 310:1 382:1 585:1 10004:1 23920:1 32890:1 42470:1 48205:1 48207:1 48209:1 48317:1 54509:1 60881:1 69993:1 73406:1 
-0 -0 -0 -0 0 0 0 0 0 0 0 0 0.1999709934602432 1:1 18:1 37:1 55:1 71:1 89:1 103:1 169:1 238:1 310:1 382:1 476:1 10004:1 23845:1 33374:1 38949:1 48205:1 48207:1 48209:1 48230:1 54509:1 60838:1 69939:1 73406:1 
-0.1466320321148362 -0 -0.219230329561804 -0 0 0 0 0.1209606766211197 0 0 0 0 0 3:1 18:1 37:1 53:1 68:1 89:1 152:1 169:1 238:1 310:1 382:1 4201:1 10004:1 24673:1 30135:1 38663:1 48205:1 48207:1 48209:1 50620:1 54509:1 64567:1 70475:1 73406:1 
-0 -0 -0 -0 0 0 0.2519927833583432 0 0 0 0 0 0 4:1 18:1 37:1 58:1 71:1 88:1 113:1 167:1 238:1 310:1 382:1 471:1 10004:1 25517:1 35068:1 44750:1 48205:1 48207:1 48209:1 48214:1 54509:1 61825:1 71027:1 73406:1 
-0 -0 -0.1890549449901019 -0 0 0 0 0.1638027491132818 0.1379423860986864 0 0.1168798916741733 0 0 3:1 18:1 37:1 55:1 69:1 89:1 105:1 169:1 238:1 310:1 382:1 4576:1 10004:1 24054:1 35572:1 38795:1 48205:1 48207:1 48209:1 50308:1 54509:1 60816:1 70072:1 73406:1 
-0 -0 -0 -0 0 0 0.225377748900801 0 0 0 0 0 0 4:1 18:1 37:1 55:1 71:1 88:1 109:1 167:1 238:1 310:1 382:1 1194:1 10004:1 20297:1 32992:1 45122:1 48205:1 48207:1 48209:1 48283:1 54509:1 60816:1 67657:1 73406:1 
-0 -0 -0 -0 0 0 0 0 0 0 0 0.1020020613275512 0 6:1 18:1 37:1 53:1 78:1 85:1 118:1 166:1 239:1 310:1 382:1 6926:1 11717:1 22368:1 30135:1 38654:1 48205:1 48207:1 48209:1 49422:1 54509:1 60808:1 68986:1 73406:1 
-0 -0 -0 -0 0 0 0 0 0 0 0 0 0.1834465376764351 1:1 18:1 37:1 53:1 72:1 85:1 103:1 166:1 239:1 310:1 382:1 4875:1 10004:1 23845:1 33201:1 38654:1 48205:1 48207:1 48209:1 51126:1 54509:1 60808:1 69939:1 73406:1 
-0 -0 -0 -0.1323291052364363 0 0 0 0.1237631897364116 0 0 0 0 0 4:1 18:1 37:1 61:1 74:1 86:1 113:1 167:1 238:1 310:1 382:1 471:1 10004:1 22760:1 29551:1 39766:1 48205:1 48207:1 48209:1 48214:1 54509:1 60825:1 69232:1 73406:1 
-0.1600896912049238 -0 -0.08715302718799679 -0 0.09249000774310925 0 0.1697947127727068 0.1691581001174081 0 0 0.07226278435146369 0 0 4:1 18:1 42:1 54:1 76:1 91:1 109:1 182:1 238:1 310:1 382:1 739:1 10004:1 23248:1 30871:1 45350:1 48205:1 48207:1 48209:1 48240:1 54509:1 62786:1 69493:1 73406:1 
-0 -0 -0 -0 0 0 0 0 0 0 0.269541776204258 0 0 5:1 18:1 37:1 55:1 71:1 92:1 117:1 166:1 238:1 310:1 382:1 482:1 10004:1 24117:1 35869:1 38654:1 48205:1 48207:1 48209:1 48216:1 54509:1 60808:1 70120:1 73406:1 
-0 -0 -0 -0 0 0 0.1774348408786231 0 0 0 0 0 0 4:1 18:1 37:1 57:1 72:1 88:1 109:1 167:1 238:1 310:1 382:1 463:1 10004:1 26329:1 35880:1 39336:1 48205:1 48207:1 48209:1 48214:1 54509:1 60964:1 71527:1 73406:1 
-0 -0 -0.1085834598843157 -0 0 0 0 0 0 0 0 0 0 1:1 18:1 37:1 53:1 68:1 88:1 103:1 176:1 239:1 310:1 382:1 4723:1 10004:1 23845:1 31256:1 42543:1 48205:1 48207:1 48209:1 51027:1 54509:1 60909:1 69939:1 73406:1 
-0 -0 -0 -0 0 0 0.1574862512022351 0 0 0 0 0 0 4:1 18:1 37:1 53:1 69:1 85:1 109:1 166:1 238:1 310:1 382:1 603:1 10004:1 20761:1 33586:1 38654:1 48205:1 48207:1 48209:1 48264:1 54509:1 60808:1 67974:1 73406:1 
-0 -0 -0 -0 0 0 0.03792010791641678 0 0 0 0 0 0 3:1 18:1 37:1 54:1 72:1 85:1 152:1 166:1 238:1 310:1 382:1 1481:1 10004:1 26943:1 36494:1 38654:1 48205:1 48207:1 48209:1 48962:1 54509:1 60808:1 71966:1 73406:1 
-0.1073784062428447 -0 -0 -0 0 0 0 0 0 0 0 0 0 2:1 18:1 37:1 53:1 73:1 88:1 116:1 175:1 238:1 310:1 382:1 480:1 10004:1 26381:1 29848:1 42779:1 48205:1 48207:1 48209:1 48233:1 54509:1 60812:1 71563:1 73406:1 
-0 -0 -0 -0 0 0 0.1872653375662681 0 0 0 0 0 0 4:1 18:1 37:1 53:1 70:1 91:1 109:1 167:1 238:1 310:1 382:1 518:1 10004:1 22336:1 30351:1 45338:1 48205:1 48207:1 48209:1 48264:1 54509:1 61828:1 68970:1 73406:1 
-0 -0 -0 -0 0 0 0.1704760793542208 0 0 0 0 0 0 4:1 18:1 37:1 61:1 74:1 88:1 109:1 167:1 238:1 310:1 382:1 739:1 10004:1 22809:1 36823:1 42535:1 48205:1 48207:1 48209:1 48240:1 54509:1 60834:1 69256:1 73406:1 
-0 -0 -0 -0 0 0 0 0.1694620230670209 0 0 0.1494959565194871 0 0 5:1 18:1 41:1 59:1 71:1 87:1 117:1 166:1 238:1 310:1 382:1 482:1 10004:1 27304:1 29118:1 38654:1 48205:1 48207:1 48209:1 48216:1 54509:1 60808:1 70433:1 73406:1 
-0 -0 -0 -0 0 0 0 0 0 0.2093709681573896 0.08672573787498236 0 0 8:1 18:1 37:1 61:1 74:1 90:1 133:1 166:1 238:1 310:1 382:1 963:1 10004:1 20297:1 33208:1 38654:1 48205:1 48207:1 48209:1 48277:1 54509:1 60808:1 67657:1 73406:1 
-0 -0 -0 -0 0 0 0.1397094641700488 0 0 0.2192307687899064 0.09150392217704638 0 0.1356080789441716 3:1 18:1 38:1 54:1 71:1 87:1 152:1 166:1 238:1 310:1 382:1 8331:1 10004:1 26943:1 29338:1 38654:1 48205:1 48207:1 48209:1 53406:1 54509:1 60808:1 71966:1 73406:1 
-0 -0 -0 -0 0 0 0.1613241464440267 0 0 0 0 0 0 4:1 18:1 37:1 55:1 71:1 87:1 113:1 166:1 238:1 310:1 382:1 578:1 10004:1 27494:1 36294:1 38654:1 48205:1 48207:1 48209:1 48227:1 54509:1 60808:1 72355:1 73406:1 
-0.2102777303487146 -0 -0 -0 0 0 0 0 0 0 0 0 0 4:1 18:1 37:1 53:1 74:1 88:1 109:1 167:1 238:1 310:1 382:1 463:1 10004:1 24140:1 29848:1 43025:1 48205:1 48207:1 48209:1 48214:1 54509:1 60825:1 70137:1 73406:1 
-0 -0 -0 -0.1472146308846023 0 0 0 0 0 0 0 0 0 2:1 18:1 37:1 55:1 71:1 88:1 116:1 178:1 238:1 310:1 382:1 480:1 10004:1 20297:1 30351:1 43193:1 48205:1 48207:1 48209:1 48233:1 54509:1 60808:1 67657:1 73406:1 
-0 -0 -0 -0.208698665971755 0 0 0 0 0 0 0 0 0 2:1 18:1 37:1 57:1 72:1 88:1 116:1 178:1 238:1 310:1 382:1 480:1 10004:1 24038:1 37256:1 39901:1 48205:1 48207:1 48209:1 48233:1 54509:1 60831:1 70064:1 73406:1 
-0 -0 -0 -0 0 0 0.1420423187253924 0 0 0 0 0 0 4:1 18:1 37:1 53:1 78:1 88:1 113:1 167:1 238:1 310:1 382:1 1126:1 10004:1 27787:1 29848:1 42005:1 48205:1 48207:1 48209:1 48283:1 54509:1 61590:1 68970:1 73406:1 
-0 -0 -0.184499419515426 -0 0 0 0 0.1927759660665469 0 0 0 0 0 3:1 18:1 36:1 53:1 71:1 85:1 152:1 166:1 238:1 310:1 382:1 8331:1 10004:1 26943:1 29115:1 38654:1 48205:1 48207:1 48209:1 53406:1 54509:1 60808:1 71966:1 73406:1 
-0 -0 -0.1637871079657644 -0 0 0 0.1401174242988414 0 0 0 0 0 0 4:1 18:1 37:1 52:1 71:1 91:1 109:1 167:1 238:1 310:1 382:1 473:1 10004:1 22760:1 30351:1 47165:1 48205:1 48207:1 48209:1 48227:1 54509:1 66432:1 69232:1 73406:1 
-0 -0 -0.1652648275438068 -0 0 0 0 0.186063636217144 0 0 0 0 0 3:1 18:1 37:1 53:1 68:1 89:1 114:1 169:1 243:1 310:1 382:1 1701:1 10004:1 23975:1 33374:1 38673:1 48205:1 48207:1 48209:1 49102:1 54509:1 66436:1 70023:1 73406:1 
-0 -0 -0 -0 0 0 0.2415961898239535 0 0 0 0 0 0 4:1 18:1 37:1 59:1 70:1 85:1 109:1 166:1 238:1 310:1 382:1 631:1 10004:1 23813:1 34808:1 38654:1 48205:1 48207:1 48209:1 48227:1 54509:1 60808:1 69918:1 73406:1 
-0 -0 -0 -0 0 0 0 0 0 0 0.131381308989179 0 0 9:1 18:1 37:1 55:1 72:1 94:1 121:1 190:1 238:1 310:1 382:1 5284:1 10004:1 19655:1 33586:1 38718:1 48205:1 48207:1 48209:1 54064:1 54509:1 60808:1 67192:1 73406:1 
-0.1547037880196709 -0.08577268469355319 -0.1041907998562139 -0 0.1398986004271286 0 0.1640104896632449 0.135632069524379 0.08417521685713804 0 0 0.164786407191347 0 6:1 18:1 41:1 59:1 71:1 92:1 108:1 179:1 244:1 310:1 382:1 9515:1 10004:1 19655:1 29268:1 39954:1 48205:1 48207:1 48209:1 54192:1 54509:1 60856:1 67192:1 73406:1 
-0 -0 -0 -0 0 0 0.1846798680619929 0 0 0 0 0 0 4:1 18:1 37:1 53:1 75:1 88:1 109:1 167:1 238:1 310:1 382:1 766:1 10004:1 19655:1 38230:1 39696:1 48205:1 48207:1 48209:1 48311:1 54509:1 61084:1 67192:1 73406:1 
-0.1074730531783502 -0 -0 -0 0 0 0 0.203363737580917 0 0 0 0 0 3:1 18:1 37:1 55:1 71:1 92:1 152:1 179:1 238:1 310:1 382:1 9621:1 10004:1 25114:1 38272:1 38668:1 48205:1 48207:1 48209:1 54264:1 54509:1 66861:1 70767:1 73406:1 
-0.2070330863280961 -0 -0 -0 0 0 0 0 0 0 0 0 0 2:1 18:1 37:1 53:1 70:1 86:1 135:1 168:1 238:1 310:1 382:1 585:1 10004:1 20397:1 33374:1 38679:1 48205:1 48207:1 48209:1 48317:1 54509:1 60909:1 67726:1 73406:1 
-0 -0 -0 -0 0 0 0 0 0 0.1741537384281792 0 0 0 9:1 18:1 37:1 58:1 69:1 89:1 121:1 166:1 238:1 310:1 382:1 1939:1 10004:1 23390:1 32941:1 38654:1 48205:1 48207:1 48209:1 49253:1 54509:1 60808:1 69596:1 73406:1 
-0 -0 -0.0987568335865921 -0.09305816305281694 0 0 0 0 0 0 0 0 0 7:1 18:1 37:1 56:1 76:1 88:1 112:1 178:1 238:1 310:1 382:1 468:1 10004:1 22565:1 32956:1 42491:1 48205:1 48207:1 48209:1 48223:1 54509:1 60812:1 69108:1 73406:1 
-0.1889649897059247 -0 -0 -0 0 0 0 0 0 0 0 0 0 2:1 18:1 37:1 55:1 71:1 88:1 116:1 168:1 238:1 310:1 382:1 480:1 10004:1 23339:1 32890:1 47968:1 48205:1 48207:1 48209:1 48233:1 54509:1 60909:1 69551:1 73406:1 
-0 -0 -0 -0.2178649165046736 0 0.1336283305756704 0 0 0 0 0 0 0 7:1 18:1 37:1 53:1 76:1 88:1 112:1 178:1 238:1 310:1 382:1 468:1 10004:1 24140:1 32956:1 47408:1 48205:1 48207:1 48209:1 48223:1 54509:1 60812:1 70137:1 73406:1 
-0 -0 -0 -0.1676303492014317 0 0 0 0 0 0 0.1026524710671602 0 0 7:1 18:1 37:1 53:1 78:1 95:1 155:1 178:1 238:1 310:1 382:1 463:1 10004:1 24510:1 30353:1 39193:1 48205:1 48207:1 48209:1 48214:1 54509:1 60838:1 70367:1 73406:1 
-0 -0 -0 -0 0.09303873739673496 0.1138625636171162 0.1038527524849167 0.03363666405494659 0.0639729312910101 0.1078708795390435 0.1084960778229536 0.08352668381229304 0.05693808652543578 8:1 18:1 37:1 53:1 68:1 89:1 133:1 166:1 238:1 310:1 382:1 744:1 10004:1 25767:1 29848:1 38654:1 48205:1 48207:1 48209:1 48428:1 54509:1 60808:1 71184:1 73406:1 
-0 -0 -0.08105818658915284 -0.1199407678112211 -0 0 0 0 0 0 0 0 0 6:1 18:1 36:1 52:1 70:1 91:1 130:1 176:1 238:1 310:1 382:1 545:1 10004:1 19684:1 29235:1 38777:1 48205:1 48207:1 48209:1 48288:1 54509:1 60831:1 67213:1 73406:1 
-0 -0 -0 -0 -0 0 0.09735689470172336 0.1114950483935452 0 0 0 0 0 6:1 18:1 36:1 56:1 71:1 87:1 130:1 176:1 238:1 310:1 382:1 545:1 10004:1 19739:1 29148:1 38680:1 48205:1 48207:1 48209:1 48288:1 54509:1 60953:1 67253:1 73406:1 
-0.1460362481964443 -0 -0 -0 -0 0 0 0 0 0 0 0 0 6:1 18:1 42:1 53:1 70:1 88:1 130:1 176:1 238:1 310:1 382:1 545:1 10004:1 19745:1 29296:1 38749:1 48205:1 48207:1 48209:1 48288:1 54509:1 60831:1 67259:1 73406:1 
-0 -0 -0.1721539639706714 -0 -0 0 0 0 0 0 0 0 0 6:1 18:1 36:1 52:1 70:1 88:1 130:1 176:1 238:1 310:1 382:1 545:1 10004:1 19764:1 29235:1 38863:1 48205:1 48207:1 48209:1 48288:1 54509:1 60808:1 67275:1 73406:1 
-0 -0 -0.1636661303093792 -0 -0 0 0 0 0 0 0 0.1824195258313999 0.1633230393908317 6:1 18:1 36:1 55:1 71:1 91:1 130:1 176:1 238:1 310:1 382:1 545:1 10004:1 19555:1 29148:1 39346:1 48205:1 48207:1 48209:1 48288:1 54509:1 60808:1 67108:1 73406:1 
-0 -0 -0 -0 -0.1048100230595535 0 0 0.08372484073923586 0 0 0 0 0 6:1 18:1 36:1 52:1 70:1 88:1 130:1 176:1 238:1 310:1 382:1 545:1 10004:1 20364:1 29235:1 38710:1 48205:1 48207:1 48209:1 48288:1 54509:1 61402:1 67703:1 73406:1 
-0 -0.08842556507753951 -0 -0 -0 0 0 0 0 0.1082726936142331 0 0 0 6:1 18:1 36:1 52:1 70:1 88:1 130:1 176:1 238:1 310:1 382:1 545:1 10004:1 20969:1 29130:1 39915:1 48205:1 48207:1 48209:1 48288:1 54509:1 60808:1 68106:1 73406:1 
-0.1736111042124256 -0 -0 -0 -0 0 0 0 0 0 0.1046219622301362 0 0 6:1 18:1 36:1 58:1 71:1 88:1 130:1 176:1 238:1 310:1 382:1 545:1 10004:1 21155:1 29148:1 40254:1 48205:1 48207:1 48209:1 48288:1 54509:1 60812:1 68233:1 73406:1 
-0 -0 -0 -0 -0 0 0 0.1958074537495727 0 0 0 0 0 6:1 18:1 36:1 57:1 72:1 88:1 130:1 176:1 238:1 310:1 382:1 545:1 10004:1 20751:1 29148:1 38858:1 48205:1 48207:1 48209:1 48288:1 54509:1 60812:1 67969:1 73406:1 
-0 -0.1292378928714606 -0 -0 -0 0 0 0 0 0 0 0 0 6:1 18:1 36:1 55:1 71:1 88:1 130:1 176:1 238:1 310:1 382:1 545:1 10004:1 21355:1 29148:1 40453:1 48205:1 48207:1 48209:1 48288:1 54509:1 60909:1 68343:1 73406:1 
-0 -0 -0 -0 -0.1182961882294325 0 0 0 0 0 0 0 0 6:1 18:1 36:1 53:1 71:1 88:1 130:1 176:1 238:1 310:1 382:1 545:1 10004:1 19555:1 29148:1 38715:1 48205:1 48207:1 48209:1 48288:1 54509:1 60909:1 67108:1 73406:1 
-0 -0 -0.09919814121470681 -0 -0 0 0 0 0 0 0 0 0 6:1 18:1 36:1 53:1 68:1 88:1 130:1 176:1 238:1 310:1 382:1 545:1 10004:1 21594:1 29148:1 39435:1 48205:1 48207:1 48209:1 48288:1 54509:1 60812:1 68486:1 73406:1 
-0 -0.1736111042124256 -0 -0 -0 0 0 0 0 0 0 0 0 6:1 18:1 36:1 52:1 70:1 91:1 130:1 176:1 238:1 310:1 382:1 545:1 10004:1 21785:1 29235:1 40881:1 48205:1 48207:1 48209:1 48288:1 54509:1 60808:1 68613:1 73406:1 
-0.1464868761306654 -0 -0 -0 -0.1855287451398442 0 0 0 0 0 0 0 0 6:1 18:1 36:1 53:1 68:1 91:1 130:1 176:1 238:1 310:1 382:1 545:1 10004:1 20197:1 29148:1 39106:1 48205:1 48207:1 48209:1 48288:1 54509:1 60808:1 67593:1 73406:1 
-0 -0 -0 -0 -0 0 0.1181526662983096 0 0.1551714662988817 0 0.1482197566997766 0 0 6:1 18:1 36:1 55:1 73:1 88:1 130:1 176:1 238:1 310:1 382:1 545:1 10004:1 21592:1 29148:1 40691:1 48205:1 48207:1 48209:1 48288:1 54509:1 61139:1 68484:1 73406:1 
-0 -0 -0 -0 -0.1552556551583416 0 0 0.1296552069850804 0 0 0 0.1227367893240459 0 6:1 18:1 42:1 53:1 77:1 91:1 130:1 176:1 238:1 310:1 382:1 545:1 10004:1 21969:1 29296:1 39341:1 48205:1 48207:1 48209:1 48288:1 54509:1 60847:1 68724:1 73406:1 
-0 -0 -0 -0 -0 0.09399933374686199 0.1651716767331211 0 0 0.1548265536235873 0.1605856739929327 0 0 6:1 18:1 42:1 53:1 70:1 91:1 130:1 176:1 238:1 310:1 382:1 545:1 10004:1 22051:1 29296:1 38699:1 48205:1 48207:1 48209:1 48288:1 54509:1 60808:1 68782:1 73406:1 
-0 -0 -0 -0.1736111042124256 -0 0.1382978808918463 0 0 0 0 0 0 0 6:1 18:1 36:1 53:1 72:1 88:1 130:1 176:1 238:1 310:1 382:1 545:1 10004:1 22064:1 29148:1 38725:1 48205:1 48207:1 48209:1 48288:1 54509:1 60850:1 68789:1 73406:1 
-0.1598149359215183 -0.1386433994996739 -0.1181066272479558 -0.1384696588753928 -0.2313094516400696 0.07234961248650537 0.1529006150191026 0.1288114062750099 0 0.1172734442676047 0.1210712555246693 0.1349059468748421 0.1011128232099946 6:1 18:1 35:1 54:1 78:1 91:1 137:1 185:1 244:1 310:1 382:1 4819:1 10303:1 23920:1 33395:1 43015:1 48205:1 48207:1 48209:1 50361:1 54509:1 60808:1 69993:1 73406:1 
-0.250432562991621 -0.152772844634392 -0.159059221767838 -0.09971063115981464 -0.1471843921375396 0.2 0.1736111042124256 0.1552795017259062 0.1481481481481481 0.1636661303093792 0.1636661303093792 0.1636661303093792 0.1481481481481481 6:1 18:1 35:1 54:1 70:1 89:1 137:1 169:1 269:1 311:1 382:1 3296:1 10004:1 20529:1 33395:1 38663:1 48205:1 48207:1 48209:1 49084:1 54539:1 61470:1 67821:1 73406:1 
-0.1044353701488056 -0.0869818932235992 -0 -0 -0.09265660075501697 -0 0 0 0 0 0 0 0 1:1 18:1 36:1 53:1 73:1 91:1 103:1 185:1 238:1 312:1 382:1 642:1 10004:1 19743:1 29148:1 38745:1 48205:1 48207:1 48209:1 48359:1 54616:1 60890:1 67257:1 73406:1 
-0 -0 -0 -0 -0 -0.07234961248650537 0 0.1428850005807587 0 0 0 0 0 1:1 18:1 36:1 53:1 71:1 91:1 103:1 185:1 238:1 312:1 382:1 584:1 10004:1 19686:1 29148:1 38745:1 48205:1 48207:1 48209:1 48316:1 54616:1 60970:1 67215:1 73406:1 
-0 -0 -0 -0 -0 -0 0 0.1605924475349832 0 0 0 0 0 1:1 18:1 36:1 53:1 68:1 91:1 103:1 185:1 238:1 312:1 382:1 664:1 10004:1 19765:1 29148:1 38745:1 48205:1 48207:1 48209:1 48378:1 54616:1 60975:1 67276:1 73406:1 
-0.115426498473207 -0.1862222247653537 -0 -0.09876850197497322 -0.08627592782578758 -0.09399933374686199 0.1539493872686101 0.2190991474436743 0 0 0.1016326102674375 0 0 1:1 18:1 36:1 51:1 68:1 88:1 103:1 183:1 238:1 312:1 382:1 1869:1 10004:1 20970:1 29106:1 39310:1 48205:1 48207:1 48209:1 49209:1 54616:1 60812:1 68107:1 73406:1 
-0 -0.1786632565001028 -0 -0 -0 -0.2 0.1126796564631875 0.2061224515974929 0.132132246096121 0 0.1391045504157843 0.09763378511007827 0.113913331188967 1:1 18:1 35:1 54:1 70:1 89:1 103:1 169:1 238:1 312:1 382:1 5232:1 10004:1 20529:1 33883:1 43431:1 48205:1 48207:1 48209:1 51361:1 54616:1 63958:1 67821:1 73406:1 
-0.1939440978037429 -0 -0.1042834914883673 -0 -0.1336283305756704 -0 0 0.09459525104052545 0 0.0870213896414255 0 0 0 1:1 18:1 35:1 54:1 70:1 88:1 103:1 176:1 238:1 312:1 382:1 5232:1 10004:1 20529:1 33395:1 43439:1 48205:1 48207:1 48209:1 51361:1 54616:1 60812:1 67821:1 73406:1 
-0.1186701586519053 -0.1481481481481481 -0.1552795017259062 -0 -0.2178649165046736 -0 0.08943198191611929 0.1147347070613821 0 0.103538332819404 0.1084176822481135 0.1227458012318484 0.1225091777896128 1:1 18:1 37:1 53:1 68:1 93:1 103:1 166:1 238:1 312:1 382:1 1197:1 10004:1 24140:1 29848:1 38654:1 48205:1 48207:1 48209:1 48760:1 54616:1 60808:1 70137:1 73406:1 
-0.1552795017259062 -0.1040647714042727 -0.1153049245959293 -0.1552795017259062 -0.1417733573219586 -0 0 0.2249408174295913 0 0.1186653042020491 0 0 0.1560882547546569 1:1 18:1 36:1 56:1 71:1 89:1 103:1 169:1 238:1 312:1 382:1 6544:1 10004:1 25645:1 29130:1 38673:1 48205:1 48207:1 48209:1 52208:1 54616:1 62106:1 71106:1 73406:1 
-0 -0.1056750239438806 -0.1734472083146776 -0.1197377528382183 -0 -0.1382978808918463 0.1636661303093792 0.1855287451398442 0.1552795017259062 0.05174116890650213 0.1552795017259062 0.1552795017259062 0.1736111042124256 1:1 18:1 36:1 53:1 74:1 91:1 103:1 176:1 238:1 312:1 382:1 8115:1 10004:1 27216:1 29117:1 40014:1 48205:1 48207:1 48209:1 53253:1 54616:1 60808:1 72151:1 73406:1 
-0 -0 -0.186056643058207 -0 -0 -0 -0 0 0 0 0 0 0 4:1 18:1 36:1 61:1 74:1 88:1 106:1 167:1 238:1 310:1 382:1 458:1 10004:1 20662:1 29130:1 38810:1 48205:1 48207:1 48209:1 48214:1 54509:1 60838:1 67914:1 73406:1 
-0 -0.1359749318447146 -0.1879447990388199 -0 -0.3945449005240048 -0 -0 0 0 0 0 0 0 4:1 18:1 41:1 59:1 71:1 88:1 109:1 167:1 238:1 310:1 382:1 473:1 10004:1 19655:1 29268:1 40128:1 48205:1 48207:1 48209:1 48227:1 54509:1 60838:1 67192:1 73406:1 
-0 -0 -0 -0 -0.1697947127727068 -0 -0 0.1423917699832474 0 0.1546178054921905 0.09285076960049049 0 0 4:1 18:1 38:1 54:1 76:1 92:1 113:1 166:1 238:1 310:1 383:1 844:1 10004:1 23341:1 29113:1 38654:1 48205:1 48207:1 48209:1 48227:1 54509:1 60808:1 69553:1 73473:1 
-0 -0 -0 -0 -0 -0 -0 0 0 0 0 0.1816395524816536 0 4:1 18:1 39:1 54:1 76:1 85:1 106:1 166:1 238:1 310:1 382:1 1895:1 10004:1 23531:1 29491:1 38654:1 48205:1 48207:1 48209:1 48227:1 54509:1 60808:1 69721:1 73406:1 
-0 -0 -0 -0.1610248415127318 -0 -0 -0 0 0 0 0 0 0 4:1 18:1 49:1 59:1 72:1 88:1 106:1 167:1 238:1 310:1 382:1 458:1 10004:1 20407:1 33153:1 38761:1 48205:1 48207:1 48209:1 48214:1 54509:1 61584:1 67734:1 73406:1 
-0 -0 -0 -0.1140524783835372 -0.1954063591186519 -0 -0 0 0 0 0 0 0 4:1 18:1 36:1 52:1 71:1 91:1 109:1 174:1 238:1 310:1 382:1 463:1 10004:1 22710:1 29235:1 42944:1 48205:1 48207:1 48209:1 48214:1 54509:1 60924:1 69198:1 73406:1 
-0 -0.06822063019589367 -0 -0 -0 -0 -0 0 0 0 0.1022792062948098 0 0 4:1 18:1 35:1 54:1 76:1 87:1 109:1 179:1 238:1 310:1 383:1 463:1 10004:1 23390:1 33395:1 38680:1 48205:1 48207:1 48209:1 48214:1 54509:1 60812:1 69596:1 73975:1 
-0 -0 -0 -0 -0.1875854128255632 -0 -0 0 0 0 0.1249907133663304 0 0 4:1 18:1 37:1 58:1 72:1 88:1 106:1 167:1 238:1 310:1 382:1 458:1 10004:1 21560:1 33440:1 42226:1 48205:1 48207:1 48209:1 48214:1 54509:1 60856:1 68465:1 73406:1 
-0 -0 -0 -0 -0 -0 -0 0 0 0 0.1017937871573518 0 0 4:1 18:1 49:1 56:1 71:1 91:1 106:1 167:1 238:1 310:1 382:1 595:1 10004:1 23813:1 33153:1 43114:1 48205:1 48207:1 48209:1 48311:1 54509:1 60821:1 69918:1 73406:1 
-0 -0 -0 -0 -0.1168013850370824 -0 -0 0 0 0 0 0 0 4:1 18:1 49:1 55:1 71:1 88:1 106:1 167:1 238:1 310:1 382:1 1331:1 10004:1 24431:1 33153:1 40870:1 48205:1 48207:1 48209:1 48214:1 54509:1 64019:1 70319:1 73406:1 
-0.1770186297462419 -0 -0 -0 -0 -0 -0.1539493872686101 0 0 0 0.1565326131302862 0 0 4:1 18:1 36:1 51:1 68:1 86:1 109:1 219:1 238:1 310:1 382:1 518:1 10004:1 23109:1 29106:1 43535:1 48205:1 48207:1 48209:1 48264:1 54509:1 60812:1 69425:1 73406:1 
-0 -0 -0 -0 -0.1774348408786231 -0 -0 0 0 0 0 0 0 4:1 18:1 36:1 52:1 71:1 88:1 109:1 167:1 238:1 310:1 382:1 739:1 10004:1 24024:1 29235:1 41612:1 48205:1 48207:1 48209:1 48240:1 54509:1 61590:1 70052:1 73406:1 
-0 -0 -0 -0 -0.1405274134277223 -0.1736111042124256 -0 0 0 0.1311313720783976 0 0 0 4:1 18:1 35:1 54:1 70:1 89:1 109:1 191:1 238:1 310:1 382:1 766:1 10004:1 23415:1 33395:1 39968:1 48205:1 48207:1 48209:1 48311:1 54509:1 62784:1 69616:1 73406:1 
-0.2043882000522891 -0 -0 -0 -0 -0 -0 0 0 0 0 0 0 4:1 18:1 35:1 54:1 75:1 88:1 109:1 167:1 238:1 310:1 382:1 463:1 10004:1 24332:1 33395:1 40520:1 48205:1 48207:1 48209:1 48214:1 54509:1 60812:1 70258:1 73406:1 
-0 -0 -0 -0 -0.2748230593220096 -0 -0 0 0 0 0.1007522422215873 0 0 4:1 18:1 40:1 55:1 72:1 88:1 109:1 167:1 238:1 310:1 382:1 1194:1 10004:1 19655:1 29713:1 42418:1 48205:1 48207:1 48209:1 48283:1 54509:1 60808:1 67192:1 73406:1 
-0.1456566059757419 -0 -0 -0 -0.1559438744772589 -0.1529006150191026 -0 0.1214410570135482 0 0 0 0 0 4:1 18:1 35:1 55:1 69:1 91:1 113:1 185:1 238:1 310:1 382:1 1280:1 10004:1 19570:1 33395:1 44564:1 48205:1 48207:1 48209:1 48240:1 54509:1 60808:1 67122:1 73406:1 
-0 -0 -0.1237859259188864 -0.1157718544276213 -0 -0 -0 0 0 0 0 0 0 4:1 18:1 36:1 61:1 73:1 85:1 106:1 166:1 238:1 310:1 382:1 4720:1 10004:1 25513:1 29130:1 38654:1 48205:1 48207:1 48209:1 48240:1 54509:1 60808:1 70774:1 73406:1 
-0.134731044990556 -0 -0 -0 -0 -0 -0 0.1663084085846092 0 0 0 0 0 4:1 18:1 36:1 52:1 70:1 91:1 109:1 187:1 238:1 310:1 382:1 473:1 10004:1 25644:1 29235:1 44743:1 48205:1 48207:1 48209:1 48227:1 54509:1 61304:1 71105:1 73406:1 
-0 -0 -0 -0 -0 -0.1181526662983096 -0 0 0 0 0 0 0 4:1 18:1 36:1 54:1 71:1 85:1 106:1 166:1 239:1 310:1 383:1 970:1 10004:1 25834:1 29130:1 38654:1 48205:1 48207:1 48209:1 48227:1 54509:1 60808:1 71226:1 75911:1 
-0 -0 -0 -0 -0 -0 -0 0 0 0 0 0 0.1406671180114311 4:1 18:1 36:1 55:1 73:1 85:1 106:1 166:1 238:1 310:1 382:1 1895:1 10004:1 25849:1 29130:1 38654:1 48205:1 48207:1 48209:1 48227:1 54509:1 60808:1 71236:1 73406:1 
-0.09687763557686052 -0.1194140364531326 -0 -0 -0.1868673701608185 -0 -0 0 0 0 0 0 0 4:1 18:1 35:1 54:1 70:1 88:1 109:1 167:1 238:1 310:1 382:1 518:1 10004:1 25937:1 33395:1 40159:1 48205:1 48207:1 48209:1 48264:1 54509:1 63302:1 71286:1 73406:1 
-0 -0 -0 -0 -0 -0 -0 0 0 0.1011965586234825 0 0 0 4:1 18:1 49:1 55:1 71:1 88:1 106:1 167:1 238:1 310:1 382:1 458:1 10004:1 23813:1 33153:1 39858:1 48205:1 48207:1 48209:1 48214:1 54509:1 61372:1 69918:1 73406:1 
-0.1215134313892537 -0 -0 -0 -0.2331560088833041 -0 -0.08943198191611929 0 0 0.1742949067068518 0 0.09508816205539344 0 4:1 18:1 35:1 53:1 73:1 85:1 109:1 166:1 238:1 310:1 382:1 631:1 10004:1 25517:1 33395:1 38654:1 48205:1 48207:1 48209:1 48227:1 54509:1 60808:1 71027:1 73406:1 
-0 -0.1051231475195796 -0 -0 -0.1704760793542208 -0 -0 0.1239152284249051 0 0 0 0 0 4:1 18:1 36:1 57:1 74:1 88:1 109:1 167:1 238:1 310:1 382:1 1194:1 10004:1 26082:1 29130:1 42418:1 48205:1 48207:1 48209:1 48283:1 54509:1 63640:1 71380:1 73406:1 
-0.1348393381734012 -0 -0 -0 -0 -0 -0 0.1035625810363821 0 0 0 0 0 4:1 18:1 49:1 53:1 72:1 89:1 106:1 214:1 238:1 310:1 382:1 595:1 10004:1 23813:1 33153:1 38733:1 48205:1 48207:1 48209:1 48311:1 54509:1 63207:1 69918:1 73406:1 
-0 -0 -0 -0 -0.1401174242988414 -0 -0 0 0 0 0.176859260370769 0 0 4:1 18:1 38:1 52:1 71:1 91:1 109:1 167:1 238:1 310:1 382:1 473:1 10004:1 20666:1 29121:1 44976:1 48205:1 48207:1 48209:1 48227:1 54509:1 60808:1 67917:1 73406:1 
-0 -0 -0 -0 -0 -0 -0 0.102093940538438 0 0 0 0 0 4:1 18:1 41:1 55:1 69:1 88:1 106:1 167:1 238:1 310:1 382:1 458:1 10004:1 25038:1 29118:1 44035:1 48205:1 48207:1 48209:1 48214:1 54509:1 61967:1 70720:1 73406:1 
-0 -0 -0 -0 -0.3599072352300661 -0 -0 0.1908433768911969 0 0 0 0 0 4:1 18:1 37:1 53:1 68:1 92:1 106:1 179:1 238:1 310:1 382:1 458:1 10004:1 25767:1 33759:1 38668:1 48205:1 48207:1 48209:1 48214:1 54509:1 60812:1 71184:1 73406:1 
-0 -0 -0 -0 -0 -0 -0 0 0 0.1091416379583603 0 0 0 4:1 18:1 38:1 52:1 70:1 88:1 113:1 166:1 238:1 310:1 382:1 655:1 10004:1 20666:1 29442:1 38654:1 48205:1 48207:1 48209:1 48240:1 54509:1 60808:1 67917:1 73406:1 
-0 -0 -0 -0 -0 -0 -0 0 0.1483906220390072 0 0.1631376890627821 0 0 4:1 18:1 36:1 58:1 73:1 89:1 113:1 214:1 238:1 310:1 382:1 792:1 10004:1 26374:1 29130:1 38855:1 48205:1 48207:1 48209:1 48311:1 54509:1 60808:1 71558:1 73406:1 
-0 -0 -0 -0 -0 -0 -0 0.08886065639840612 0 0 0 0 0 4:1 18:1 36:1 57:1 72:1 88:1 106:1 167:1 238:1 310:1 382:1 822:1 10004:1 20861:1 29130:1 45647:1 48205:1 48207:1 48209:1 48283:1 54509:1 62445:1 68040:1 73406:1 
-0 -0 -0 -0 -0.1640104896632449 -0 -0 0 0 0 0 0.1064204491052722 0 4:1 18:1 38:1 54:1 74:1 86:1 109:1 219:1 238:1 310:1 382:1 518:1 10004:1 23109:1 29121:1 45862:1 48205:1 48207:1 48209:1 48264:1 54509:1 60814:1 69425:1 73406:1 
-0 -0 -0 -0 -0.1421998944096945 -0 -0 0 0 0 0 0 0 4:1 18:1 38:1 52:1 71:1 91:1 109:1 167:1 238:1 310:1 382:1 739:1 10004:1 19979:1 29416:1 45374:1 48205:1 48207:1 48209:1 48240:1 54509:1 60886:1 67432:1 73406:1 
-0 -0.1699774960565816 -0 -0.2 -0 -0 -0 0 0 0 0 0 0 4:1 18:1 36:1 60:1 72:1 86:1 109:1 219:1 238:1 310:1 382:1 518:1 10004:1 23109:1 29130:1 39749:1 48205:1 48207:1 48209:1 48264:1 54509:1 60814:1 69425:1 73406:1 
-0.172590865625132 -0 -0 -0.09484098771100502 -0.1846798680619929 -0.1651716767331211 -0 0 0 0 0 0.1191673059985347 0.08731334960148115 4:1 18:1 44:1 53:1 78:1 95:1 113:1 167:1 238:1 310:1 382:1 550:1 10004:1 24773:1 36866:1 45718:1 48205:1 48207:1 48209:1 48214:1 54509:1 60808:1 70551:1 73406:1 
-0 -0 -0 -0 -0 -0 -0.1636661303093792 0 0 0 0 0 0 4:1 18:1 36:1 53:1 68:1 88:1 106:1 167:1 238:1 310:1 382:1 458:1 10004:1 27154:1 29117:1 46689:1 48205:1 48207:1 48209:1 48214:1 54509:1 61146:1 69869:1 73406:1 
-0 -0 -0.1411790919601772 -0 -0.09291798186343958 -0 -0 0.1613387320256049 0 0 0 0 0.08888230933397481 4:1 18:1 36:1 53:1 68:1 86:1 109:1 219:1 238:1 310:1 382:1 518:1 10004:1 23109:1 36202:1 45389:1 48205:1 48207:1 48209:1 48264:1 54509:1 60814:1 69425:1 73406:1 
-0.1713559541959227 -0 -0.09949644080630207 -0 -0 -0 -0 0 0 0 0 0 0 4:1 18:1 36:1 56:1 71:1 91:1 106:1 167:1 238:1 310:1 382:1 970:1 10004:1 27750:1 29115:1 40059:1 48205:1 48207:1 48209:1 48227:1 54509:1 66230:1 72031:1 73406:1 
-0 -0.1636661303093792 -0 -0 -0.4008064719891816 -0 -0 0 0 0 0 0 0 4:1 18:1 37:1 54:1 70:1 85:1 113:1 166:1 238:1 310:1 382:1 792:1 10004:1 24332:1 37568:1 38654:1 48205:1 48207:1 48209:1 48311:1 54509:1 60808:1 70258:1 73406:1 
-0 -0 -0.2178649165046736 -0 -0.1397094641700488 -0 -0 0 0 0.08582364068175313 0 0 0.1729669001412156 4:1 18:1 40:1 56:1 71:1 87:1 113:1 166:1 238:1 310:1 382:1 792:1 10004:1 21389:1 36645:1 38654:1 48205:1 48207:1 48209:1 48311:1 54509:1 60808:1 68366:1 73406:1 
-0.1065881263085703 -0 -0 -0 -0 -0.09735689470172336 -0.1126796564631875 0 0 0 0 0 0 4:1 18:1 39:1 54:1 70:1 87:1 113:1 179:1 238:1 310:1 382:1 792:1 10004:1 20529:1 29158:1 38680:1 48205:1 48207:1 48209:1 48311:1 54509:1 60909:1 67821:1 73406:1 
-0 -0 -0 -0 -0 -0 -0 0.1588113132179977 0 0 0 0 0 4:1 18:1 38:1 54:1 72:1 87:1 113:1 179:1 238:1 310:1 382:1 792:1 10004:1 23415:1 29416:1 38680:1 48205:1 48207:1 48209:1 48311:1 54509:1 60909:1 69616:1 73406:1 
-0.2 -0 -0 -0 -0 -0 -0 0 0 0 0 0 0 4:1 18:1 38:1 56:1 71:1 87:1 113:1 179:1 238:1 310:1 382:1 792:1 10004:1 25037:1 29134:1 38680:1 48205:1 48207:1 48209:1 48311:1 54509:1 60909:1 70719:1 73406:1 
-0 -0 -0 -0 -0.1872653375662681 -0 -0 0 0 0 0 0 0 4:1 18:1 37:1 55:1 69:1 91:1 106:1 167:1 238:1 310:1 382:1 533:1 10004:1 28414:1 34781:1 47512:1 48205:1 48207:1 48209:1 48240:1 54509:1 63490:1 72953:1 73406:1 
-0 -0 -0.07279975378078651 -0 -0.2087560148223704 -0 -0 0 0 0 0 0 0 4:1 18:1 37:1 53:1 75:1 89:1 106:1 214:1 238:1 310:1 382:1 595:1 10004:1 19579:1 35431:1 38733:1 48205:1 48207:1 48209:1 48311:1 54509:1 60980:1 67129:1 73406:1 
-0 -0.09858894228878311 -0.1100265055327259 -0 -0 -0 -0 0.08489530586374522 0 0 0 0 0 4:1 18:1 36:1 52:1 71:1 89:1 113:1 191:1 238:1 310:1 382:1 749:1 10004:1 19579:1 29235:1 43165:1 48205:1 48207:1 48209:1 48311:1 54509:1 64019:1 67129:1 73406:1 
-0 -0.07756476061492774 -0 -0 -0 -0 -0 0 0 0 0 0 0 4:1 18:1 38:1 52:1 72:1 91:1 106:1 167:1 238:1 310:1 383:1 490:1 10004:1 23813:1 29168:1 47885:1 48205:1 48207:1 48209:1 48240:1 54509:1 60909:1 69918:1 77479:1 
-0 -0 -0 -0 -0.1613241464440267 -0 -0 0 0 0 0 0 0 4:1 18:1 36:1 51:1 68:1 89:1 109:1 214:1 238:1 310:1 382:1 766:1 10004:1 23339:1 29106:1 39583:1 48205:1 48207:1 48209:1 48311:1 54509:1 66898:1 69551:1 73406:1 
-0 -0 -0 -0 -0.239557707062429 -0 -0 0 0 0 0 0 0 4:1 18:1 38:1 60:1 70:1 87:1 109:1 166:1 238:1 310:1 382:1 739:1 10004:1 22251:1 29123:1 38654:1 48205:1 48207:1 48209:1 48240:1 54509:1 60808:1 68915:1 73406:1 
-0 -0 -0 -0.1497952532210154 -0 -0 -0 0 0 0 0 0 0 4:1 18:1 36:1 54:1 76:1 89:1 113:1 191:1 238:1 310:1 382:1 792:1 10004:1 21388:1 29130:1 45986:1 48205:1 48207:1 48209:1 48311:1 54509:1 62353:1 68365:1 73406:1 
-0.205961684444297 -0.1730428196022809 -0 -0 -0 -0 -0 0 0 0 0 0 0 4:1 18:1 36:1 52:1 70:1 88:1 106:1 167:1 238:1 310:1 382:1 458:1 10004:1 19570:1 29235:1 47029:1 48205:1 48207:1 48209:1 48214:1 54509:1 60942:1 67122:1 73406:1 
-0 -0 -0 -0 -0 -0 -0 0 0 0.1166801810297059 0 0 0 4:1 18:1 36:1 54:1 78:1 87:1 106:1 166:1 238:1 310:1 382:1 595:1 10004:1 28927:1 29130:1 38654:1 48205:1 48207:1 48209:1 48311:1 54509:1 60808:1 73293:1 73406:1 
-0 -0 -0 -0 -0.09011904757825336 -0 -0 0 0 0 0 0 0 4:1 18:1 37:1 53:1 68:1 89:1 106:1 214:1 238:1 310:1 382:1 595:1 10004:1 22760:1 34613:1 38733:1 48205:1 48207:1 48209:1 48311:1 54509:1 61800:1 69232:1 73406:1 
-0 -0 -0 -0 -0.2519927833583432 -0 -0 0.08343480460140622 0.1481481481481481 0.05693092318271974 0.1171126742830863 0.06019133967051271 0.08629775461094449 4:1 18:1 37:1 55:1 71:1 88:1 106:1 167:1 238:1 310:1 382:1 533:1 10004:1 19570:1 34613:1 38722:1 48205:1 48207:1 48209:1 48240:1 54509:1 60909:1 67122:1 73406:1 
-0.3187976755194805 -0 -0.2002005186205906 -0 -0 -0 -0 -0 0 0 0 0 0 3:1 18:1 36:1 54:1 69:1 86:1 105:1 167:1 238:1 310:1 382:1 1430:1 10004:1 20531:1 29130:1 39629:1 48205:1 48207:1 48209:1 48925:1 54509:1 60896:1 67823:1 73406:1 
-0.1086774168289193 -0.1429630116764764 -0 -0 -0.08136673507155733 -0 -0.1428850005807587 -0 0 0 0 0 0 1:1 18:1 36:1 52:1 70:1 88:1 103:1 183:1 238:1 312:1 382:1 1566:1 10004:1 20666:1 29235:1 38759:1 48205:1 48207:1 48209:1 49020:1 54616:1 60838:1 67917:1 73406:1 
-0 -0 -0 -0 -0 -0 -0.09459525104052545 -0 0 0 0 0 0 1:1 18:1 36:1 54:1 69:1 86:1 103:1 167:1 238:1 312:1 382:1 1566:1 10004:1 20667:1 29130:1 39766:1 48205:1 48207:1 48209:1 49020:1 54616:1 60896:1 67918:1 73406:1 
-0 -0.09910331288023694 -0.2409630263663513 -0 -0.186063636217144 -0.1552795017259062 -0 -0 0 0 0 0 0 3:1 18:1 41:1 57:1 74:1 89:1 114:1 169:1 238:1 310:1 382:1 1701:1 10004:1 20802:1 29118:1 38663:1 48205:1 48207:1 48209:1 49102:1 54509:1 61473:1 68000:1 73406:1 
-0.2179531733019862 -0.1702737566912756 -0.1967477736323306 -0.08525312263430307 -0.1420164615235947 -0.1114950483935452 -0.2190991474436743 -0.1214410570135482 0.08860516763367243 0 0 0 0 1:1 18:1 36:1 52:1 70:1 88:1 103:1 183:1 238:1 312:1 382:1 2288:1 10004:1 21389:1 29235:1 40486:1 48205:1 48207:1 48209:1 49468:1 54616:1 60975:1 68366:1 73406:1 
-0 -0.1160227252801568 -0 -0 -0 -0 -0.2249408174295913 -0 0 0 0 0 0 1:1 18:1 36:1 54:1 69:1 86:1 103:1 167:1 238:1 312:1 382:1 2289:1 10004:1 20531:1 29130:1 40488:1 48205:1 48207:1 48209:1 49469:1 54616:1 62064:1 67823:1 73406:1 
-0.3067920333027041 -0 -0 -0 -0.1575899536315959 -0 -0 -0 0 0 0 0 0 2:1 18:1 36:1 53:1 68:1 86:1 135:1 168:1 238:1 310:1 382:1 585:1 10004:1 19570:1 29117:1 41610:1 48205:1 48207:1 48209:1 48317:1 54509:1 61462:1 67122:1 73406:1 
-0.3734606884372111 -0.1717866737075393 -0.1906108956498504 -0 -0.1927759660665469 -0 -0.1147347070613821 -0.1908433768911969 0 0 0 0 0 2:1 18:1 36:1 53:1 68:1 86:1 135:1 168:1 238:1 310:1 382:1 585:1 10004:1 19570:1 29117:1 41610:1 48205:1 48207:1 48209:1 48317:1 54509:1 60867:1 67122:1 73406:1 
-0.1019425834814304 -0.1173077412649519 -0.4252575615625394 -0 -0.1613571797089391 -0 -0 -0.1588113132179977 0 0 0.139156288426232 0 0 3:1 18:1 40:1 55:1 73:1 89:1 114:1 169:1 238:1 310:1 382:1 1198:1 10004:1 23415:1 32966:1 38687:1 48205:1 48207:1 48209:1 48761:1 54509:1 63316:1 69616:1 73406:1 
-0.1642574229455477 -0 -0.1333898422339507 -0.09255646881772357 -0.1881962723294634 -0 -0 -0.08886065639840612 0 0.08923038493238653 0.2403846242018708 0 0.1343410946013947 5:1 18:1 41:1 56:1 69:1 89:1 117:1 169:1 238:1 310:1 382:1 482:1 10004:1 24332:1 29118:1 38851:1 48205:1 48207:1 48209:1 48216:1 54509:1 60821:1 70258:1 73406:1 
-0 -0 -0.1402698720887153 -0.1371572969399866 -0.2000428952043885 -0.08923593205327668 -0.1855287451398442 -0.1663084085846092 0 0.09069850055459423 0.191343850377902 0 0.2655641671387582 1:1 18:1 36:1 57:1 70:1 91:1 103:1 187:1 238:1 310:1 382:1 5673:1 10004:1 23845:1 29130:1 38875:1 48205:1 48207:1 48209:1 51654:1 54509:1 60808:1 69939:1 73406:1 
-0.08833184307762086 -0.1668073075518338 -0.2437854424460126 -0 -0.135632069524379 -0 -0 -0 0 0 0.1130249244421169 0 0 3:1 18:1 38:1 56:1 71:1 89:1 105:1 169:1 238:1 310:1 382:1 5781:1 10004:1 24882:1 29381:1 38658:1 48205:1 48207:1 48209:1 51717:1 54509:1 63506:1 70615:1 73406:1 
-0 -0 -0.1505482007441889 -0 -0.1073679268979619 -0 -0 -0.1035625810363821 0 0 0 0 0 3:1 18:1 40:1 57:1 74:1 86:1 105:1 167:1 238:1 310:1 382:1 5963:1 10004:1 25555:1 29992:1 44867:1 48205:1 48207:1 48209:1 51840:1 54509:1 60812:1 70060:1 73406:1 
-0 -0 -0.3224254582889615 -0.1471905090886626 -0 -0 -0 -0 0.1495284090693911 0 0 0 0 3:1 18:1 36:1 61:1 74:1 89:1 105:1 169:1 238:1 310:1 382:1 6755:1 10004:1 25856:1 29130:1 38658:1 48205:1 48207:1 48209:1 52344:1 54509:1 61649:1 71242:1 73406:1 
-0.1378739382631586 -0 -0.1759004687554838 -0 -0.1694620230670209 -0 -0 -0.08489530586374522 0 0 0 0 0 3:1 18:1 43:1 55:1 71:1 86:1 105:1 167:1 238:1 310:1 382:1 5109:1 10004:1 23531:1 35420:1 39759:1 48205:1 48207:1 48209:1 51287:1 54509:1 60814:1 69721:1 73406:1 
-0 -0 -0.1078021882748076 -0.1192712837599237 -0 -0 -0 -0 0 0 0.07764416802245355 0 0.1164383990510124 3:1 18:1 39:1 54:1 72:1 86:1 122:1 167:1 238:1 310:1 382:1 6781:1 10004:1 25882:1 29162:1 44980:1 48205:1 48207:1 48209:1 52357:1 54509:1 60814:1 71255:1 73406:1 
-0.1764926231734537 -0.09531609920543134 -0 -0.1220729648059654 -0.1691581001174081 -0.1296552069850804 -0 -0.1423917699832474 0 0.131318286409469 0.1864646858824752 0 0 10:1 18:1 38:1 54:1 72:1 87:1 140:1 179:1 238:1 310:1 382:1 963:1 10004:1 25425:1 29231:1 38680:1 48205:1 48207:1 48209:1 48277:1 54509:1 62020:1 70970:1 73406:1 
-0.1606651919859816 -0.1636661303093792 -0.3540335138153702 -0 -0.1855287451398442 -0.08372484073923586 -0 -0 0 0.1953124963781901 0.1267479069066101 0.1286278709088764 0.100625771135479 3:1 18:1 36:1 60:1 77:1 85:1 122:1 166:1 238:1 310:1 382:1 5574:1 10004:1 24510:1 29130:1 38654:1 48205:1 48207:1 48209:1 51579:1 54509:1 60808:1 70367:1 73406:1 
-0.09969548037796529 -0 -0 -0 -0.1237631897364116 -0 -0 -0.1613387320256049 0 0 0 0.1486082351218958 0 3:1 18:1 41:1 54:1 69:1 91:1 122:1 167:1 238:1 310:1 382:1 5275:1 10004:1 25767:1 29118:1 46441:1 48205:1 48207:1 48209:1 51388:1 54509:1 65994:1 71184:1 73406:1 
-0.1891012469518337 -0 -0.2011550974044058 -0 -0.2824467200424338 -0 -0 -0.1855287451398442 0 0 0 0 0 3:1 18:1 37:1 55:1 71:1 92:1 122:1 179:1 238:1 310:1 382:1 8320:1 10004:1 25880:1 34781:1 38668:1 48205:1 48207:1 48209:1 53398:1 54509:1 63986:1 71253:1 73406:1 
-0.1507109801242622 -0 -0.2113252686736255 -0 -0.203363737580917 -0 -0 -0 0 0 0 0 0 3:1 18:1 44:1 57:1 74:1 89:1 152:1 169:1 238:1 310:1 382:1 8659:1 10004:1 22760:1 29721:1 38939:1 48205:1 48207:1 48209:1 53639:1 54509:1 65568:1 69232:1 73406:1 
-0 -0.1656919558883257 -0.1647369131485131 -0 -0 -0.1288114062750099 -0.1605924475349832 -0 0 0 0 0 0 3:1 18:1 36:1 53:1 71:1 91:1 152:1 185:1 247:1 322:1 382:1 9493:1 10004:1 28596:1 29148:1 45984:1 48205:1 48207:1 48209:1 54179:1 54522:1 63659:1 73078:1 73406:1 
-0.1928494953405567 -0 -0.1995440427447196 -0.1078822982253308 -0.1209606766211197 -0 -0 -0.1239152284249051 0 0 0.08540332887741983 0 0 3:1 18:1 36:1 53:1 72:1 88:1 152:1 179:1 247:1 310:1 382:1 9497:1 10004:1 28598:1 29148:1 47693:1 48205:1 48207:1 48209:1 54182:1 54509:1 60886:1 73080:1 73406:1 
-0.2351859591346694 -0.1132057354052636 -0.08692795729315475 -0 -0.1638027491132818 -0 -0 -0 0 0 0.1079521751827072 0.115766757578948 0 3:1 18:1 49:1 53:1 75:1 91:1 152:1 185:1 247:1 322:1 382:1 9534:1 10004:1 26762:1 29416:1 45984:1 48205:1 48207:1 48209:1 54205:1 54532:1 60808:1 71845:1 73406:1 
-0.08745874894618909 -0.09300575422420929 -0 -0 -0 -0 -0 -0 0.09313787897876791 0 0 0 0 3:1 18:1 36:1 53:1 68:1 92:1 152:1 179:1 247:1 322:1 382:1 9534:1 10004:1 28636:1 29148:1 38668:1 48205:1 48207:1 48209:1 54205:1 54522:1 66803:1 73104:1 73406:1 
-0.1295155355779765 -0.07128074531321921 -0 -0 -0 -0 -0.2061224515974929 -0 0 0.137082683912274 0.08074573500757828 0.08434417612213063 0.1816635591097174 1:1 18:1 38:1 56:1 71:1 89:1 103:1 169:1 238:1 312:1 382:1 9795:1 10004:1 28896:1 29134:1 38780:1 48205:1 48207:1 48209:1 48221:1 54616:1 66975:1 73275:1 73406:1 
-0.4847684895735616 -0 -0 -0.2 -0.1140410388516485 -0.106571521696296 -0 -0 0.06667433409223372 0.08438071928003912 0.2 0.07093532560377552 0.05717270516141322 2:1 18:1 36:1 57:1 72:1 86:1 135:1 168:1 238:1 310:1 382:1 585:1 10004:1 19566:1 29130:1 38670:1 48205:1 48207:1 48209:1 48317:1 54509:1 60812:1 67118:1 73406:1 
-0.1500420857461487 -0.4500397249429863 -0.2613081205680599 -0.1552795017259062 -0.1481481481481481 -0.1551714662988817 -0.132132246096121 -0.1483906220390072 -0.2484173807046741 0.119835391783747 0.1395228246031373 0.1289983170969628 0.1329938826041014 3:1 18:1 36:1 52:1 75:1 89:1 105:1 169:1 238:1 319:1 382:1 559:1 10004:1 22321:1 29130:1 38758:1 48205:1 48207:1 48209:1 48298:1 54519:1 60837:1 68958:1 73406:1 
-0.2385369732314945 -0.4127529818766122 -0.1613168703348712 -0.1320450876129722 -0.1379423860986864 -0.1481481481481481 -0.1552795017259062 -0.1481481481481481 -0.1495284090693911 0.1481481481481481 0.1636661303093792 0.1481481481481481 0.1481481481481481 6:1 18:1 36:1 55:1 73:1 92:1 137:1 179:1 238:1 319:1 382:1 4071:1 10004:1 23034:1 29117:1 38818:1 48205:1 48207:1 48209:1 49828:1 54519:1 63157:1 69389:1 73406:1 
-0 -0 -0.1380227511955379 -0.1359385394451782 -0.2403846242018708 -0 -0 -0.1742949067068518 -0.131318286409469 -0 0.1479446603780131 0 0.1081991132304614 8:1 18:1 38:1 54:1 76:1 89:1 133:1 166:1 238:1 310:1 382:1 698:1 10004:1 23341:1 29113:1 38654:1 48205:1 48207:1 48209:1 48277:1 54509:1 60808:1 69553:1 73406:1 
-0 -0 -0 -0 -0.2607251232155183 -0 -0 -0 -0 -0.119835391783747 0 0 0 9:1 18:1 35:1 54:1 76:1 89:1 121:1 166:1 238:1 310:1 382:1 1224:1 10004:1 23390:1 33395:1 38654:1 48205:1 48207:1 48209:1 48779:1 54509:1 60808:1 69596:1 73406:1 
-0.1769190125736878 -0.1403032783996873 -0.1207318953316871 -0.1736111042124256 -0.1797612447644688 -0.1082726936142331 -0.1552795017259062 -0.1311313720783976 -0.1736111042124256 -0 0.1558068520726324 0.1249907868948397 0 8:1 18:1 36:1 54:1 71:1 89:1 115:1 166:1 238:1 310:1 382:1 5519:1 10004:1 25834:1 29130:1 38654:1 48205:1 48207:1 48209:1 50715:1 54509:1 60808:1 71226:1 73406:1 
-0.1476562779308898 -0.1636661303093792 -0.1552795017259062 -0 -0.2618346131867295 -0.1172734442676047 -0 -0.1546178054921905 -0.1953124963781901 -0 0.1071805411091542 0.1703434778658236 0 9:1 18:1 35:1 54:1 70:1 85:1 121:1 166:1 238:1 310:1 382:1 3556:1 10004:1 23975:1 33395:1 38654:1 48205:1 48207:1 48209:1 49093:1 54509:1 60808:1 70023:1 73406:1 
-0.1597820734997782 -0.1035983009735971 -0 -0.1379512279896242 -0.2093709681573896 -0.1636661303093792 -0.1186653042020491 -0.1949652786401135 -0 -0 0.1626040044532168 0.07313344382324868 0.1607456851583749 9:1 18:1 35:1 54:1 70:1 87:1 121:1 166:1 238:1 310:1 382:1 4375:1 10004:1 23823:1 33395:1 38654:1 48205:1 48207:1 48209:1 50774:1 54509:1 60808:1 69924:1 73406:1 
-0.1015227417723597 -0.07855609381906969 -0.1855287451398442 -0 -0.2192307687899064 -0 -0 -0.1736111042124256 -0.09069850055459423 -0.1481481481481481 0 0 0 8:1 18:1 49:1 55:1 71:1 90:1 115:1 166:1 238:1 310:1 382:1 3433:1 10004:1 23813:1 33153:1 38654:1 48205:1 48207:1 48209:1 48724:1 54509:1 60808:1 69918:1 73406:1 
-0.1636661303093792 -0.1321668885835349 -0.09794438055649422 -0 -0.1741537384281792 -0.1548265536235873 -0.0870213896414255 -0.1011965586234825 -0.137082683912274 -0 0.269541776204258 0.1736111042124256 0.1855287451398442 8:1 18:1 38:1 52:1 72:1 89:1 115:1 166:1 238:1 310:1 382:1 6661:1 10004:1 23813:1 29168:1 38654:1 48205:1 48207:1 48209:1 52283:1 54509:1 60808:1 69918:1 73406:1 
-0 -0 -0 -0 -0.269541776204258 -0 -0 -0 -0 -0 -0 0 0 5:1 18:1 37:1 55:1 73:1 95:1 107:1 166:1 238:1 310:1 382:1 508:1 10004:1 24510:1 30080:1 38654:1 48205:1 48207:1 48209:1 48216:1 54509:1 60808:1 70367:1 73406:1 
-0.0828163706789712 -0 -0 -0 -0 -0.1482197566997766 -0 -0 -0 -0 -0 0 0 5:1 18:1 49:1 55:1 71:1 88:1 107:1 176:1 239:1 310:1 382:1 508:1 10004:1 24729:1 33153:1 42751:1 48205:1 48207:1 48209:1 48216:1 54509:1 61030:1 70517:1 73406:1 
-0.1736111042124256 -0 -0.2178649165046736 -0 -0.2 -0 -0 -0.09285076960049049 -0.139156288426232 -0 -0 0 0 5:1 18:1 37:1 56:1 71:1 85:1 107:1 166:1 238:1 310:1 382:1 460:1 10004:1 26381:1 35431:1 38654:1 48205:1 48207:1 48209:1 48216:1 54509:1 60808:1 71563:1 73406:1 
-0 -0 -0 -0.1489577177996833 -0.1057795712810119 -0 -0 -0 -0 -0.1636661303093792 -0 0 0 5:1 18:1 37:1 55:1 76:1 92:1 107:1 179:1 238:1 310:1 382:1 508:1 10004:1 22760:1 33759:1 38677:1 48205:1 48207:1 48209:1 48216:1 54509:1 63772:1 69232:1 73406:1 
-0.1124379639138287 -0 -0 -0.1086919721955266 -0.2176647966421849 -0 -0 -0.1022792062948098 -0.1267479069066101 -0 -0 0 0 5:1 18:1 38:1 52:1 72:1 94:1 107:1 166:1 238:1 310:1 382:1 485:1 10004:1 26762:1 29168:1 38654:1 48205:1 48207:1 48209:1 48216:1 54509:1 60808:1 71845:1 73406:1 
-0 -0 -0 -0 -0 -0 -0 -0 -0 -0 -0.269541776204258 0 0 5:1 18:1 38:1 52:1 72:1 92:1 107:1 166:1 238:1 310:1 382:1 508:1 10004:1 26767:1 29168:1 38654:1 48205:1 48207:1 48209:1 48216:1 54509:1 60808:1 71847:1 73406:1 
-0 -0.08285466918512255 -0 -0 -0.1494959565194871 -0 -0 -0 -0.07764416802245355 -0 -0.1558068520726324 0.1181286315056716 0 5:1 18:1 38:1 54:1 71:1 87:1 107:1 166:1 239:1 310:1 382:1 1071:1 10004:1 27180:1 29230:1 38654:1 48205:1 48207:1 48209:1 48216:1 54509:1 60808:1 72124:1 73406:1 
-0.127519710808663 -0.1250483169456799 -0 -0 -0.131381308989179 -0 -0 -0.1249907133663304 -0.1130249244421169 -0 -0 0 0 5:1 18:1 49:1 55:1 71:1 89:1 107:1 169:1 238:1 310:1 383:1 512:1 10004:1 23813:1 33153:1 38718:1 48205:1 48207:1 48209:1 48259:1 54509:1 60856:1 69918:1 73920:1 
-0.1743031144954664 -0 -0.1139282202146552 -0 -0 -0 -0 -0 -0.1864646858824752 -0 -0 0 0 5:1 18:1 41:1 53:1 75:1 89:1 107:1 169:1 238:1 310:1 382:1 508:1 10004:1 27585:1 29118:1 38718:1 48205:1 48207:1 48209:1 48216:1 54509:1 60945:1 69922:1 73406:1 
-0.269837461298104 -0.1313472894700198 -0.1622320893450925 -0.1855287451398442 -0.269584357038427 -0.1210712555246693 -0.1016326102674375 -0.176859260370769 -0.2 -0.1395228246031373 -0.1626040044532168 0.1020488506363676 0.103698311163947 8:1 18:1 36:1 58:1 72:1 88:1 124:1 167:1 238:1 310:1 382:1 712:1 10004:1 19655:1 29130:1 40773:1 48205:1 48207:1 48209:1 48415:1 54509:1 60812:1 67192:1 73406:1 
-0 -0 -0.1570357683308109 -0 -0 -0 -0 -0 -0 -0 -0 0 0 5:1 18:1 49:1 55:1 71:1 89:1 107:1 169:1 238:1 310:1 382:1 508:1 10004:1 28828:1 33153:1 38684:1 48205:1 48207:1 48209:1 48216:1 54509:1 60868:1 73224:1 73406:1 
-0 -0 -0 -0 -0 -0 -0 -0 -0.1661490638849981 -0 -0 0 0 5:1 18:1 49:1 57:1 72:1 91:1 107:1 172:1 238:1 310:1 382:1 508:1 10004:1 28834:1 33153:1 38711:1 48205:1 48207:1 48209:1 48216:1 54509:1 60808:1 73228:1 73406:1 
-0.1977684892968867 -0 -0.1085780391117843 -0 -0.1893782089421426 -0 -0 -0.1017937871573518 -0.1079521751827072 -0 -0.1479446603780131 0 0 8:1 18:1 36:1 51:1 68:1 91:1 133:1 185:1 238:1 310:1 382:1 963:1 10004:1 28876:1 29106:1 47975:1 48205:1 48207:1 48209:1 48277:1 54509:1 60821:1 73261:1 73406:1 
-0.1066943625539924 -0.1414768815441378 -0.1562943994283754 -0.1580486492678996 -0.1168798916741733 -0.1605856739929327 -0.1084176822481135 -0.1631376890627821 -0.191343850377902 -0 -0 0.1461138594564962 0.1219204084501583 10:1 18:1 36:1 51:1 68:1 91:1 140:1 185:1 238:1 310:1 382:1 963:1 10004:1 28025:1 29106:1 47975:1 48205:1 48207:1 48209:1 48277:1 54509:1 60821:1 72704:1 73406:1 
-0 -0.1552795017259062 -0 -0 -0 -0.1046219622301362 -0 -0 -0 -0 -0 0 0.1459027412805748 5:1 18:1 40:1 57:1 73:1 85:1 107:1 166:1 238:1 310:1 382:1 508:1 10004:1 20402:1 29814:1 38654:1 48205:1 48207:1 48209:1 48216:1 54509:1 60808:1 67730:1 73406:1 
-0.1396756344141952 -0.1134082790064463 -0.1164411672592943 -0.1259335039296094 -0.1815392325931001 -0.1636661303093792 -0.1391045504157843 -0.1565326131302862 -0.2403846242018708 -0 -0.1071805411091542 0 0 5:1 18:1 38:1 54:1 70:1 89:1 117:1 169:1 238:1 310:1 382:1 482:1 10004:1 29063:1 29163:1 38931:1 48205:1 48207:1 48209:1 48216:1 54509:1 63253:1 73384:1 73406:1 
-0 -0 -0 -0 -0.1542153888800297 -0 -0.1552795017259062 -0.2178649165046736 -0 -0 -0 0.1636661303093792 0.1855287451398442 5:1 18:1 37:1 55:1 71:1 91:1 107:1 167:1 238:1 310:1 382:1 508:1 10004:1 21560:1 34613:1 48203:1 48205:1 48207:1 48209:1 48216:1 54509:1 60808:1 68465:1 73406:1 
-0.1361240385383509 -0.140269254930465 -0.1272837247297975 -0.104816278413182 -0.2352591089948178 -0.1349059468748421 -0 -0.1191673059985347 -0.115766757578948 -0 -0.07313344382324868 -0.1181286315056716 0.08181227144029321 6:1 18:1 41:1 60:1 77:1 88:1 108:1 181:1 244:1 310:1 382:1 916:1 10372:1 23109:1 29246:1 38975:1 48205:1 48207:1 48209:1 48258:1 54509:1 60909:1 69425:1 73406:1 
-0.105830088865501 -0.2171731847224959 -0.1002592924796341 -0.1329652615604675 -0.1855287451398442 -0.1227367893240459 -0.1552795017259062 -0.1816395524816536 -0.1486082351218958 -0 -0.1736111042124256 -0.1020488506363676 0 6:1 18:1 35:1 53:1 74:1 85:1 108:1 166:1 244:1 310:1 382:1 675:1 10004:1 24773:1 33395:1 38654:1 48205:1 48207:1 48209:1 48258:1 54509:1 60808:1 70551:1 73406:1 
-0.1625130176730433 -0.1636661303093792 -0.1855287451398442 -0.0793364548416706 -0.1543250642446083 -0.1636661303093792 -0.09763378511007827 -0.1064204491052722 -0.1286278709088764 -0.1289983170969628 -0.1249907868948397 -0.1461138594564962 0.1483541592709332 6:1 18:1 35:1 56:1 71:1 85:1 108:1 166:1 238:1 311:1 382:1 5447:1 10004:1 25038:1 33395:1 38654:1 48205:1 48207:1 48209:1 48258:1 57059:1 60808:1 70720:1 73406:1 
-0.1552795017259062 -0.1130458742809184 -0.1438878592313102 -0.1552795017259062 -0.164786407191347 -0.1824195258313999 -0.1227458012318484 -0.1552795017259062 -0.1552795017259062 -0.1481481481481481 -0.1703434778658236 -0.1636661303093792 0.1855287451398442 6:1 18:1 39:1 54:1 77:1 91:1 110:1 184:1 238:1 310:1 382:1 553:1 10004:1 25640:1 29491:1 42724:1 48205:1 48207:1 48209:1 48258:1 54509:1 60821:1 71103:1 73406:1 
-0.1095773596674753 -0.08880152523445556 -0 -0.09427445145989789 -0.5 -0 -0.1225091777896128 -0.1406671180114311 -0.1343410946013947 -0 -0.1607456851583749 -0.1219204084501583 -0 1:1 18:1 37:1 53:1 68:1 90:1 103:1 166:1 238:1 310:1 382:1 4315:1 10004:1 23845:1 32993:1 38654:1 48205:1 48207:1 48209:1 50719:1 54509:1 60808:1 69939:1 73406:1 
-0 -0.1552795017259062 -0.2178649165046736 -0 -0.3097160730194884 -0.1011128232099946 -0 -0.1736111042124256 -0.100625771135479 -0 -0 -0.1855287451398442 -0.1483541592709332 1:1 18:1 40:1 55:1 71:1 85:1 103:1 166:1 238:1 310:1 382:1 470:1 10004:1 23845:1 34402:1 38654:1 48205:1 48207:1 48209:1 48225:1 54509:1 60808:1 69939:1 73406:1 
-0.1571843610552367 -0.1074202344751789 -0.1154377611457141 -0.1321263073483968 -0.1999709934602432 -0.1633230393908317 -0.1560882547546569 -0.08888230933397481 -0.2655641671387582 -0 -0.1081991132304614 -0.1459027412805748 -0.1855287451398442 1:1 18:1 39:1 54:1 78:1 91:1 103:1 187:1 238:1 310:1 382:1 5938:1 10004:1 23845:1 29132:1 43647:1 48205:1 48207:1 48209:1 51823:1 54509:1 60808:1 69939:1 73406:1 
-0.1270756059288201 -0 -0 -0 -0.288057067076701 -0 -0.113913331188967 -0 -0.1816635591097174 -0.1329938826041014 -0.1855287451398442 -0 -0 1:1 18:1 38:1 52:1 69:1 89:1 103:1 169:1 238:1 310:1 382:1 470:1 10004:1 23845:1 29399:1 39480:1 48205:1 48207:1 48209:1 48225:1 54509:1 64151:1 69939:1 73406:1 
-0.1736111042124256 -0.1310472166920115 -0.1651416102426696 -0.1736111042124256 -0.341591672540822 -0.1481481481481481 -0.1736111042124256 -0.1729669001412156 -0.1736111042124256 -0.1481481481481481 -0 -0.103698311163947 -0.08181227144029321 1:1 18:1 36:1 56:1 71:1 89:1 103:1 169:1 238:1 310:1 382:1 6417:1 10004:1 23845:1 29130:1 38831:1 48205:1 48207:1 48209:1 52130:1 54509:1 60808:1 69939:1 73406:1 
