svm_type c_svc
kernel_type polynomial
degree 2
gamma 0.1
coef0 0.6
nr_class 5
total_sv 105
rho 0.410108 0.203326 0.815444 0 -0.535695 -0.37707 -0.594327 -0.187523 -0.635902 -0.569312
label 1 2 7 17 99
nr_sv 4 60 34 6 1
SV
0.1418141751928654 0.1267610206609018 0.121030939673765 0 1:1 19:1 42:1 54:1 76:1 85:1 103:1 166:1 238:1 310:1 382:1 1113:1 10004:1 19556:1 29764:1 38654:1 48205:1 48207:1 48209:1 48704:1 54509:1 60808:1 67109:1 73406:1 
0.1098861179139203 0.1166430159197893 0.1218576170269997 0 1:1 19:1 37:1 53:1 68:1 85:1 103:1 166:1 238:1 310:1 382:1 3851:1 10004:1 19556:1 32347:1 38654:1 48205:1 48207:1 48209:1 50442:1 54509:1 60808:1 67109:1 73406:1 
0 0 0.1820036934972332 0 1:1 19:1 37:1 59:1 70:1 85:1 103:1 166:1 238:1 310:1 382:1 3919:1 10004:1 19556:1 30270:1 38654:1 48205:1 48207:1 48209:1 50485:1 54509:1 60808:1 67109:1 73406:1 
0.1855287451398442 0.2178649165046736 0.2 0.1636661303093792 1:1 19:1 37:1 55:1 71:1 85:1 103:1 166:1 238:1 310:1 382:1 3988:1 10004:1 19556:1 32639:1 38654:1 48205:1 48207:1 48209:1 50517:1 54509:1 60808:1 67109:1 73406:1 
-0 0.1091423523195804 0 0 6:1 19:1 34:1 51:1 68:1 87:1 108:1 179:1 239:1 321:1 382:1 577:1 10125:1 19687:1 29104:1 38680:1 48205:1 48207:1 48208:1 48313:1 54547:1 60907:1 67216:1 73406:1 
-0 0.479457434032047 0 0 7:1 19:1 34:1 51:1 68:1 88:1 119:1 167:1 238:1 330:1 382:1 473:1 10004:1 19687:1 29104:1 38769:1 48205:1 48207:1 48208:1 48308:1 54608:1 60808:1 67216:1 73406:1 
-0 0.1412197943398651 0 0 6:1 19:1 34:1 51:1 68:1 88:1 108:1 176:1 239:1 328:1 382:1 552:1 10030:1 19556:1 29104:1 38798:1 48205:1 48207:1 48208:1 48249:1 54557:1 60808:1 67109:1 73406:1 
-0 0.1379532859904912 0 0 6:1 19:1 34:1 51:1 68:1 91:1 125:1 184:1 238:1 329:1 382:1 864:1 10004:1 19556:1 29104:1 38969:1 48205:1 48207:1 48208:1 48399:1 54610:1 60808:1 67109:1 73406:1 
-0 0 0.1539102237101756 0 3:1 19:1 34:1 51:1 68:1 91:1 105:1 185:1 243:1 311:1 382:1 1152:1 10004:1 19687:1 29104:1 39351:1 48205:1 48207:1 48208:1 48713:1 54526:1 60808:1 67216:1 73406:1 
-0 0.3145347472196695 0 0 6:1 19:1 34:1 51:1 68:1 92:1 137:1 179:1 244:1 311:1 382:1 1350:1 10061:1 19556:1 29104:1 38668:1 48205:1 48207:1 48208:1 48864:1 54582:1 61040:1 67109:1 73406:1 
-0 0.1281703978329781 0 0 6:1 19:1 34:1 51:1 68:1 92:1 108:1 179:1 244:1 331:1 382:1 511:1 10004:1 19635:1 29104:1 38668:1 48205:1 48207:1 48208:1 48258:1 55414:1 61710:1 67176:1 73406:1 
-0 0.1147108323232495 0 0 6:1 19:1 34:1 51:1 68:1 92:1 118:1 186:1 244:1 345:1 382:1 1645:1 10546:1 19556:1 29104:1 39871:1 48205:1 48207:1 48208:1 48382:1 54610:1 61054:1 67109:1 73406:1 
-0 0.1788610128809896 0 0 6:1 19:1 34:1 51:1 68:1 92:1 137:1 186:1 244:1 311:1 382:1 1209:1 10061:1 19556:1 29104:1 38738:1 48205:1 48207:1 48208:1 48347:1 54526:1 60838:1 67109:1 73406:1 
-0 0.1083388986236661 0 0 6:1 19:1 34:1 51:1 68:1 88:1 118:1 181:1 238:1 310:1 382:1 2546:1 10004:1 19556:1 29104:1 40705:1 48205:1 48207:1 48208:1 49631:1 54509:1 60808:1 67109:1 73406:1 
-0 0.1297698335942382 0 0 6:1 19:1 34:1 51:1 68:1 92:1 137:1 186:1 244:1 322:1 382:1 2653:1 10059:1 19556:1 29104:1 38701:1 48205:1 48207:1 48208:1 48785:1 55209:1 61054:1 67109:1 73406:1 
-0 0.08673732539204551 0 0 6:1 19:1 34:1 51:1 68:1 92:1 108:1 186:1 257:1 311:1 382:1 897:1 10066:1 19635:1 29104:1 38738:1 48205:1 48207:1 48208:1 48550:1 54552:1 60838:1 67176:1 73406:1 
-0 0.1325266198785436 0 0 6:1 19:1 34:1 51:1 68:1 88:1 137:1 181:1 239:1 311:1 382:1 3015:1 10004:1 19635:1 29104:1 39269:1 48205:1 48207:1 48208:1 48742:1 54526:1 60909:1 67176:1 73406:1 
-0 0.1179296906041245 0 0 3:1 19:1 34:1 51:1 68:1 91:1 114:1 172:1 243:1 322:1 382:1 1658:1 10004:1 19556:1 29104:1 39445:1 48205:1 48207:1 48208:1 48299:1 54532:1 60808:1 67109:1 73406:1 
-0 0.07293752267802106 0 0 7:1 19:1 34:1 51:1 68:1 88:1 112:1 178:1 238:1 323:1 382:1 468:1 10004:1 19556:1 29104:1 41176:1 48205:1 48207:1 48208:1 48223:1 54836:1 60808:1 67109:1 73406:1 
-0 0.207769907398823 0 0 6:1 19:1 34:1 51:1 68:1 91:1 125:1 184:1 247:1 322:1 382:1 4048:1 10077:1 19556:1 29104:1 38699:1 48205:1 48207:1 48208:1 48526:1 54640:1 60808:1 67109:1 73406:1 
-0 0.2677450321016243 0 0 6:1 19:1 34:1 51:1 68:1 91:1 110:1 184:1 238:1 329:1 382:1 469:1 10004:1 19556:1 29104:1 38752:1 48205:1 48207:1 48208:1 48224:1 56797:1 60808:1 67109:1 73406:1 
-0 0.1882024152380925 0 0 6:1 19:1 34:1 51:1 68:1 92:1 108:1 179:1 244:1 331:1 382:1 511:1 10004:1 19556:1 29104:1 42499:1 48205:1 48207:1 48208:1 48258:1 55728:1 60808:1 67109:1 73406:1 
-0 0.2543472818853889 0 0 6:1 19:1 34:1 51:1 68:1 92:1 118:1 179:1 244:1 310:1 382:1 4833:1 11148:1 23437:1 29104:1 41416:1 48205:1 48207:1 48208:1 50148:1 54509:1 60808:1 69637:1 73406:1 
-0 0.1605118988667869 0 0 6:1 19:1 34:1 51:1 68:1 88:1 137:1 181:1 239:1 329:1 382:1 1359:1 10012:1 19556:1 29104:1 43395:1 48205:1 48207:1 48208:1 48872:1 54513:1 63772:1 67109:1 73406:1 
-0 0.0393552204948423 0 0 6:1 19:1 34:1 51:1 68:1 91:1 108:1 185:1 238:1 311:1 382:1 5452:1 10004:1 19556:1 29104:1 43077:1 48205:1 48207:1 48208:1 48785:1 54563:1 60808:1 67109:1 73406:1 
-0 0.09881834265576706 0 0 4:1 19:1 34:1 51:1 68:1 88:1 109:1 180:1 238:1 313:1 382:1 463:1 10004:1 19556:1 29104:1 40856:1 48205:1 48207:1 48208:1 48214:1 54991:1 60812:1 67109:1 73406:1 
-0 0.1449732503719556 0 0 6:1 19:1 34:1 51:1 68:1 88:1 137:1 176:1 244:1 326:1 382:1 5696:1 10061:1 19556:1 29104:1 43805:1 48205:1 48207:1 48208:1 49504:1 54539:1 60808:1 67109:1 73406:1 
-0 0.1854652527803305 0 0 3:1 19:1 34:1 51:1 68:1 91:1 105:1 185:1 243:1 310:1 382:1 2676:1 10004:1 19556:1 29104:1 45173:1 48205:1 48207:1 48208:1 49707:1 54509:1 60808:1 67109:1 73406:1 
-0 0.1258617501660922 0 0 6:1 19:1 34:1 51:1 68:1 92:1 137:1 179:1 244:1 311:1 382:1 7168:1 10061:1 19556:1 29104:1 38796:1 48205:1 48207:1 48208:1 50148:1 54535:1 64388:1 67109:1 73406:1 
-0 0.1138340072186425 0 0 6:1 19:1 34:1 51:1 68:1 95:1 108:1 200:1 257:1 331:1 382:1 7227:1 10023:1 23437:1 29104:1 39079:1 48205:1 48207:1 48208:1 50270:1 58482:1 60812:1 69637:1 73406:1 
-0 0.182551591540286 0 0 6:1 19:1 34:1 51:1 68:1 92:1 137:1 179:1 239:1 340:1 382:1 6593:1 10030:1 19635:1 29104:1 38668:1 48205:1 48207:1 48208:1 51981:1 54610:1 60856:1 67176:1 73406:1 
-0 0 0.110133941085558 0 8:1 19:1 36:1 53:1 68:1 91:1 115:1 187:1 238:1 310:1 382:1 1616:1 10004:1 26652:1 35895:1 39364:1 48205:1 48207:1 48209:1 49049:1 54509:1 60851:1 67109:1 73406:1 
-0 0 0.126844829246601 0 6:1 19:1 36:1 53:1 68:1 95:1 108:1 181:1 238:1 331:1 382:1 1164:1 10004:1 26652:1 35895:1 38703:1 48205:1 48207:1 48209:1 48258:1 55348:1 60862:1 67109:1 73406:1 
-0 0 0.1570302562665943 0 6:1 19:1 34:1 51:1 68:1 91:1 108:1 185:1 287:1 360:1 382:1 7549:1 10004:1 19556:1 29104:1 41269:1 48205:1 48207:1 48208:1 48382:1 58942:1 60821:1 67109:1 73406:1 
-0 0.1402169195974415 0 0 6:1 19:1 34:1 51:1 68:1 88:1 108:1 181:1 239:1 321:1 382:1 6188:1 17195:1 19556:1 29104:1 45844:1 48205:1 48207:1 48208:1 50704:1 54521:1 60838:1 67109:1 73406:1 
-0 0.1008602667475421 0 0 6:1 19:1 34:1 51:1 68:1 92:1 137:1 186:1 269:1 311:1 382:1 6836:1 10004:1 23437:1 29104:1 38703:1 48205:1 48207:1 48208:1 48288:1 54526:1 60817:1 69637:1 73406:1 
-0 0.2924221176061422 0 0 6:1 19:1 34:1 51:1 68:1 92:1 108:1 179:1 244:1 322:1 382:1 7698:1 10059:1 19556:1 29104:1 41416:1 48205:1 48207:1 48208:1 52975:1 54522:1 60808:1 67109:1 73406:1 
-0 0.2291090856409465 0 0 6:1 19:1 34:1 51:1 68:1 92:1 108:1 186:1 239:1 329:1 382:1 7784:1 10051:1 19635:1 29104:1 38738:1 48205:1 48207:1 48208:1 48288:1 54841:1 60808:1 67176:1 73406:1 
-0 0.1567722745429777 0 0 6:1 19:1 34:1 51:1 68:1 92:1 108:1 179:1 239:1 311:1 382:1 511:1 10004:1 19556:1 29104:1 41416:1 48205:1 48207:1 48208:1 48258:1 54587:1 60808:1 67109:1 73406:1 
-0 0 0.1918343999817779 0 6:1 19:1 36:1 53:1 68:1 91:1 110:1 184:1 238:1 310:1 382:1 690:1 10004:1 26652:1 35895:1 38699:1 48205:1 48207:1 48209:1 48399:1 54509:1 60886:1 67109:1 73406:1 
-0 0.1523825257646887 0.1604540350724446 0.1114546743423257 6:1 19:1 36:1 53:1 68:1 91:1 108:1 185:1 272:1 328:1 382:1 499:1 10066:1 26652:1 35895:1 46436:1 48205:1 48207:1 48209:1 48249:1 54698:1 60808:1 67109:1 73406:1 
-0 0.2238731508588994 0 0 6:1 19:1 34:1 51:1 68:1 93:1 137:1 176:1 287:1 360:1 382:1 6836:1 11485:1 19556:1 29104:1 39219:1 48205:1 48207:1 48208:1 48288:1 58942:1 60831:1 67109:1 73406:1 
-0 0.1740973192003048 0 0 10:1 19:1 36:1 53:1 68:1 94:1 127:1 185:1 238:1 310:1 382:1 4813:1 10004:1 23437:1 35895:1 38709:1 48205:1 48207:1 48209:1 51092:1 54509:1 60821:1 69637:1 73406:1 
-0.1418141751928654 0 0 0 1:1 19:1 36:1 51:1 68:1 89:1 103:1 169:1 238:1 310:1 382:1 4009:1 10004:1 26652:1 29237:1 38718:1 48205:1 48207:1 48209:1 50528:1 54509:1 66138:1 67109:1 73406:1 
-0 0 0.1514650487328645 0 1:1 19:1 36:1 51:1 68:1 90:1 103:1 171:1 238:1 363:1 382:1 7189:1 10004:1 26652:1 29237:1 38685:1 48205:1 48207:1 48209:1 53540:1 54563:1 61691:1 67109:1 73406:1 
-0 0 0.1912147919949258 0 4:1 19:1 36:1 53:1 68:1 92:1 109:1 179:1 238:1 313:1 382:1 463:1 10004:1 23437:1 35895:1 38818:1 48205:1 48207:1 48209:1 48214:1 59435:1 60812:1 69637:1 73406:1 
-0.1098861179139203 0.2390307194773037 0 0 6:1 19:1 36:1 53:1 68:1 91:1 137:1 200:1 238:1 311:1 382:1 6836:1 10004:1 23437:1 35895:1 39093:1 48205:1 48207:1 48209:1 48288:1 54526:1 60808:1 69637:1 73406:1 
-0 0.09109163716346405 0 0 8:1 19:1 36:1 53:1 68:1 88:1 115:1 167:1 238:1 310:1 382:1 8534:1 10004:1 23437:1 35895:1 44632:1 48205:1 48207:1 48209:1 53550:1 54509:1 60812:1 69637:1 73406:1 
-0 0.1113140021613354 0 0 6:1 19:1 34:1 51:1 68:1 91:1 108:1 185:1 239:1 360:1 382:1 7936:1 16793:1 19556:1 29104:1 46784:1 48205:1 48207:1 48208:1 48288:1 58942:1 66189:1 67109:1 73406:1 
-0 0 0 0.09653747822610963 6:1 19:1 34:1 51:1 68:1 92:1 108:1 186:1 239:1 329:1 382:1 8627:1 10030:1 19635:1 29104:1 38738:1 48205:1 48207:1 48208:1 53618:1 59920:1 60886:1 67176:1 73406:1 
-0 0.2626872498474415 0 0 6:1 19:1 34:1 51:1 68:1 92:1 108:1 179:1 239:1 329:1 382:1 6872:1 10030:1 19556:1 29104:1 42499:1 48205:1 48207:1 48208:1 52410:1 54581:1 60808:1 67109:1 73406:1 
-0 0.1612607692064966 0 0 6:1 19:1 34:1 51:1 68:1 92:1 137:1 179:1 247:1 311:1 382:1 8844:1 18393:1 19556:1 29104:1 38668:1 48205:1 48207:1 48208:1 53445:1 54610:1 64359:1 67109:1 73406:1 
-0 0.1564784398804321 0 0 6:1 19:1 34:1 51:1 68:1 88:1 108:1 181:1 239:1 310:1 382:1 4744:1 10013:1 19635:1 29104:1 39251:1 48205:1 48207:1 48208:1 50772:1 54509:1 60825:1 67176:1 73406:1 
-0 0.3741382498339078 0 0 6:1 19:1 34:1 51:1 68:1 92:1 108:1 179:1 239:1 311:1 382:1 9135:1 10066:1 19556:1 29104:1 38668:1 48205:1 48207:1 48208:1 50207:1 54563:1 60808:1 67109:1 73406:1 
-0 0.1913691535247722 0 0 3:1 19:1 34:1 51:1 68:1 92:1 152:1 179:1 247:1 321:1 382:1 9534:1 10004:1 19556:1 29104:1 38668:1 48205:1 48207:1 48208:1 54205:1 54547:1 66803:1 67109:1 73406:1 
-0 0.5 0 0 4:1 19:1 34:1 51:1 68:1 89:1 113:1 166:1 238:1 313:1 382:1 471:1 10004:1 19556:1 29104:1 38654:1 48205:1 48207:1 48208:1 48214:1 60650:1 60808:1 67109:1 73406:1 
-0 0.5 0.1102893236915355 0 6:1 19:1 34:1 51:1 68:1 91:1 137:1 166:1 284:1 311:1 382:1 9742:1 10066:1 19556:1 29104:1 38654:1 48205:1 48207:1 48208:1 54339:1 54563:1 60808:1 67109:1 73406:1 
-0 0 0.1785625884703394 0 3:1 19:1 34:1 51:1 68:1 89:1 105:1 169:1 238:1 311:1 382:1 1712:1 10004:1 19556:1 29104:1 38658:1 48205:1 48207:1 48208:1 49111:1 54513:1 65366:1 67109:1 73406:1 
-0.1855287451398442 0 0 0 1:1 19:1 34:1 51:1 68:1 95:1 103:1 171:1 238:1 310:1 382:1 8925:1 10004:1 19556:1 29104:1 39163:1 48205:1 48207:1 48208:1 53807:1 54509:1 64211:1 67109:1 73406:1 
-0 0.09626388023252247 0 0 6:1 19:1 34:1 51:1 68:1 92:1 137:1 179:1 269:1 322:1 382:1 923:1 10004:1 19556:1 29104:1 42499:1 48205:1 48207:1 48208:1 48258:1 54522:1 60808:1 67109:1 73406:1 
-0 0.1063202025422535 0 0 3:1 19:1 34:1 51:1 68:1 92:1 122:1 179:1 247:1 325:1 382:1 8834:1 11238:1 19635:1 29104:1 38668:1 48205:1 48207:1 48208:1 53751:1 55149:1 67038:1 67176:1 73406:1 
-0 0.17494590450983 0 0 6:1 19:1 34:1 51:1 68:1 87:1 137:1 179:1 269:1 322:1 382:1 2634:1 10004:1 19556:1 29104:1 38680:1 48205:1 48207:1 48208:1 49684:1 54532:1 67068:1 67109:1 73406:1 
-0 0.2650534517496459 0 0 3:1 19:1 34:1 51:1 68:1 91:1 105:1 185:1 243:1 310:1 382:1 8676:1 10004:1 19556:1 29104:1 38711:1 48205:1 48207:1 48208:1 53649:1 54509:1 60808:1 67109:1 73406:1 
-0 0.03928170276261352 0.06083466023807929 0.05161066992203851 4:1 19:1 34:1 51:1 68:1 91:1 109:1 167:1 238:1 313:1 382:1 766:1 10004:1 19556:1 29104:1 48203:1 48205:1 48207:1 48208:1 48311:1 59551:1 60808:1 67109:1 73406:1 
-0 -0.5 0.07767919410364858 0 7:1 19:1 34:1 51:1 68:1 88:1 119:1 167:1 238:1 330:1 382:1 473:1 10004:1 19687:1 29104:1 38788:1 48205:1 48207:1 48208:1 48308:1 54620:1 60808:1 67216:1 73406:1 
-0 -0.5 0 0 6:1 19:1 34:1 51:1 68:1 92:1 118:1 186:1 244:1 321:1 382:1 672:1 10059:1 19556:1 29104:1 38738:1 48205:1 48207:1 48208:1 48385:1 54547:1 60838:1 67109:1 73406:1 
-0 -0.1063202025422535 0 0 3:1 19:1 34:1 51:1 68:1 87:1 114:1 166:1 243:1 325:1 382:1 1211:1 10004:1 19687:1 29104:1 38654:1 48205:1 48207:1 48208:1 48770:1 55115:1 60808:1 67216:1 73406:1 
-0 -0.5 0 0 6:1 19:1 34:1 51:1 68:1 92:1 137:1 179:1 239:1 311:1 382:1 1359:1 10061:1 19556:1 29104:1 38668:1 48205:1 48207:1 48208:1 48872:1 54526:1 61054:1 67109:1 73406:1 
-0 -0.5 0 0 6:1 19:1 34:1 51:1 68:1 91:1 108:1 176:1 239:1 329:1 382:1 2735:1 10030:1 19556:1 29104:1 39445:1 48205:1 48207:1 48208:1 48849:1 54560:1 60808:1 67109:1 73406:1 
-0 -0.2299807527823516 0 0 4:1 19:1 34:1 51:1 68:1 85:1 113:1 166:1 238:1 313:1 382:1 3630:1 10004:1 19556:1 29104:1 38654:1 48205:1 48207:1 48208:1 48214:1 54685:1 60808:1 67109:1 73406:1 
-0 -0 0.26497126459864 0 3:1 19:1 34:1 51:1 68:1 85:1 105:1 166:1 238:1 311:1 382:1 3593:1 10004:1 19556:1 29104:1 38654:1 48205:1 48207:1 48208:1 49111:1 56751:1 60808:1 67109:1 73406:1 
-0 -0 0.1913580028881028 0 3:1 19:1 34:1 51:1 68:1 85:1 105:1 166:1 238:1 311:1 382:1 3593:1 10004:1 19556:1 29104:1 38654:1 48205:1 48207:1 48208:1 49111:1 56615:1 60808:1 67109:1 73406:1 
-0 -0.2700192472176484 0 0 4:1 19:1 34:1 51:1 68:1 85:1 113:1 166:1 238:1 313:1 382:1 3657:1 10004:1 19556:1 29104:1 38654:1 48205:1 48207:1 48208:1 48214:1 54991:1 60808:1 67109:1 73406:1 
-0 -0.5 0 0 6:1 19:1 34:1 51:1 68:1 91:1 125:1 184:1 238:1 329:1 382:1 1668:1 10004:1 19556:1 29104:1 38752:1 48205:1 48207:1 48208:1 48785:1 54836:1 60808:1 67109:1 73406:1 
-0 -0.5 0 0 6:1 19:1 34:1 51:1 68:1 92:1 108:1 179:1 244:1 322:1 382:1 5034:1 10004:1 19556:1 29104:1 42499:1 48205:1 48207:1 48208:1 51237:1 54522:1 60808:1 67109:1 73406:1 
-0 -0.1490952100955695 0 0 6:1 19:1 34:1 51:1 68:1 85:1 137:1 166:1 244:1 311:1 382:1 5347:1 10061:1 19556:1 29104:1 38654:1 48205:1 48207:1 48208:1 51251:1 54563:1 60808:1 67109:1 73406:1 
-0 -0.1605118988667869 0.1583283158051791 0 6:1 19:1 36:1 57:1 70:1 88:1 108:1 167:1 287:1 310:1 382:1 7548:1 15259:1 23437:1 35895:1 40871:1 48205:1 48207:1 48209:1 52870:1 54509:1 60909:1 69637:1 73406:1 
-0 -0.1480496268401482 0 0 6:1 19:1 34:1 51:1 68:1 88:1 108:1 166:1 239:1 311:1 382:1 4744:1 11262:1 19556:1 29104:1 38654:1 48205:1 48207:1 48208:1 50772:1 54539:1 60808:1 67109:1 73406:1 
-0 -0.1612607692064966 0 0 6:1 19:1 34:1 51:1 68:1 88:1 108:1 166:1 248:1 328:1 382:1 1600:1 10015:1 19556:1 29104:1 38654:1 48205:1 48207:1 48208:1 48456:1 54587:1 60808:1 67109:1 73406:1 
-0 -0.1523825257646887 0 0 6:1 19:1 34:1 51:1 68:1 87:1 137:1 166:1 238:1 321:1 382:1 7956:1 10004:1 19556:1 29104:1 38654:1 48205:1 48207:1 48208:1 49631:1 54521:1 60808:1 67109:1 73406:1 
-0 -0.4057397935992882 0 0 6:1 19:1 34:1 51:1 68:1 88:1 137:1 181:1 287:1 310:1 382:1 6836:1 11485:1 23437:1 29104:1 46168:1 48205:1 48207:1 48208:1 48288:1 54509:1 61692:1 69637:1 73406:1 
-0 -0.1083388986236661 0 0 6:1 19:1 34:1 51:1 68:1 88:1 108:1 166:1 248:1 316:1 382:1 675:1 10316:1 19556:1 29104:1 38654:1 48205:1 48207:1 48208:1 48258:1 59489:1 60808:1 67109:1 73406:1 
-0.2178649165046736 -0 0 0 6:1 19:1 34:1 51:1 68:1 85:1 108:1 166:1 238:1 310:1 382:1 8145:1 10004:1 19556:1 29104:1 38654:1 48205:1 48207:1 48208:1 48288:1 54509:1 60808:1 67109:1 73406:1 
-0 -0.2792940524015566 0 0 6:1 19:1 36:1 53:1 68:1 93:1 137:1 176:1 287:1 310:1 382:1 6836:1 11485:1 23437:1 35895:1 39219:1 48205:1 48207:1 48209:1 48288:1 54509:1 60831:1 69637:1 73406:1 
-0 -0.1740973192003048 0 0 3:1 19:1 34:1 51:1 68:1 86:1 122:1 166:1 238:1 311:1 382:1 8332:1 10004:1 19556:1 29104:1 38654:1 48205:1 48207:1 48208:1 53407:1 54610:1 60808:1 67109:1 73406:1 
-0 -0 0 0.1426747622307645 6:1 19:1 34:1 51:1 68:1 85:1 108:1 166:1 239:1 379:1 382:1 8518:1 10030:1 19687:1 29104:1 38654:1 48205:1 48207:1 48208:1 48218:1 54511:1 60808:1 67216:1 73406:1 
-0.1267610206609018 -0 0.1916864654113105 0 6:1 19:1 36:1 53:1 68:1 85:1 137:1 166:1 287:1 329:1 382:1 8533:1 10004:1 23437:1 35895:1 38654:1 48205:1 48207:1 48209:1 48288:1 59696:1 60808:1 69637:1 73406:1 
-0 -0.3398909862248458 0.1182881451758756 0.09705401636605113 6:1 19:1 36:1 53:1 68:1 91:1 108:1 185:1 239:1 362:1 382:1 7936:1 16793:1 23437:1 35895:1 46784:1 48205:1 48207:1 48209:1 48288:1 54686:1 66189:1 69637:1 73406:1 
-0 -0.1605923702717491 0 0 4:1 19:1 34:1 51:1 68:1 85:1 109:1 166:1 238:1 313:1 382:1 1375:1 10004:1 19556:1 29104:1 38654:1 48205:1 48207:1 48208:1 48236:1 59813:1 60808:1 67109:1 73406:1 
-0 -0.1449732503719556 0 0 6:1 19:1 34:1 51:1 68:1 88:1 108:1 166:1 260:1 329:1 382:1 8822:1 10004:1 19556:1 29104:1 38654:1 48205:1 48207:1 48208:1 48607:1 60041:1 60808:1 67109:1 73406:1 
-0 -0.4866914497434581 0 0 6:1 19:1 34:1 51:1 68:1 92:1 137:1 179:1 247:1 311:1 382:1 4583:1 18496:1 19635:1 29104:1 38668:1 48205:1 48207:1 48208:1 50936:1 54610:1 65305:1 67176:1 73406:1 
-0 -0.4834563675263354 0 0 6:1 19:1 34:1 51:1 68:1 92:1 108:1 179:1 247:1 331:1 382:1 511:1 10052:1 19635:1 29104:1 45230:1 48205:1 48207:1 48208:1 48258:1 55728:1 60808:1 67176:1 73406:1 
-0.1166430159197893 -0 0 0 3:1 19:1 34:1 51:1 68:1 85:1 114:1 166:1 239:1 310:1 382:1 9562:1 10004:1 19556:1 29104:1 38654:1 48205:1 48207:1 48208:1 54223:1 54509:1 60808:1 67109:1 73406:1 
-0 -0.5 0 0 6:1 19:1 34:1 51:1 68:1 92:1 108:1 179:1 239:1 311:1 382:1 9723:1 10066:1 19556:1 29104:1 41416:1 48205:1 48207:1 48208:1 51071:1 54582:1 60808:1 67109:1 73406:1 
-0 -0.5 0 0 6:1 19:1 34:1 51:1 68:1 85:1 137:1 166:1 244:1 311:1 382:1 9742:1 10066:1 19556:1 29104:1 38654:1 48205:1 48207:1 48208:1 54339:1 54563:1 60808:1 67109:1 73406:1 
-0 -0.5 0.1309051817920975 0 3:1 19:1 34:1 51:1 68:1 91:1 105:1 185:1 243:1 310:1 382:1 9828:1 10004:1 19556:1 29104:1 43351:1 48205:1 48207:1 48208:1 54397:1 54509:1 60808:1 67109:1 73406:1 
-0 -0.5 0 0 6:1 19:1 34:1 51:1 68:1 92:1 137:1 179:1 269:1 322:1 382:1 7168:1 10004:1 19556:1 29104:1 38668:1 48205:1 48207:1 48208:1 50148:1 54532:1 66756:1 67109:1 73406:1 
-0 -0 0.1903538519360217 0.05732523776923554 6:1 19:1 34:1 51:1 68:1 85:1 108:1 166:1 260:1 311:1 382:1 10003:1 10004:1 19556:1 29104:1 38654:1 48205:1 48207:1 48208:1 48643:1 54610:1 60808:1 67109:1 73406:1 
-0.2 -0.1604540350724446 -0.1916864654113105 0 1:1 19:1 37:1 52:1 70:1 91:1 103:1 176:1 238:1 310:1 382:1 3500:1 10004:1 19687:1 31756:1 38662:1 48205:1 48207:1 48209:1 50237:1 54509:1 60808:1 67216:1 73406:1 
-0.1820036934972332 -0.3717751402148493 -0.5 0.09190610120447082 3:1 19:1 34:1 51:1 68:1 85:1 105:1 166:1 238:1 311:1 382:1 3593:1 10004:1 19556:1 29104:1 38654:1 48205:1 48207:1 48208:1 49111:1 56059:1 60808:1 67109:1 73406:1 
-0 -0.126844829246601 -0.1309051817920975 0 3:1 19:1 37:1 54:1 70:1 95:1 105:1 176:1 238:1 310:1 382:1 7467:1 10004:1 19635:1 36118:1 39750:1 48205:1 48207:1 48209:1 52805:1 54509:1 64203:1 67176:1 73406:1 
-0 -0.4529691644193258 -0.1583283158051791 0 6:1 19:1 36:1 53:1 68:1 91:1 108:1 185:1 287:1 311:1 382:1 7549:1 10004:1 26652:1 35895:1 41269:1 48205:1 48207:1 48209:1 48382:1 54563:1 60821:1 67109:1 73406:1 
-0.1218576170269997 -0.1918343999817779 -0.26497126459864 0.1870328950741461 6:1 19:1 36:1 53:1 68:1 85:1 108:1 166:1 287:1 329:1 382:1 8236:1 10004:1 26652:1 35895:1 38654:1 48205:1 48207:1 48209:1 48288:1 54548:1 60808:1 67109:1 73406:1 
-0.121030939673765 -0.2886965295558974 -0.07767919410364858 0.0501393541106718 4:1 19:1 37:1 53:1 70:1 92:1 109:1 179:1 238:1 310:1 382:1 463:1 10004:1 26652:1 36909:1 38818:1 48205:1 48207:1 48209:1 48214:1 54509:1 60812:1 67109:1 73406:1 
-0.1636661303093792 -0.2596028224904738 -0.2970540163660511 -0.3290783503892887 6:1 19:1 36:1 51:1 68:1 85:1 108:1 166:1 239:1 329:1 382:1 8518:1 10030:1 26652:1 29237:1 38654:1 48205:1 48207:1 48209:1 48218:1 55392:1 60808:1 67109:1 73406:1 
