svm_type c_svc
kernel_type polynomial
degree 2
gamma 0.1
coef0 0.6
nr_class 19
total_sv 366
rho -0.16482 0.117259 -0.123811 0.0817226 0.971721 0.182973 0.059927 0.136236 -0.397454 -0.487673 -0.479423 -0.290519 -0.243925 -0.174279 0.0462447 -0.116339 -0.423239 -0.623631 0.173929 0.102869 0.094613 0.789297 -0.0289251 0.0139095 0.181336 -0.331825 -0.501587 -0.451314 -0.32094 -0.101807 -0.153946 0.0487922 -0.263962 -0.392296 -0.47539 -0.149345 -0.334657 0.41286 -0.234635 -0.010854 -0.281762 -0.820341 -0.620467 -0.528866 -0.482207 -0.364209 -0.283781 -0.541646 -0.348942 -0.334582 -0.539882 0.0756471 0.546467 -0.181202 0.012491 0.0954765 -0.342881 -0.352428 -0.205763 -0.157376 -0.129913 -0.22532 -0.00240416 -0.189746 -0.240953 -0.372042 0.433164 -0.158338 -0.0223153 0.0272146 -0.65455 -0.566741 -0.381572 -0.292124 -0.302384 -0.0821375 -0.0564096 -0.0633952 -0.41219 -0.342041 -0.585676 -0.583375 -0.302486 -0.619435 -0.576495 -0.802948 -0.697941 -0.653148 -0.473679 -0.360051 -0.506652 -0.400627 -0.632239 0.027429 0.156244 -0.576699 -0.716495 -0.574612 -0.528608 -0.166558 -0.0664339 0.0710835 0.00282651 -0.239889 -0.352428 -0.038612 -0.312647 -0.323175 -0.182583 -0.169544 -0.0977394 -0.0233595 0.00153012 -0.019185 -0.204656 -0.307654 -0.422549 -0.359255 -0.349662 -0.31138 -0.268718 -0.379685 -0.013349 -0.294561 -0.271612 -0.508306 0 0 0 0 0 0.690355 0 0 0 0 0 0.330428 0.351337 0.345393 0.372042 0 0 0.1125 0.160131 0.205763 0.155821 0.187654 -0.0466539 0 0.09997 0.148864 0.0948922 0.130806 -0.0745378 0 0.0355282 0.0880504 0.0970615 -0.263171 -0.360507 0.100674 0.0790198 -0.202634 -0.350414 -0.143161 -0.221027 0 -0.390229 -0.342881 0
label 6 16 24 26 30 2 4 19 25 5 3 22 23 29 35 27 1 74 87
nr_sv 70 27 91 11 22 69 20 2 7 1 1 2 2 5 4 26 3 2 1
SV
0 0 0 0 0.1106284240271408 0 0 0 0 0 0 0 0 0 0 0 0 0 4:1 23:1 40:1 55:1 71:1 88:1 109:1 167:1 238:1 310:1 382:1 463:1 10004:1 19920:1 29471:1 39017:1 48205:1 48207:1 48209:1 48214:1 54509:1 60945:1 67146:1 73406:1 
0 0 0 0 0.2095069756427888 0 0 0 0 0 0 0 0 0 0 0 0 0 4:1 23:1 36:1 51:1 68:1 88:1 109:1 167:1 238:1 310:1 382:1 739:1 10004:1 19924:1 29106:1 38926:1 48205:1 48207:1 48209:1 48240:1 54509:1 60812:1 67390:1 73406:1 
0 0 0.2021563385795702 0 0 0 0 0 0 0 0 0 0 0 0 0 0 0 4:1 23:1 39:1 54:1 76:1 88:1 109:1 167:1 238:1 310:1 382:1 463:1 10004:1 20170:1 29721:1 39269:1 48205:1 48207:1 48209:1 48214:1 54509:1 60909:1 67573:1 73406:1 
0 0 0 0.124915801175534 0 0 0 0.1211390406131154 0 0 0 0 0 0 0.09890064719483103 0 0 0 4:1 23:1 39:1 59:1 71:1 92:1 109:1 179:1 239:1 310:1 382:1 518:1 10030:1 20241:1 29263:1 38668:1 48205:1 48207:1 48209:1 48264:1 54509:1 60862:1 67320:1 73406:1 
0 0 0 0 0 0 0 0.1382230524271191 0 0 0 0 0 0 0 0 0 0 4:1 23:1 39:1 59:1 71:1 93:1 109:1 195:1 238:1 310:1 382:1 766:1 10004:1 20255:1 29162:1 39354:1 48205:1 48207:1 48209:1 48311:1 54509:1 61314:1 67627:1 73406:1 
0 0 0 0 0 0 0 0 0.1358695729095716 0 0 0 0 0 0 0 0 0 4:1 23:1 39:1 59:1 71:1 85:1 109:1 166:1 238:1 310:1 382:1 603:1 10004:1 20255:1 29263:1 38654:1 48205:1 48207:1 48209:1 48264:1 54509:1 60808:1 67627:1 73406:1 
0 0 0.5 0 0 0 0 0 0 0 0 0 0 0 0 0 0 0 4:1 23:1 38:1 56:1 71:1 88:1 109:1 167:1 238:1 310:1 382:1 463:1 10004:1 20351:1 29416:1 38893:1 48205:1 48207:1 48209:1 48214:1 54509:1 60909:1 67694:1 73406:1 
0 0 0.1698343663480806 0 0 0 0 0 0 0 0 0 0 0 0 0 0 0 4:1 23:1 41:1 57:1 72:1 88:1 109:1 167:1 238:1 310:1 382:1 463:1 10004:1 20626:1 29188:1 39215:1 48205:1 48207:1 48209:1 48214:1 54509:1 60909:1 67887:1 73406:1 
0 0 0 0 0 0.1537528565904679 0 0 0 0 0 0 0 0 0 0 0 0 4:1 23:1 39:1 54:1 72:1 87:1 109:1 166:1 238:1 310:1 382:1 527:1 10004:1 20332:1 29155:1 38654:1 48205:1 48207:1 48209:1 48273:1 54509:1 60808:1 67682:1 73406:1 
0 0 0.1134200528893014 0 0 0 0 0.1225637955900832 0 0 0 0 0 0 0 0 0 0 4:1 23:1 36:1 52:1 70:1 92:1 109:1 179:1 238:1 310:1 382:1 527:1 10004:1 20823:1 29115:1 38796:1 48205:1 48207:1 48209:1 48273:1 54509:1 60825:1 68015:1 73406:1 
0 0 0 0 0.2325162882736629 0 0 0 0 0 0 0 0 0 0 0 0 0 4:1 23:1 39:1 54:1 72:1 91:1 106:1 167:1 238:1 310:1 382:1 970:1 10004:1 21001:1 29158:1 40100:1 48205:1 48207:1 48209:1 48227:1 54509:1 60808:1 68124:1 73406:1 
0.1775272037102901 0.08375081284610117 0 0.09969051385511751 0 0 0 0 0 0 0 0 0 0.1068047685702452 0 0.08716259706448505 0 0 4:1 23:1 38:1 54:1 72:1 91:1 106:1 174:1 238:1 310:1 382:1 533:1 10004:1 20558:1 29564:1 40125:1 48205:1 48207:1 48209:1 48240:1 54509:1 60847:1 67842:1 73406:1 
0 0 0 0 0 0.1194978005008321 0 0 0 0 0.111904040131976 0.1357107350232299 0 0 0 0 0 0 4:1 23:1 41:1 56:1 71:1 85:1 109:1 166:1 238:1 310:1 382:1 668:1 10004:1 20701:1 29188:1 38654:1 48205:1 48207:1 48209:1 48240:1 54509:1 60808:1 67881:1 73406:1 
0 0 0 0 0.1801096268567636 0 0 0 0 0 0 0 0 0 0 0 0 0 4:1 23:1 38:1 61:1 73:1 88:1 109:1 167:1 238:1 310:1 382:1 463:1 10004:1 20774:1 29259:1 39913:1 48205:1 48207:1 48209:1 48214:1 54509:1 60816:1 67671:1 73406:1 
0 0 0 0 0 0 0 0 0 0 0.1733828407722823 0 0 0 0.1733140563295522 0 0 0 4:1 23:1 38:1 54:1 70:1 87:1 106:1 166:1 238:1 310:1 382:1 1219:1 10004:1 22073:1 29108:1 38654:1 48205:1 48207:1 48209:1 48311:1 54509:1 60808:1 68794:1 73406:1 
0 0 0 0.1055386183996905 0 0 0 0 0 0 0 0 0 0.1004919138172398 0 0 0 0 4:1 23:1 38:1 56:1 71:1 92:1 109:1 179:1 238:1 310:1 382:1 766:1 10004:1 22483:1 31171:1 38668:1 48205:1 48207:1 48209:1 48311:1 54509:1 60909:1 68248:1 73406:1 
0 0.1569905277108608 0.1092692062496617 0.1479479861619148 0.2330474128160069 0.2230184227478748 0 0 0 0 0 0 0.1263308969378844 0 0.1594473595490675 0 0 0 4:1 23:1 39:1 54:1 72:1 85:1 109:1 166:1 238:1 335:1 382:1 3663:1 10004:1 22798:1 29155:1 38654:1 48205:1 48207:1 48209:1 49994:1 54513:1 60808:1 69251:1 73406:1 
0 0 0 0.1416901698658939 0 0 0 0 0 0 0 0 0 0 0 0 0 0 4:1 23:1 40:1 60:1 73:1 91:1 109:1 172:1 238:1 310:1 382:1 463:1 10004:1 20186:1 31619:1 41845:1 48205:1 48207:1 48209:1 48214:1 54509:1 60808:1 67296:1 73406:1 
0 0 0 0 0.2068183124674249 0 0 0 0 0 0 0 0 0 0 0 0 0 4:1 23:1 39:1 54:1 75:1 89:1 109:1 191:1 238:1 310:1 382:1 688:1 10004:1 22798:1 29215:1 40961:1 48205:1 48207:1 48209:1 48214:1 54509:1 61054:1 69251:1 73406:1 
0 0 0 0 0.2016319447285076 0 0 0 0 0 0 0 0 0 0 0 0 0 4:1 23:1 40:1 55:1 73:1 91:1 109:1 174:1 238:1 310:1 382:1 766:1 10004:1 22980:1 32342:1 40059:1 48205:1 48207:1 48209:1 48311:1 54509:1 60808:1 69120:1 73406:1 
0.1636661303093792 0 0 0 0.1875459164054047 0 0 0 0 0 0 0 0 0 0 0 0 0 4:1 23:1 37:1 53:1 71:1 91:1 109:1 185:1 238:1 310:1 382:1 463:1 10004:1 19790:1 30097:1 39351:1 48205:1 48207:1 48209:1 48214:1 54509:1 60849:1 67296:1 73406:1 
0 0.2495757174112741 0 0.1771355349007809 0 0.2003716611729608 0 0 0 0 0 0 0 0 0 0 0 0 4:1 23:1 39:1 54:1 76:1 87:1 106:1 166:1 238:1 310:1 382:1 970:1 10004:1 19790:1 29215:1 38654:1 48205:1 48207:1 48209:1 48227:1 54509:1 60808:1 67296:1 73406:1 
0 0 0.3357604875593123 0 0 0 0 0 0 0 0 0 0 0 0 0 0 0 4:1 23:1 39:1 54:1 72:1 88:1 109:1 167:1 238:1 310:1 382:1 463:1 10004:1 20255:1 29155:1 38893:1 48205:1 48207:1 48209:1 48214:1 54509:1 60816:1 67627:1 73406:1 
0 0 0 0 0 0 0.1339615963124322 0 0 0 0 0 0 0 0 0 0 0 4:1 23:1 39:1 54:1 72:1 91:1 109:1 185:1 238:1 310:1 383:1 463:1 10004:1 22792:1 29155:1 42602:1 48205:1 48207:1 48209:1 48214:1 54509:1 60808:1 68517:1 73452:1 
0 0 0.1177793490935053 0 0 0 0 0 0 0 0 0 0 0 0 0 0 0 4:1 23:1 39:1 54:1 76:1 91:1 109:1 167:1 238:1 310:1 382:1 518:1 10004:1 24075:1 29215:1 41535:1 48205:1 48207:1 48209:1 48264:1 54509:1 60909:1 70086:1 73406:1 
0 0 0 0 0 0 0 0 0 0 0 0 0.09463263177884478 0 0 0 0 0 4:1 23:1 38:1 56:1 71:1 89:1 109:1 191:1 238:1 310:1 382:1 463:1 10004:1 22668:1 30431:1 38848:1 48205:1 48207:1 48209:1 48214:1 54509:1 60808:1 67281:1 73406:1 
0 0 0.1398460606422435 0 0 0 0 0 0 0 0 0 0 0 0 0 0 0 4:1 23:1 37:1 59:1 70:1 92:1 109:1 179:1 238:1 310:1 382:1 766:1 10004:1 24260:1 29414:1 38668:1 48205:1 48207:1 48209:1 48311:1 54509:1 60909:1 69655:1 73406:1 
0 0 0.2090147014414931 0 0 0 0 0 0 0 0 0 0 0 0 0 0 0 4:1 23:1 36:1 51:1 68:1 88:1 109:1 167:1 239:1 310:1 382:1 739:1 10004:1 25482:1 29106:1 39350:1 48205:1 48207:1 48209:1 48240:1 54509:1 60909:1 71003:1 73406:1 
0 0 0 0 0 0 0 0 0.111346054784415 0 0 0 0 0 0 0 0 0 4:1 23:1 39:1 54:1 77:1 85:1 109:1 166:1 238:1 310:1 382:1 6477:1 10004:1 25578:1 29155:1 38654:1 48205:1 48207:1 48209:1 48273:1 54509:1 60808:1 71067:1 73406:1 
0 0 0 0 0.153769376845346 0 0 0 0 0 0 0 0 0 0 0 0 0 4:1 23:1 39:1 54:1 76:1 91:1 106:1 167:1 238:1 310:1 382:1 560:1 10004:1 25691:1 29491:1 40072:1 48205:1 48207:1 48209:1 48227:1 54509:1 60847:1 71135:1 73406:1 
0 0 0 0 0.08198696352008884 0 0 0 0 0 0 0 0 0 0 0 0 0 4:1 23:1 39:1 54:1 76:1 88:1 109:1 200:1 238:1 310:1 382:1 739:1 10004:1 20490:1 29135:1 41556:1 48205:1 48207:1 48209:1 48240:1 54509:1 60838:1 67790:1 73406:1 
0.09289225739377152 0.09971792161413102 0 0 0 0 0 0.1002731572178555 0 0 0 0 0 0 0 0 0 0 4:1 23:1 40:1 55:1 73:1 94:1 109:1 176:1 239:1 310:1 382:1 739:1 10004:1 20186:1 35330:1 43687:1 48205:1 48207:1 48209:1 48240:1 54509:1 61198:1 67296:1 73406:1 
0 0 0 0 0 0 0 0 0 0 0 0 0 0 0.1645770508754046 0 0 0 4:1 23:1 42:1 54:1 76:1 92:1 109:1 179:1 239:1 310:1 382:1 463:1 10004:1 25787:1 33560:1 38668:1 48205:1 48207:1 48209:1 48214:1 54509:1 60812:1 71198:1 73406:1 
0 0 0.108188310341262 0 0 0 0 0 0 0 0 0 0 0 0 0 0 0 4:1 23:1 39:1 59:1 71:1 88:1 109:1 167:1 238:1 310:1 382:1 463:1 10004:1 20078:1 29155:1 42405:1 48205:1 48207:1 48209:1 48214:1 54509:1 60808:1 67504:1 73406:1 
0 0 0 0 0 0 0 0 0 0 0 0 0 0 0 0.1873506586671526 0 0 4:1 23:1 38:1 54:1 76:1 91:1 109:1 185:1 238:1 310:1 382:1 463:1 10004:1 22812:1 29123:1 44011:1 48205:1 48207:1 48209:1 48214:1 54509:1 60924:1 69258:1 73406:1 
0 0 0 0 0 0 0 0 0 0 0 0 0 0 0 0 0 0.1543950699037434 4:1 23:1 41:1 59:1 70:1 91:1 109:1 174:1 238:1 310:1 382:1 766:1 10004:1 25952:1 29188:1 38875:1 48205:1 48207:1 48209:1 48311:1 54509:1 60808:1 71295:1 73406:1 
0 0 0.1217990436495354 0 0 0 0 0 0 0 0 0 0 0 0 0 0 0 4:1 23:1 39:1 59:1 71:1 91:1 109:1 185:1 238:1 310:1 382:1 463:1 10004:1 26095:1 29162:1 44011:1 48205:1 48207:1 48209:1 48214:1 54509:1 60821:1 71387:1 73406:1 
0 0 0 0 0 0.1104379985487842 0 0 0 0 0 0 0 0 0 0 0 0 4:1 23:1 40:1 60:1 74:1 92:1 109:1 166:1 238:1 310:1 382:1 518:1 10004:1 26160:1 35711:1 38654:1 48205:1 48207:1 48209:1 48264:1 54509:1 60808:1 67567:1 73406:1 
0 0 0 0 0 0.1482363770533298 0 0 0 0 0 0 0 0 0 0 0 0 4:1 23:1 43:1 56:1 76:1 91:1 109:1 185:1 238:1 310:1 383:1 463:1 10004:1 26276:1 29193:1 45375:1 48205:1 48207:1 48209:1 48214:1 54509:1 65194:1 67185:1 73452:1 
0 0 0 0 0.1272058941814528 0 0 0 0 0 0 0 0 0 0 0 0 0 4:1 23:1 38:1 54:1 73:1 89:1 109:1 191:1 238:1 310:1 382:1 766:1 10004:1 22650:1 29123:1 39888:1 48205:1 48207:1 48209:1 48311:1 54509:1 60808:1 69167:1 73406:1 
0 0 0.2235054451795355 0 0 0 0 0 0 0 0 0 0 0 0 0 0 0 4:1 23:1 39:1 54:1 70:1 88:1 109:1 167:1 238:1 310:1 382:1 463:1 10004:1 19932:1 29132:1 42962:1 48205:1 48207:1 48209:1 48214:1 54509:1 60816:1 67262:1 73406:1 
0 0 0 0 0.128977529002732 0 0 0 0 0 0 0 0 0 0 0 0 0 4:1 23:1 39:1 60:1 76:1 92:1 109:1 179:1 239:1 310:1 382:1 518:1 10004:1 25820:1 29132:1 38796:1 48205:1 48207:1 48209:1 48264:1 54509:1 60862:1 71218:1 73406:1 
0 0 0 0 0.1129537087125898 0 0 0 0 0 0 0 0 0 0 0 0 0 4:1 23:1 39:1 54:1 72:1 91:1 109:1 167:1 238:1 310:1 383:1 527:1 10004:1 26760:1 29132:1 38711:1 48205:1 48207:1 48209:1 48273:1 54509:1 62684:1 70415:1 78143:1 
0 0 0 0 0 0.09353146271689687 0 0 0 0 0 0 0 0 0 0 0.1362739340971966 0 4:1 23:1 36:1 55:1 71:1 88:1 109:1 180:1 238:1 310:1 431:1 463:1 10004:1 26843:1 32989:1 45942:1 48205:1 48207:1 48209:1 48214:1 54509:1 60825:1 71901:1 75938:1 
0 0 0 0 0 0 0 0 0 0 0 0 0 0.141895976728426 0 0 0 0 4:1 23:1 37:1 55:1 71:1 88:1 106:1 167:1 238:1 310:1 382:1 970:1 10004:1 21256:1 31504:1 45967:1 48205:1 48207:1 48209:1 48227:1 54509:1 60856:1 67167:1 73406:1 
0 0 0 0 0 0 0 0 0 0 0.09306381378022346 0 0 0 0 0 0 0 4:1 23:1 39:1 59:1 71:1 93:1 109:1 195:1 238:1 310:1 382:1 463:1 10004:1 24477:1 29215:1 45972:1 48205:1 48207:1 48209:1 48214:1 54509:1 63446:1 70350:1 73406:1 
0 0 0 0 0 0 0 0 0 0.1516665672081191 0 0 0 0 0 0 0 0 4:1 23:1 39:1 54:1 71:1 87:1 106:1 166:1 238:1 310:1 382:1 970:1 10004:1 21449:1 29158:1 38654:1 48205:1 48207:1 48209:1 48227:1 54509:1 60808:1 68405:1 73406:1 
0 0 0 0 0 0 0 0 0 0 0 0 0.1154516771711013 0 0 0 0 0 4:1 23:1 38:1 56:1 71:1 91:1 109:1 167:1 238:1 310:1 401:1 766:1 10004:1 26276:1 29134:1 40009:1 48205:1 48207:1 48209:1 48311:1 54509:1 62340:1 67185:1 73478:1 
0 0 0.08038614482950604 0 0 0 0 0 0 0 0 0 0 0 0 0 0 0 4:1 23:1 39:1 54:1 72:1 91:1 109:1 185:1 238:1 310:1 382:1 463:1 10004:1 25691:1 29162:1 46048:1 48205:1 48207:1 48209:1 48214:1 54509:1 60831:1 71135:1 73406:1 
0 0 0 0 0 0 0 0 0 0 0 0 0 0 0 0 0 0.2086419971118972 4:1 23:1 41:1 56:1 71:1 91:1 109:1 167:1 238:1 310:1 382:1 766:1 10004:1 26276:1 29151:1 40032:1 48205:1 48207:1 48209:1 48311:1 54509:1 63537:1 67185:1 73406:1 
0 0 0 0 0.08858024486824341 0 0 0 0 0 0 0 0 0 0 0 0 0 4:1 23:1 36:1 55:1 74:1 93:1 109:1 195:1 238:1 310:1 382:1 463:1 10004:1 27196:1 29130:1 40974:1 48205:1 48207:1 48209:1 48214:1 54509:1 60856:1 69772:1 73406:1 
0 0.09728481912387839 0 0 0 0 0 0 0 0 0 0 0 0 0 0 0 0 4:1 23:1 38:1 56:1 71:1 95:1 109:1 167:1 238:1 310:1 401:1 766:1 10004:1 26276:1 29134:1 43202:1 48205:1 48207:1 48209:1 48311:1 54509:1 60808:1 67185:1 73478:1 
0 0 0.1832211555201911 0 0 0 0 0 0 0 0 0 0 0 0 0 0 0 4:1 23:1 40:1 59:1 76:1 88:1 109:1 167:1 238:1 310:1 382:1 463:1 10004:1 19920:1 35826:1 40482:1 48205:1 48207:1 48209:1 48214:1 54509:1 60838:1 67146:1 73406:1 
0 0 0 0 0 0 0 0 0 0 0 0 0 0 0 0.1141062330422781 0 0 4:1 23:1 43:1 60:1 74:1 88:1 109:1 167:1 238:1 310:1 382:1 766:1 10004:1 27320:1 29168:1 45551:1 48205:1 48207:1 48209:1 48311:1 54509:1 60808:1 71646:1 73406:1 
0 0 0 0 0 0.1656322953369286 0 0 0 0.103784738225914 0 0 0 0 0 0 0 0 4:1 23:1 39:1 54:1 74:1 85:1 109:1 166:1 238:1 310:1 382:1 766:1 10004:1 27635:1 29135:1 38654:1 48205:1 48207:1 48209:1 48311:1 54509:1 60808:1 70152:1 73406:1 
0 0 0 0 0 0 0 0 0 0 0 0 0 0 0.1491073981527238 0.1588582048402836 0 0 4:1 23:1 39:1 54:1 72:1 87:1 106:1 166:1 238:1 310:1 382:1 970:1 10004:1 27745:1 29491:1 38654:1 48205:1 48207:1 48209:1 48227:1 54509:1 60808:1 67836:1 73406:1 
0 0.1251461845333829 0 0 0 0.1806084992619842 0 0 0 0 0 0 0.2189346287189505 0 0 0 0.1160030593921402 0 4:1 23:1 38:1 59:1 71:1 95:1 106:1 166:1 238:1 310:1 382:1 595:1 10004:1 27774:1 29108:1 38654:1 48205:1 48207:1 48209:1 48311:1 54509:1 60808:1 72428:1 73406:1 
0 0 0 0 0.1521041836319646 0 0 0 0 0 0 0 0 0 0 0 0 0 4:1 23:1 38:1 59:1 74:1 91:1 109:1 167:1 238:1 310:1 382:1 518:1 10004:1 26276:1 29123:1 39716:1 48205:1 48207:1 48209:1 48264:1 54509:1 63859:1 67185:1 73406:1 
0.1148773604723389 0 0 0 0 0 0 0 0 0 0 0 0 0 0 0 0 0 4:1 23:1 39:1 54:1 72:1 93:1 109:1 232:1 238:1 310:1 382:1 766:1 10004:1 23879:1 29155:1 47135:1 48205:1 48207:1 48209:1 48311:1 54509:1 60924:1 67210:1 73406:1 
0 0 0 0 0 0 0 0 0 0 0 0 0 0.1652733249092643 0 0 0 0 4:1 23:1 43:1 57:1 74:1 89:1 109:1 191:1 238:1 310:1 382:1 463:1 10004:1 22816:1 33133:1 40961:1 48205:1 48207:1 48209:1 48214:1 54509:1 60808:1 67531:1 73406:1 
0 0 0 0 0.1054246310532858 0 0 0 0 0 0 0 0 0 0 0 0 0 4:1 23:1 42:1 54:1 70:1 91:1 106:1 167:1 238:1 310:1 382:1 595:1 10004:1 28142:1 30090:1 47521:1 48205:1 48207:1 48209:1 48311:1 54509:1 60808:1 67185:1 73406:1 
0 0.1713228455018784 0 0 0 0 0 0 0 0 0 0 0 0 0 0 0 0 4:1 23:1 39:1 54:1 72:1 89:1 109:1 191:1 238:1 310:1 382:1 463:1 10004:1 19790:1 29132:1 40961:1 48205:1 48207:1 48209:1 48214:1 54509:1 61690:1 67296:1 73406:1 
0 0 0 0 0 0 0 0 0 0 0 0.1013841625045343 0 0 0 0 0 0 4:1 23:1 39:1 59:1 70:1 91:1 109:1 185:1 238:1 310:1 383:1 463:1 10004:1 28496:1 29158:1 47595:1 48205:1 48207:1 48209:1 48214:1 54509:1 60924:1 67611:1 73452:1 
0 0 0.1130285017607157 0 0 0 0 0 0 0 0 0 0 0 0 0 0 0 4:1 23:1 42:1 56:1 71:1 88:1 109:1 167:1 238:1 310:1 382:1 463:1 10004:1 20715:1 38213:1 38893:1 48205:1 48207:1 48209:1 48214:1 54509:1 60816:1 67427:1 73406:1 
0 0 0 0 0 0 0 0 0 0 0 0 0 0 0.07994943228160853 0 0 0 4:1 23:1 37:1 55:1 71:1 91:1 106:1 174:1 238:1 310:1 382:1 533:1 10004:1 21256:1 37555:1 47952:1 48205:1 48207:1 48209:1 48240:1 54509:1 60808:1 67167:1 73406:1 
0 0 0 0 0.1420248292323964 0 0 0 0 0 0 0 0 0 0 0 0 0 4:1 23:1 39:1 54:1 72:1 91:1 106:1 201:1 238:1 310:1 382:1 972:1 10004:1 28893:1 29158:1 43351:1 48205:1 48207:1 48209:1 48227:1 54509:1 60808:1 73273:1 73406:1 
0.1014995906621442 0 0 0 0 0 0 0.1659392687499582 0 0 0 0 0 0 0 0 0 0 4:1 23:1 39:1 54:1 72:1 91:1 106:1 201:1 238:1 310:1 382:1 970:1 10004:1 19721:1 29158:1 43351:1 48205:1 48207:1 48209:1 48227:1 54509:1 60808:1 67241:1 73406:1 
0 0 0 0 0 0 0 0.1009919175297051 0 0 0 0 0 0 0 0 0 0 4:1 23:1 38:1 59:1 71:1 95:1 109:1 180:1 238:1 310:1 382:1 463:1 10004:1 28280:1 29123:1 39640:1 48205:1 48207:1 48209:1 48214:1 54509:1 60856:1 67766:1 73406:1 
0 0 0 0 0.2904930243572112 0 0 0 0 0 0 0 0 0 0 0 0 0 4:1 23:1 39:1 54:1 72:1 89:1 109:1 191:1 238:1 310:1 382:1 463:1 10004:1 25242:1 29155:1 40961:1 48205:1 48207:1 48209:1 48214:1 54509:1 60808:1 70857:1 73406:1 
0.1736111042124256 0.2178649165046736 0.07820095635046456 0.06397561645426164 0.2403846242018708 0.1074269179558895 0.1481481481481481 0.07333794699457018 0.04393344694149118 0.05988139208346518 0.05176209017740312 0.05389533922137181 0.06903349853053438 0.06317421649213935 0.1636661303093792 0.09836614807535916 0.05760804482028549 0.04560493009625663 4:1 23:1 36:1 51:1 68:1 91:1 109:1 167:1 238:1 310:1 382:1 518:1 10004:1 29094:1 29185:1 38711:1 48205:1 48207:1 48209:1 48264:1 54509:1 60808:1 73401:1 73406:1 
-0 0 0 0 0 0 0 0 0 0 0 0 0 0 0.1081592492200971 0 0 0 7:1 23:1 36:1 52:1 70:1 91:1 112:1 178:1 238:1 310:1 382:1 468:1 10004:1 19569:1 29115:1 38664:1 48205:1 48207:1 48209:1 48223:1 54509:1 60812:1 67121:1 73406:1 
-0.1775272037102901 0 0 0 0.2257132066831055 0 0 0 0 0 0 0 0 0.08694934120576388 0 0.1619609202756081 0 0 7:1 23:1 38:1 54:1 72:1 91:1 112:1 178:1 238:1 310:1 382:1 468:1 10004:1 19569:1 29163:1 38664:1 48205:1 48207:1 48209:1 48223:1 54509:1 60847:1 67121:1 73406:1 
-0 0.1432968768483748 0.15134033320261 0.1280683891870099 0.4444133102600442 0.1210793353441874 0 0.1390677946097839 0 0.08248105914142971 0 0 0.1165539831224281 0.1442011652167919 0.1257478655215447 0.1215816467406118 0.07750076820354809 0 7:1 23:1 38:1 54:1 76:1 89:1 112:1 178:1 238:1 323:1 382:1 596:1 10004:1 20012:1 29251:1 39022:1 48205:1 48207:1 48209:1 48326:1 54582:1 61158:1 67460:1 73406:1 
-0 0 0 0 0.07778170452494511 0 0.1275720195756559 0.09381216963078728 0.08566899198914017 0 0.1939804660911655 0.1680689999194779 0 0 0.08399981690468064 0 0 0 2:1 23:1 39:1 54:1 75:1 91:1 116:1 178:1 238:1 310:1 382:1 480:1 10004:1 20630:1 29155:1 39728:1 48205:1 48207:1 48209:1 48233:1 54509:1 60847:1 67889:1 73406:1 
-0.1014995906621442 0 0 0 0 0 0 0 0 0 0 0 0 0 0 0 0 0 7:1 23:1 39:1 54:1 72:1 91:1 112:1 178:1 238:1 310:1 382:1 618:1 10004:1 20632:1 29158:1 39730:1 48205:1 48207:1 48209:1 48341:1 54509:1 60831:1 67891:1 73406:1 
-0 0 0 0.08813824789304546 0 0 0 0 0 0 0 0 0 0 0 0 0 0 7:1 23:1 37:1 53:1 72:1 91:1 112:1 178:1 238:1 310:1 382:1 1414:1 10004:1 21071:1 30622:1 40050:1 48205:1 48207:1 48209:1 48910:1 54509:1 61086:1 68171:1 73406:1 
-0 0 0.1279521564624901 0 0 0 0 0 0 0 0 0 0 0 0 0 0 0 7:1 23:1 39:1 54:1 78:1 91:1 112:1 178:1 238:1 310:1 382:1 477:1 10004:1 20567:1 29215:1 39801:1 48205:1 48207:1 48209:1 48223:1 54509:1 61054:1 67849:1 73406:1 
-0 0 0 0 0 0 0 0 0 0 0 0 0 0 0 0.1916731341394971 0 0 7:1 23:1 38:1 54:1 73:1 91:1 112:1 178:1 238:1 310:1 382:1 468:1 10004:1 19604:1 29123:1 40652:1 48205:1 48207:1 48209:1 48223:1 54509:1 61086:1 67151:1 73406:1 
-0 0.1232786165194788 0 0 0 0 0 0 0 0 0 0 0 0 0 0 0 0 7:1 23:1 38:1 55:1 72:1 91:1 112:1 178:1 238:1 310:1 382:1 468:1 10004:1 22019:1 29245:1 38890:1 48205:1 48207:1 48209:1 48223:1 54509:1 60812:1 68094:1 73406:1 
-0 0 0 0 0 0 0 0 0 0 0 0 0 0 0 0.1157136476766398 0 0 7:1 23:1 37:1 55:1 72:1 91:1 112:1 178:1 238:1 310:1 382:1 468:1 10004:1 22019:1 29309:1 38890:1 48205:1 48207:1 48209:1 48223:1 54509:1 60812:1 68094:1 73406:1 
-0 0.0908831652599176 0 0 0.1530406918814379 0 0 0 0 0 0 0 0 0 0 0.1761977608431931 0 0 2:1 23:1 39:1 54:1 72:1 91:1 116:1 178:1 238:1 310:1 382:1 480:1 10004:1 22287:1 29158:1 41383:1 48205:1 48207:1 48209:1 48233:1 54509:1 60862:1 67883:1 73406:1 
-0 0 0 0.1110188365151143 0 0 0 0 0 0 0 0 0 0 0 0 0 0 7:1 23:1 41:1 57:1 73:1 91:1 112:1 178:1 238:1 310:1 382:1 468:1 10004:1 22804:1 29118:1 38890:1 48205:1 48207:1 48209:1 48223:1 54509:1 60847:1 68447:1 73406:1 
-0 0 0 0 0.2108970763343511 0.1003289722299105 0 0 0 0 0 0 0 0 0 0 0 0 7:1 23:1 39:1 54:1 74:1 91:1 112:1 178:1 238:1 310:1 382:1 468:1 10004:1 22805:1 29215:1 41904:1 48205:1 48207:1 48209:1 48223:1 54509:1 60821:1 68705:1 73406:1 
-0.1636661303093792 0 0 0 0 0 0 0 0 0 0 0 0 0 0 0 0 0 7:1 23:1 36:1 55:1 72:1 91:1 112:1 178:1 238:1 310:1 382:1 596:1 10004:1 22624:1 29130:1 39923:1 48205:1 48207:1 48209:1 48326:1 54509:1 63534:1 67713:1 73406:1 
-0 0 0 0 0.2128111293682018 0 0 0 0 0.1157670440498647 0 0 0 0 0 0 0 0 2:1 23:1 39:1 54:1 76:1 91:1 116:1 178:1 238:1 310:1 382:1 480:1 10004:1 23860:1 29333:1 42958:1 48205:1 48207:1 48209:1 48233:1 54509:1 60862:1 69953:1 73406:1 
-0 0.1802158713375658 0 0 0 0 0 0 0 0 0 0 0 0 0 0 0 0 2:1 23:1 40:1 56:1 71:1 91:1 116:1 178:1 238:1 310:1 382:1 480:1 10004:1 22980:1 33707:1 43255:1 48205:1 48207:1 48209:1 48233:1 54509:1 63656:1 69120:1 73406:1 
-0 0 0.150627004591565 0 0 0 0 0 0 0 0 0 0 0 0 0 0 0 7:1 23:1 38:1 57:1 73:1 91:1 112:1 178:1 238:1 310:1 382:1 468:1 10004:1 24158:1 29416:1 42080:1 48205:1 48207:1 48209:1 48223:1 54509:1 60831:1 68446:1 73406:1 
-0.1148773604723389 0 0 0.1735724498035787 0.2358601993853341 0.1398518491674353 0 0 0 0 0 0 0.1455026453067645 0 0 0 0 0 2:1 23:1 40:1 56:1 71:1 91:1 116:1 178:1 238:1 310:1 382:1 480:1 10004:1 20186:1 33707:1 43646:1 48205:1 48207:1 48209:1 48233:1 54509:1 60808:1 67296:1 73406:1 
-0 0 0 0 0.12528693567702 0 0 0 0 0 0 0 0 0 0 0 0 0 7:1 23:1 43:1 60:1 77:1 91:1 112:1 178:1 238:1 310:1 382:1 468:1 10004:1 26921:1 31366:1 46016:1 48205:1 48207:1 48209:1 48223:1 54509:1 61086:1 69499:1 73406:1 
-0 0 0 0 0 0 0 0 0 0 0 0 0 0 0 0 0 0.1057777793319137 7:1 23:1 41:1 57:1 70:1 91:1 112:1 178:1 238:1 310:1 382:1 468:1 10004:1 26276:1 29152:1 46134:1 48205:1 48207:1 48209:1 48223:1 54509:1 60862:1 67185:1 73406:1 
-0.09289225739377152 0.1249335225284384 0 0 0 0 0 0 0 0 0 0 0 0 0 0 0 0 7:1 23:1 39:1 54:1 70:1 91:1 112:1 178:1 238:1 310:1 382:1 618:1 10004:1 26276:1 29215:1 46309:1 48205:1 48207:1 48209:1 48341:1 54509:1 63687:1 67185:1 73406:1 
-0 0 0 0 0 0 0 0.1263794206103603 0 0 0 0 0 0 0 0 0 0 7:1 23:1 39:1 54:1 72:1 91:1 112:1 178:1 238:1 310:1 382:1 468:1 10004:1 25319:1 29135:1 46482:1 48205:1 48207:1 48209:1 48223:1 54509:1 63784:1 70908:1 73406:1 
-0 0 0 0 0.08527365690267362 0 0 0 0 0 0.09439716411702202 0.1053540588700131 0 0 0 0 0 0 7:1 23:1 38:1 54:1 70:1 91:1 112:1 178:1 238:1 310:1 383:1 468:1 10004:1 24158:1 29416:1 46590:1 48205:1 48207:1 48209:1 48223:1 54509:1 60886:1 68446:1 76043:1 
-0.1736111042124256 0 0.1563920725582423 0 0.1818391148877348 0.07285347070092589 0 0.1485748584918123 0 0 0 0 0 0 0 0 0 0.08973015984122737 2:1 23:1 37:1 53:1 68:1 91:1 116:1 178:1 238:1 310:1 382:1 480:1 10004:1 19619:1 37358:1 46907:1 48205:1 48207:1 48209:1 48233:1 54509:1 60812:1 67162:1 73406:1 
-0 0 0 0 0.102176652322111 0 0 0 0 0 0.1097850641224971 0 0 0 0 0 0 0 2:1 23:1 38:1 53:1 71:1 91:1 116:1 178:1 238:1 310:1 382:1 480:1 10004:1 23289:1 29416:1 47199:1 48205:1 48207:1 48209:1 48233:1 54509:1 60831:1 69511:1 73406:1 
-0 0 0 0 0.1462147036655971 0 0 0 0 0 0 0 0 0.1514214791944435 0.150138896320832 0 0.1401828727903097 0 2:1 23:1 37:1 55:1 71:1 91:1 116:1 178:1 238:1 310:1 382:1 480:1 10004:1 22435:1 29375:1 42389:1 48205:1 48207:1 48209:1 48233:1 54509:1 60831:1 68505:1 73406:1 
-0 0.1552795017259062 0.1636661303093792 0.1481481481481481 0.08588442578443405 0.2 0.1481481481481481 0.1552795017259062 0.1420454553151426 0.05956439617371291 0.03836308402565108 0.05831207143936604 0.1552795017259062 0.06119880694238426 0.1636661303093792 0.05789745653578585 0.07777873352235806 0.05841798830692077 7:1 23:1 36:1 56:1 71:1 91:1 112:1 178:1 238:1 310:1 383:1 618:1 10004:1 29013:1 29130:1 39726:1 48205:1 48207:1 48209:1 48341:1 54509:1 60862:1 69495:1 74449:1 
-0 -0 0 0 0 0 0 0.132824335559749 0 0 0 0 0 0 0 0 0 0 6:1 23:1 39:1 59:1 71:1 92:1 108:1 186:1 244:1 310:1 382:1 769:1 10004:1 19870:1 29162:1 38738:1 48205:1 48207:1 48209:1 48456:1 54509:1 60837:1 67356:1 73406:1 
-0 -0 0 0 0.1077331914253955 0 0 0 0 0 0 0 0 0 0 0 0 0 6:1 23:1 39:1 54:1 76:1 95:1 108:1 181:1 238:1 310:1 382:1 1025:1 10004:1 20126:1 29155:1 39201:1 48205:1 48207:1 48209:1 48488:1 54509:1 60909:1 67540:1 73406:1 
-0 -0 0 0 0 0 0 0 0 0 0 0 0 0 0 0 0.1653333275406449 0 6:1 23:1 37:1 55:1 71:1 85:1 108:1 166:1 238:1 310:1 382:1 1056:1 10004:1 19769:1 29707:1 38654:1 48205:1 48207:1 48209:1 48249:1 54509:1 60808:1 67279:1 73406:1 
-0 -0 0 0 0 0 0 0 0 0 0.09489462467590055 0 0 0 0 0.07918115739092747 0 0 6:1 23:1 39:1 54:1 76:1 89:1 110:1 169:1 238:1 310:1 382:1 1086:1 10004:1 20187:1 29215:1 38803:1 48205:1 48207:1 48209:1 48399:1 54509:1 60808:1 67316:1 73406:1 
-0 -0 0 0.1115263242957634 0 0 0 0 0 0 0 0 0 0 0 0 0 0 6:1 23:1 39:1 59:1 76:1 85:1 108:1 166:1 239:1 310:1 382:1 1600:1 10030:1 19932:1 29132:1 38654:1 48205:1 48207:1 48209:1 48456:1 54509:1 60808:1 67262:1 73406:1 
-0 -0 0 0.25728303784371 0 0.09795625419986433 0 0 0 0 0 0 0 0 0 0 0 0 6:1 23:1 39:1 54:1 78:1 85:1 108:1 166:1 238:1 311:1 382:1 1678:1 10004:1 20567:1 29215:1 38654:1 48205:1 48207:1 48209:1 48456:1 54579:1 60808:1 67849:1 73406:1 
-0 -0 0 0.1606185122180326 0 0 0 0 0 0 0 0 0 0 0 0 0 0 6:1 23:1 38:1 54:1 73:1 85:1 108:1 166:1 239:1 310:1 382:1 769:1 10030:1 21020:1 29168:1 38654:1 48205:1 48207:1 48209:1 48456:1 54509:1 60808:1 68136:1 73406:1 
-0 -0 0 0 0 0 0 0 0.1524941187934829 0 0 0 0 0 0 0 0 0 6:1 23:1 39:1 54:1 72:1 85:1 108:1 166:1 244:1 310:1 382:1 769:1 10030:1 20701:1 29155:1 38654:1 48205:1 48207:1 48209:1 48456:1 54509:1 60808:1 67881:1 73406:1 
-0 -0 0 0.09561704535396458 0 0 0 0 0 0 0 0 0 0 0.08850902388318602 0 0 0 6:1 23:1 39:1 54:1 78:1 92:1 108:1 179:1 238:1 316:1 382:1 499:1 10004:1 21194:1 29215:1 38668:1 48205:1 48207:1 48209:1 48249:1 54903:1 60847:1 68253:1 73406:1 
-0.08375081284610117 -0 0.09185752344381454 0 0.120792885066736 0.07667547241147438 0 0 0 0 0 0 0 0 0.09101599109583872 0 0 0 6:1 23:1 36:1 52:1 70:1 88:1 137:1 181:1 272:1 310:1 382:1 815:1 10496:1 20558:1 29143:1 39171:1 48205:1 48207:1 48209:1 48488:1 54509:1 60825:1 67842:1 73406:1 
-0 -0 0 0 0 0 0 0.06884669304461002 0 0 0 0 0 0 0 0 0 0 6:1 23:1 37:1 58:1 76:1 85:1 108:1 166:1 239:1 311:1 382:1 552:1 10066:1 20116:1 30832:1 38654:1 48205:1 48207:1 48209:1 48249:1 54941:1 60808:1 67533:1 73406:1 
-0 -0 0 0 0 0 0 0.1810279784681957 0 0 0 0 0 0 0 0 0 0 6:1 23:1 39:1 59:1 71:1 92:1 108:1 186:1 260:1 310:1 382:1 1025:1 10004:1 20823:1 29155:1 39075:1 48205:1 48207:1 48209:1 48488:1 54509:1 60808:1 68015:1 73406:1 
-0 -0 0.1106662067268464 0 0.1361508857385608 0 0 0 0 0 0 0 0 0 0 0 0 0 6:1 23:1 38:1 54:1 72:1 91:1 125:1 184:1 238:1 310:1 382:1 2234:1 10004:1 21335:1 29620:1 38699:1 48205:1 48207:1 48209:1 48399:1 54509:1 60821:1 68256:1 73406:1 
-0 -0 0 0 0 0.1204292340506553 0 0 0 0 0 0.09797664326339063 0 0 0 0 0 0 6:1 23:1 39:1 59:1 71:1 85:1 108:1 166:1 244:1 310:1 391:1 769:1 10004:1 20701:1 29215:1 38654:1 48205:1 48207:1 48209:1 48456:1 54509:1 60808:1 67881:1 73429:1 
-0 -0 0 0 0 0 0 0 0 0 0 0 0 0 0.143499424819352 0 0 0 6:1 23:1 39:1 54:1 72:1 85:1 108:1 166:1 239:1 310:1 382:1 769:1 10030:1 21449:1 29135:1 38654:1 48205:1 48207:1 48209:1 48456:1 54509:1 60808:1 68405:1 73406:1 
-0 -0 0 0 0 0 0 0 0 0 0 0 0 0 0.2263616505338499 0 0 0 6:1 23:1 38:1 54:1 72:1 92:1 108:1 186:1 239:1 310:1 382:1 2377:1 10066:1 20351:1 29224:1 40098:1 48205:1 48207:1 48209:1 48456:1 54509:1 60808:1 67694:1 73406:1 
-0.09971792161413102 -0.1232786165194788 0 0 0.1250438121458689 0.1513948895002482 0.1100543483290967 0 0 0 0.100378309933578 0.1606246720093701 0.1503145346229141 0 0.1680170867716386 0 0 0 6:1 23:1 38:1 59:1 71:1 87:1 149:1 166:1 238:1 310:1 401:1 2469:1 10004:1 21570:1 29177:1 38654:1 48205:1 48207:1 48209:1 48249:1 54509:1 60808:1 68471:1 73905:1 
-0 -0 0 0 0 0 0 0.0984056012132162 0 0 0 0 0 0 0 0.1026763210971908 0 0 6:1 23:1 41:1 61:1 74:1 89:1 110:1 169:1 238:1 310:1 382:1 2625:1 10004:1 21726:1 29151:1 38727:1 48205:1 48207:1 48209:1 48456:1 54509:1 62077:1 67795:1 73406:1 
-0 -0 0 0 0.1687665719085657 0 0 0 0 0 0 0 0 0 0 0 0 0 6:1 23:1 38:1 57:1 71:1 88:1 108:1 181:1 272:1 310:1 382:1 499:1 11721:1 21732:1 29113:1 38706:1 48205:1 48207:1 48209:1 48249:1 54509:1 60856:1 68580:1 73406:1 
-0 -0 0 0.1119615315765639 0 0 0 0.08707762024103854 0 0 0 0 0 0 0 0 0 0 6:1 23:1 39:1 59:1 76:1 92:1 108:1 179:1 239:1 316:1 382:1 2621:1 10004:1 20126:1 29155:1 38818:1 48205:1 48207:1 48209:1 48249:1 55101:1 60847:1 67540:1 73406:1 
-0 -0 0 0 0 0 0 0.1021547899751941 0 0 0 0 0 0 0 0 0 0 6:1 23:1 38:1 54:1 74:1 92:1 108:1 179:1 244:1 310:1 382:1 2002:1 10059:1 21920:1 29245:1 38668:1 48205:1 48207:1 48209:1 48249:1 54509:1 60856:1 68695:1 73406:1 
-0 -0 0 0 0 0 0 0 0 0 0 0 0 0 0 0 0 0.09976976045920273 6:1 23:1 41:1 61:1 78:1 85:1 108:1 166:1 239:1 310:1 382:1 499:1 10030:1 20332:1 29188:1 38654:1 48205:1 48207:1 48209:1 48249:1 54509:1 60808:1 67682:1 73406:1 
-0 -0 0 0 0.160678093490331 0 0 0 0 0 0 0 0 0 0 0 0 0 6:1 23:1 39:1 54:1 76:1 92:1 108:1 179:1 238:1 310:1 382:1 769:1 10004:1 20701:1 29155:1 38796:1 48205:1 48207:1 48209:1 48456:1 54509:1 60847:1 67881:1 73406:1 
-0 -0 0.1344006465993149 0 0 0 0 0 0 0 0 0 0 0 0 0 0 0 6:1 23:1 39:1 54:1 72:1 85:1 108:1 166:1 239:1 310:1 382:1 769:1 10523:1 19604:1 29155:1 38654:1 48205:1 48207:1 48209:1 48456:1 54509:1 60808:1 67151:1 73406:1 
-0 -0 0 0 0.1743682114184553 0 0 0 0 0 0 0 0 0 0 0 0 0 6:1 23:1 38:1 59:1 71:1 89:1 125:1 169:1 238:1 310:1 382:1 864:1 10004:1 21456:1 29168:1 38663:1 48205:1 48207:1 48209:1 48399:1 54509:1 60969:1 67233:1 73406:1 
-0 -0 0 0 0 0 0 0.184144498317962 0 0 0 0 0 0 0.1529757220107779 0 0.1029187924661255 0 6:1 23:1 38:1 59:1 71:1 89:1 125:1 169:1 238:1 310:1 382:1 2234:1 10004:1 20567:1 29416:1 38663:1 48205:1 48207:1 48209:1 48399:1 54509:1 60856:1 67849:1 73406:1 
-0 -0 0 0 0 0 0 0 0 0 0 0 0 0.1048787388429622 0.1901736405445814 0.09754897978159162 0 0 6:1 23:1 38:1 54:1 72:1 92:1 149:1 179:1 238:1 310:1 382:1 3567:1 10004:1 22668:1 29123:1 38818:1 48205:1 48207:1 48209:1 50223:1 54509:1 62622:1 67281:1 73406:1 
-0 -0 0 0.1682906317299425 0 0 0 0.09557664755112619 0 0 0 0 0 0 0 0 0 0 6:1 23:1 39:1 59:1 71:1 92:1 108:1 186:1 238:1 310:1 382:1 1132:1 10004:1 20116:1 29162:1 38701:1 48205:1 48207:1 48209:1 48715:1 54509:1 60808:1 67533:1 73406:1 
-0 -0 0 0 0 0 0 0 0.3144712548601558 0 0 0 0 0 0 0 0 0 6:1 23:1 39:1 59:1 71:1 85:1 108:1 166:1 244:1 310:1 382:1 769:1 10004:1 20116:1 29158:1 38654:1 48205:1 48207:1 48209:1 48456:1 54509:1 60808:1 67533:1 73406:1 
-0.1251461845333829 -0 0 0.09934475010678727 0 0 0 0 0 0 0 0 0 0 0 0 0 0 6:1 23:1 40:1 56:1 71:1 95:1 108:1 181:1 238:1 310:1 382:1 1967:1 10004:1 20186:1 32342:1 40135:1 48205:1 48207:1 48209:1 48488:1 54509:1 60808:1 67296:1 73406:1 
-0 -0 0 0 0 0 0 0.2009953414296356 0 0 0 0 0 0 0 0 0 0 6:1 23:1 39:1 54:1 72:1 91:1 110:1 184:1 238:1 310:1 382:1 1086:1 10004:1 22792:1 29215:1 40167:1 48205:1 48207:1 48209:1 48399:1 54509:1 61222:1 68517:1 73406:1 
-0 -0.0908831652599176 0 0 0 0 0 0 0 0 0 0 0 0 0 0.05708022517235338 0 0 6:1 23:1 36:1 51:1 68:1 88:1 108:1 181:1 272:1 310:1 382:1 1967:1 10066:1 21455:1 29237:1 38710:1 48205:1 48207:1 48209:1 48488:1 54509:1 60862:1 67609:1 73406:1 
-0 -0 0 0 0 0 0 0 0 0 0 0 0 0.1422213082884603 0 0 0 0 6:1 23:1 37:1 55:1 71:1 92:1 108:1 179:1 272:1 310:1 382:1 499:1 10004:1 22816:1 29561:1 38818:1 48205:1 48207:1 48209:1 48249:1 54509:1 60856:1 67531:1 73406:1 
-0 -0 0 0.09291257620637478 0 0 0 0 0 0 0 0 0 0 0 0 0 0 6:1 23:1 43:1 58:1 73:1 85:1 108:1 166:1 272:1 310:1 382:1 552:1 10066:1 20153:1 29262:1 38654:1 48205:1 48207:1 48209:1 48249:1 54509:1 60808:1 67447:1 73406:1 
-0 -0 0 0.1593132311613484 0 0.09256071592884035 0 0 0 0 0 0 0 0 0 0 0 0 6:1 23:1 38:1 56:1 76:1 89:1 110:1 169:1 238:1 310:1 382:1 3880:1 10004:1 22792:1 30729:1 38966:1 48205:1 48207:1 48209:1 50223:1 54509:1 60980:1 68517:1 73406:1 
-0 -0 0 0.1144153595012052 0 0 0 0 0 0 0 0 0 0 0 0 0 0 6:1 23:1 41:1 56:1 71:1 85:1 108:1 166:1 244:1 311:1 382:1 499:1 10004:1 19569:1 29188:1 38654:1 48205:1 48207:1 48209:1 48249:1 54554:1 60808:1 67121:1 73406:1 
-0.2495757174112741 -0 0 0 0 0 0 0 0 0 0 0 0 0 0 0 0 0 6:1 23:1 39:1 54:1 72:1 85:1 108:1 166:1 244:1 310:1 382:1 769:1 10004:1 19790:1 29215:1 38654:1 48205:1 48207:1 48209:1 48456:1 54509:1 60808:1 67296:1 73406:1 
-0 -0 0 0 0.08470791209885764 0 0 0 0 0 0 0 0 0 0 0 0 0 6:1 23:1 41:1 60:1 78:1 88:1 137:1 181:1 239:1 310:1 382:1 3980:1 10223:1 20241:1 29118:1 39904:1 48205:1 48207:1 48209:1 48249:1 54509:1 60838:1 67320:1 73406:1 
-0 -0 0 0 0 0.1666019605729102 0 0 0 0 0 0 0 0 0 0.1736044086003641 0 0 6:1 23:1 38:1 54:1 73:1 91:1 125:1 184:1 238:1 310:1 382:1 2302:1 10004:1 22646:1 29123:1 38699:1 48205:1 48207:1 48209:1 48399:1 54509:1 60808:1 67307:1 73406:1 
-0.1569905277108608 -0 0 0 0.1798755680103238 0.1683762413042486 0 0 0 0 0 0 0 0 0 0 0 0 6:1 23:1 39:1 54:1 72:1 85:1 108:1 166:1 238:1 311:1 382:1 1056:1 10004:1 20332:1 29155:1 38654:1 48205:1 48207:1 48209:1 48249:1 54554:1 60808:1 67682:1 73406:1 
-0 -0 0.1176939255602349 0 0 0 0 0 0 0 0 0 0 0 0 0 0 0 6:1 23:1 39:1 54:1 70:1 92:1 108:1 179:1 238:1 311:1 382:1 499:1 10004:1 23207:1 29162:1 38668:1 48205:1 48207:1 48209:1 48249:1 54554:1 61395:1 69107:1 73406:1 
-0 -0 0 0.1862633646489632 0 0 0 0 0 0 0 0 0 0 0 0 0 0 6:1 23:1 38:1 61:1 75:1 87:1 108:1 179:1 238:1 310:1 382:1 1025:1 10004:1 19932:1 29389:1 38680:1 48205:1 48207:1 48209:1 48488:1 54509:1 63333:1 67262:1 73406:1 
-0 -0 0 0 0 0 0 0 0 0 0 0 0 0 0.09674130352564182 0 0 0 6:1 23:1 40:1 53:1 68:1 85:1 137:1 166:1 244:1 311:1 382:1 2600:1 11359:1 22980:1 29340:1 38654:1 48205:1 48207:1 48209:1 48456:1 54563:1 60808:1 69120:1 73406:1 
-0.2178649165046736 -0 0.1143156514940077 0 0.1489535207836535 0 0 0 0 0 0 0 0 0 0 0 0 0 6:1 23:1 36:1 51:1 68:1 91:1 110:1 184:1 238:1 310:1 382:1 3880:1 10004:1 19790:1 29106:1 40800:1 48205:1 48207:1 48209:1 50223:1 54509:1 60808:1 67296:1 73406:1 
-0 -0 0 0.1217729888629238 0 0 0 0 0 0 0 0 0 0 0.1426794143231895 0 0 0 6:1 23:1 37:1 59:1 70:1 85:1 108:1 166:1 244:1 321:1 382:1 4763:1 10004:1 24155:1 33656:1 38654:1 48205:1 48207:1 48209:1 51058:1 54532:1 60808:1 70148:1 73406:1 
-0 -0 0 0 0 0 0 0.09525463866193364 0 0 0 0 0 0 0.1458385353974864 0 0 0 6:1 23:1 39:1 54:1 75:1 87:1 110:1 179:1 238:1 310:1 382:1 3880:1 10004:1 24157:1 29155:1 38680:1 48205:1 48207:1 48209:1 50223:1 54509:1 63849:1 70149:1 73406:1 
-0 -0 0 0.1540647505099912 0.09150977320373115 0 0 0 0 0 0 0 0 0 0 0 0 0 6:1 23:1 42:1 54:1 70:1 92:1 108:1 179:1 239:1 310:1 382:1 5203:1 10004:1 21405:1 29519:1 38668:1 48205:1 48207:1 48209:1 48715:1 54509:1 61086:1 68376:1 73406:1 
-0 -0 0 0.1465697242915874 0 0 0 0 0 0 0 0 0 0 0 0 0 0 6:1 23:1 43:1 53:1 72:1 85:1 108:1 166:1 238:1 310:1 382:1 5204:1 10004:1 23695:1 31366:1 38654:1 48205:1 48207:1 48209:1 48249:1 54509:1 60808:1 69045:1 73406:1 
-0 -0 0.1927759622268335 0.1260734656949689 0 0 0 0 0 0 0 0 0 0 0 0 0 0 6:1 23:1 39:1 54:1 70:1 87:1 110:1 179:1 238:1 310:1 382:1 1086:1 10004:1 24157:1 29155:1 38680:1 48205:1 48207:1 48209:1 48399:1 54509:1 64095:1 70149:1 73406:1 
-0.1713228455018784 -0 0 0 0 0 0 0 0 0 0 0 0 0 0 0 0 0 6:1 23:1 39:1 54:1 76:1 89:1 110:1 169:1 238:1 310:1 382:1 1086:1 10004:1 24661:1 29215:1 38663:1 48205:1 48207:1 48209:1 48399:1 54509:1 64170:1 70470:1 73406:1 
-0 -0 0 0 0.1670849373629143 0 0 0 0 0 0 0 0 0 0.1100644431137259 0 0 0 6:1 23:1 39:1 54:1 72:1 89:1 110:1 169:1 238:1 310:1 382:1 5663:1 10004:1 24764:1 29155:1 38663:1 48205:1 48207:1 48209:1 48488:1 54509:1 64246:1 69678:1 73406:1 
-0 -0 0 0.1905143531056892 0 0.120021022915724 0 0 0 0 0 0 0 0 0.08164748189196823 0 0 0 6:1 23:1 37:1 60:1 76:1 85:1 108:1 166:1 239:1 310:1 382:1 5669:1 13355:1 19874:1 34320:1 38654:1 48205:1 48207:1 48209:1 51058:1 54509:1 60808:1 67115:1 73406:1 
-0 -0 0 0.2680005202557501 0 0 0 0 0 0.1344226499512566 0 0 0 0 0 0 0 0 6:1 23:1 39:1 59:1 71:1 85:1 108:1 166:1 238:1 310:1 382:1 5702:1 10004:1 22483:1 29158:1 38654:1 48205:1 48207:1 48209:1 48488:1 54509:1 60808:1 68248:1 73406:1 
-0 -0 0 0 0.218736380533908 0 0 0 0 0 0 0 0 0 0 0 0 0 6:1 23:1 39:1 54:1 72:1 91:1 110:1 172:1 238:1 310:1 382:1 1086:1 10004:1 22792:1 29162:1 41845:1 48205:1 48207:1 48209:1 48399:1 54509:1 60808:1 68517:1 73406:1 
-0 -0 0 0 0 0 0 0 0 0 0.1438432117790939 0 0 0 0 0 0 0 6:1 23:1 38:1 54:1 70:1 85:1 108:1 166:1 244:1 310:1 382:1 769:1 10030:1 21666:1 29416:1 38654:1 48205:1 48207:1 48209:1 48456:1 54509:1 60808:1 68120:1 73406:1 
-0 -0 0 0 0.1668597016381264 0 0 0 0 0 0 0 0 0 0 0 0 0 6:1 23:1 39:1 54:1 76:1 88:1 137:1 181:1 272:1 310:1 382:1 2600:1 11359:1 25242:1 29491:1 43867:1 48205:1 48207:1 48209:1 48456:1 54509:1 60985:1 70857:1 73406:1 
-0 -0 0 0 0 0 0 0 0 0 0 0 0 0 0.2880762528105087 0 0 0 6:1 23:1 39:1 54:1 72:1 85:1 108:1 166:1 244:1 310:1 382:1 1132:1 12503:1 25714:1 29158:1 38654:1 48205:1 48207:1 48209:1 48715:1 54509:1 60808:1 69822:1 73406:1 
-0 -0 0 0 0 0 0 0 0 0 0 0 0 0 0.09188361477641648 0 0 0 6:1 23:1 36:1 51:1 68:1 92:1 108:1 179:1 244:1 311:1 382:1 2002:1 10004:1 25752:1 29106:1 38796:1 48205:1 48207:1 48209:1 48249:1 58573:1 60856:1 71172:1 73406:1 
-0 -0 0 0 0 0 0 0 0 0 0 0 0 0 0.1635620230879609 0 0 0 6:1 23:1 39:1 54:1 70:1 85:1 137:1 166:1 244:1 310:1 382:1 1814:1 10012:1 25784:1 29155:1 38654:1 48205:1 48207:1 48209:1 48399:1 54509:1 60808:1 70874:1 73406:1 
-0 -0 0 0 0.09011750519072614 0 0 0 0 0 0 0 0 0.09024492596337717 0 0 0 0 6:1 23:1 40:1 57:1 73:1 89:1 125:1 169:1 238:1 310:1 382:1 6719:1 10004:1 25820:1 34037:1 38966:1 48205:1 48207:1 48209:1 48456:1 54509:1 62358:1 71218:1 73406:1 
-0 -0 0 0 0 0 0 0.2085744480668267 0 0 0 0 0 0 0 0 0 0 6:1 23:1 39:1 59:1 71:1 92:1 108:1 179:1 244:1 310:1 382:1 5387:1 10004:1 19653:1 29491:1 42499:1 48205:1 48207:1 48209:1 48456:1 54509:1 60808:1 67155:1 73406:1 
-0 -0 0 0 0 0 0 0 0 0.08525685792950637 0 0 0 0 0 0 0 0 6:1 23:1 43:1 54:1 76:1 85:1 137:1 166:1 239:1 310:1 382:1 1814:1 11030:1 22630:1 30283:1 38654:1 48205:1 48207:1 48209:1 48399:1 54509:1 60808:1 68858:1 73406:1 
-0 -0 0 0.07829809801981209 0 0 0 0 0 0 0 0 0 0 0 0 0 0 6:1 23:1 36:1 51:1 68:1 92:1 108:1 186:1 239:1 311:1 382:1 7061:1 10004:1 19924:1 29106:1 38738:1 48205:1 48207:1 48209:1 52530:1 54554:1 63767:1 67390:1 73406:1 
-0 -0 0 0 0 0 0 0 0 0 0 0 0 0 0.1016365855804076 0 0 0 6:1 23:1 43:1 60:1 73:1 92:1 137:1 179:1 244:1 310:1 382:1 1814:1 10012:1 26274:1 29245:1 42499:1 48205:1 48207:1 48209:1 48399:1 54509:1 60808:1 70639:1 73406:1 
-0 -0 0 0 0 0 0 0 0 0 0 0 0 0 0.2023403043150683 0 0 0 6:1 23:1 39:1 54:1 72:1 88:1 108:1 181:1 239:1 310:1 382:1 7247:1 10059:1 26348:1 29155:1 39904:1 48205:1 48207:1 48209:1 48399:1 54509:1 60808:1 68598:1 73406:1 
-0 -0 0 0 0 0 0 0.1247088524092183 0 0 0 0 0 0 0 0 0 0 6:1 23:1 40:1 55:1 71:1 95:1 108:1 181:1 244:1 310:1 382:1 499:1 10004:1 26561:1 36112:1 38770:1 48205:1 48207:1 48209:1 48249:1 54509:1 60862:1 71698:1 73406:1 
-0 -0 0 0 0 0 0 0 0 0 0 0 0 0.0915428510766042 0 0 0 0 6:1 23:1 36:1 59:1 70:1 91:1 108:1 185:1 239:1 310:1 382:1 2377:1 10004:1 19653:1 32989:1 40914:1 48205:1 48207:1 48209:1 48456:1 54509:1 60924:1 67155:1 73406:1 
-0 -0.1432968768483748 0 0 0 0 0 0 0 0 0 0 0 0 0.07822888647433901 0 0 0 6:1 23:1 38:1 54:1 72:1 89:1 125:1 169:1 238:1 310:1 382:1 7802:1 10004:1 19796:1 29245:1 38718:1 48205:1 48207:1 48209:1 48249:1 54509:1 62247:1 67300:1 73406:1 
-0 -0 0 0 0 0 0 0 0 0 0 0 0 0 0.07697132270139996 0 0 0 6:1 23:1 39:1 54:1 72:1 88:1 108:1 181:1 244:1 310:1 382:1 6621:1 14340:1 26980:1 29132:1 45975:1 48205:1 48207:1 48209:1 48456:1 54509:1 60812:1 67219:1 73406:1 
-0 -0 0 0 0 0 0 0 0 0 0 0 0.108053004206498 0 0 0 0 0 6:1 23:1 36:1 51:1 68:1 88:1 108:1 166:1 248:1 310:1 382:1 1600:1 10015:1 26276:1 29106:1 38654:1 48205:1 48207:1 48209:1 48456:1 54509:1 60808:1 67185:1 73406:1 
-0 -0 0 0.1967377372287147 0 0 0 0 0 0 0 0 0 0 0.08484623185964348 0 0 0 6:1 23:1 38:1 55:1 76:1 85:1 108:1 166:1 239:1 311:1 382:1 7972:1 10030:1 26276:1 30418:1 38654:1 48205:1 48207:1 48209:1 52530:1 54554:1 60808:1 67185:1 73406:1 
-0 -0 0 0 0 0 0 0 0 0 0 0 0 0 0.1020543543656116 0 0 0 6:1 23:1 36:1 51:1 68:1 88:1 108:1 181:1 272:1 310:1 382:1 5164:1 17549:1 27100:1 29106:1 39697:1 48205:1 48207:1 48209:1 51089:1 54509:1 60856:1 71762:1 73406:1 
-0 -0 0 0 0 0 0 0.1475073577417287 0 0 0 0 0 0 0.151271531498195 0 0 0 6:1 23:1 42:1 54:1 72:1 88:1 137:1 181:1 244:1 310:1 382:1 815:1 11456:1 19790:1 29613:1 46306:1 48205:1 48207:1 48209:1 48488:1 54509:1 60838:1 67296:1 73406:1 
-0 -0 0 0.1747989417689153 0 0 0 0 0 0 0 0 0 0 0 0 0 0 6:1 23:1 41:1 57:1 73:1 92:1 108:1 186:1 239:1 310:1 382:1 4806:1 10004:1 27209:1 29268:1 38738:1 48205:1 48207:1 48209:1 51089:1 54509:1 63534:1 72144:1 73406:1 
-0 -0 0 0.1862413775793268 0 0 0 0 0 0 0 0 0 0 0 0 0 0 6:1 23:1 43:1 60:1 70:1 95:1 108:1 181:1 272:1 310:1 382:1 8265:1 10004:1 26276:1 29123:1 38703:1 48205:1 48207:1 48209:1 48399:1 54509:1 60932:1 67185:1 73406:1 
-0 -0 0 0.105456003219112 0 0 0 0 0 0 0 0 0 0 0 0 0 0 6:1 23:1 38:1 54:1 77:1 92:1 108:1 186:1 238:1 310:1 382:1 1025:1 10004:1 22668:1 29416:1 46560:1 48205:1 48207:1 48209:1 48488:1 54509:1 60808:1 67281:1 73406:1 
-0 -0.1802158713375658 0 0 0 0 0 0 0 0 0 0 0 0 0 0 0 0.1026592360940116 6:1 23:1 43:1 56:1 76:1 91:1 110:1 172:1 238:1 310:1 382:1 1086:1 10004:1 26276:1 29262:1 38902:1 48205:1 48207:1 48209:1 48399:1 54509:1 63333:1 67185:1 73406:1 
-0 -0 0 0 0 0 0 0.1984126812237837 0 0 0 0 0 0 0.10640506579074 0 0 0 6:1 23:1 39:1 54:1 75:1 92:1 108:1 186:1 239:1 310:1 382:1 4806:1 10004:1 27209:1 29215:1 38738:1 48205:1 48207:1 48209:1 51089:1 54509:1 65008:1 72144:1 73406:1 
-0 -0 0 0 0 0 0 0 0 0 0 0 0 0 0.1075916222569148 0 0 0 6:1 23:1 39:1 54:1 70:1 92:1 108:1 186:1 260:1 310:1 382:1 1967:1 10004:1 26276:1 29155:1 38701:1 48205:1 48207:1 48209:1 48488:1 54509:1 66236:1 67185:1 73406:1 
-0 -0 0 0.1431946840385976 0 0 0 0.1264753501837555 0 0 0 0 0 0 0.08824248194981857 0 0 0 6:1 23:1 36:1 57:1 73:1 92:1 108:1 179:1 244:1 310:1 382:1 4763:1 10004:1 27833:1 29130:1 41416:1 48205:1 48207:1 48209:1 51058:1 54509:1 60808:1 72578:1 73406:1 
-0 -0 0 0 0 0 0 0 0 0 0 0 0.1459627322805121 0 0 0 0 0 6:1 23:1 39:1 54:1 72:1 89:1 125:1 169:1 238:1 310:1 382:1 9045:1 10004:1 26276:1 29491:1 38663:1 48205:1 48207:1 48209:1 48399:1 54509:1 62592:1 67185:1 73406:1 
-0 -0.1552795017259062 0 0 0 0 0 0 0 0 0 0 0 0 0 0 0 0 6:1 23:1 40:1 56:1 71:1 92:1 108:1 186:1 238:1 310:1 382:1 6378:1 10004:1 22980:1 33315:1 38701:1 48205:1 48207:1 48209:1 48456:1 54509:1 64079:1 69120:1 73406:1 
-0 -0.1249335225284384 0 0 0 0 0 0.1492970013973923 0 0 0 0.08210515571979458 0 0 0 0 0 0 6:1 23:1 39:1 54:1 70:1 91:1 110:1 184:1 238:1 310:1 382:1 3880:1 10004:1 23765:1 29158:1 44578:1 48205:1 48207:1 48209:1 50223:1 54509:1 60849:1 69762:1 73406:1 
-0 -0 0 0.1937208258525912 0 0 0 0 0 0 0 0 0 0 0 0 0 0 6:1 23:1 41:1 55:1 71:1 92:1 137:1 179:1 239:1 310:1 382:1 2048:1 18662:1 26276:1 29521:1 42499:1 48205:1 48207:1 48209:1 48399:1 54509:1 60808:1 67185:1 73406:1 
-0 -0 0 0 0 0 0 0 0 0 0 0 0 0.1639597197127341 0 0 0 0 6:1 23:1 46:1 56:1 76:1 89:1 110:1 169:1 238:1 310:1 382:1 1086:1 10004:1 26276:1 29980:1 38718:1 48205:1 48207:1 48209:1 48399:1 54509:1 62805:1 67185:1 73406:1 
-0 -0 0 0.112060226275521 0 0 0 0 0 0 0 0 0.1510348558263848 0 0 0 0 0 6:1 23:1 44:1 61:1 74:1 85:1 108:1 166:1 240:1 311:1 382:1 9169:1 10004:1 26276:1 29651:1 38654:1 48205:1 48207:1 48209:1 48488:1 58755:1 60808:1 67185:1 73406:1 
-0 -0 0 0.1138923664199929 0 0 0 0 0 0 0 0 0 0 0 0 0 0 6:1 23:1 39:1 54:1 75:1 92:1 108:1 179:1 238:1 310:1 382:1 1516:1 10004:1 26276:1 29158:1 38668:1 48205:1 48207:1 48209:1 48399:1 54509:1 61467:1 67185:1 73406:1 
-0.09728481912387839 -0 0 0 0.08317646283638368 0 0 0 0 0 0 0 0 0 0 0 0 0 6:1 23:1 38:1 54:1 76:1 91:1 125:1 185:1 238:1 310:1 382:1 864:1 10004:1 26276:1 29123:1 43321:1 48205:1 48207:1 48209:1 48399:1 54509:1 66674:1 67185:1 73406:1 
-0 -0 0 0.1695800648656056 0 0 0 0 0 0 0 0 0 0 0 0 0 0 6:1 23:1 39:1 54:1 72:1 92:1 108:1 179:1 239:1 310:1 382:1 6621:1 10004:1 19790:1 29132:1 38796:1 48205:1 48207:1 48209:1 48456:1 54509:1 61682:1 67296:1 73406:1 
-0 -0 0 0.1006791397149021 0 0 0 0 0 0 0 0 0 0 0 0.08640066434501158 0 0 6:1 23:1 37:1 57:1 77:1 85:1 108:1 166:1 238:1 311:1 382:1 9744:1 10004:1 19653:1 38379:1 38654:1 48205:1 48207:1 48209:1 48249:1 55529:1 60808:1 67155:1 73406:1 
-0 -0 0.0629448974855793 0.1447675788479063 0.2 0.0810503882835853 0.1552795017259062 0.1821666469281417 0.03303462634636134 0.1147431420704936 0.05490119179232818 0.04406881205175199 0.04722649751940816 0.05040076288294398 0.1296224345548551 0.05773052194431454 0.04522935568202266 0.04837838768894541 6:1 23:1 39:1 54:1 76:1 92:1 108:1 186:1 244:1 310:1 382:1 9673:1 10004:1 19874:1 29263:1 38738:1 48205:1 48207:1 48209:1 48249:1 54509:1 62282:1 67115:1 73406:1 
-0.1698343663480806 -0.150627004591565 -0.1736111042124256 0.1693641280030677 0.2344701860546939 0.1686386240353893 0 0.195613896513527 0.08183306854193304 0.09177804244497952 0 0 0 0.1148587876109308 0.1859029534649611 0.08843871298531031 0 0 7:1 23:1 39:1 54:1 70:1 92:1 120:1 179:1 238:1 310:1 382:1 503:1 10004:1 19604:1 29155:1 38668:1 48205:1 48207:1 48209:1 48253:1 54509:1 60850:1 67151:1 73406:1 
-0.5 -0 -0.1927759622268335 0 0.215295832166442 0 0 0 0 0 0 0 0 0 0 0 0 0 4:1 23:1 39:1 54:1 72:1 88:1 109:1 167:1 238:1 310:1 382:1 463:1 10004:1 19932:1 29155:1 38893:1 48205:1 48207:1 48209:1 48214:1 54509:1 60909:1 67262:1 73406:1 
-0 -0 -0 0 0.3644286083850352 0 0 0 0 0 0 0 0 0.137977051173789 0 0 0 0 7:1 23:1 43:1 55:1 71:1 91:1 119:1 167:1 238:1 334:1 382:1 473:1 10004:1 19795:1 29512:1 39058:1 48205:1 48207:1 48209:1 48520:1 54819:1 60851:1 67299:1 73406:1 
-0.3412847942730408 -0 -0 0 0 0 0 0 0 0 0 0 0 0 0 0 0 0 4:1 23:1 39:1 59:1 71:1 88:1 109:1 167:1 238:1 310:1 382:1 463:1 10004:1 20320:1 29263:1 38893:1 48205:1 48207:1 48209:1 48214:1 54509:1 60909:1 67673:1 73406:1 
-0.1130285017607157 -0.1563920725582423 -0 0.1427131893655989 0 0 0 0.09801085749406893 0 0 0 0 0 0 0.1183583596147286 0 0 0 7:1 23:1 42:1 56:1 71:1 91:1 119:1 167:1 238:1 334:1 382:1 473:1 10004:1 20715:1 30266:1 39032:1 48205:1 48207:1 48209:1 48520:1 54819:1 61054:1 67427:1 73406:1 
-0.3224347543307946 -0 -0.09185752344381454 0 0.1112556072902467 0 0 0 0 0 0 0 0 0 0 0 0 0 4:1 23:1 36:1 52:1 70:1 88:1 109:1 167:1 238:1 310:1 382:1 463:1 10004:1 20786:1 29115:1 38893:1 48205:1 48207:1 48209:1 48214:1 54509:1 60909:1 67989:1 73406:1 
-0.5 -0.15134033320261 -0 0.08538198132194225 0.1868019559731899 0 0 0 0 0 0 0 0 0 0 0 0 0 4:1 23:1 38:1 56:1 76:1 88:1 109:1 167:1 238:1 310:1 382:1 463:1 10004:1 20351:1 29416:1 38893:1 48205:1 48207:1 48209:1 48214:1 54509:1 60909:1 67694:1 73406:1 
-0.2 -0.1636661303093792 -0.1176939255602349 0.1235758985314355 0.3206327418956369 0.1202903946227381 0.1176196502180413 0.1223357154305108 0 0 0.1159554742980974 0.1049648468008673 0.1240685744186436 0.1549806963599014 0.1689406765322831 0.1516784003382627 0.1275800236927518 0.08652142335011428 7:1 23:1 36:1 51:1 68:1 91:1 120:1 185:1 238:1 310:1 382:1 502:1 10004:1 25303:1 29106:1 44402:1 48205:1 48207:1 48209:1 48252:1 54509:1 60831:1 67617:1 73406:1 
-0.1398460606422435 -0 -0.1344006465993149 0 0.1576473880655848 0.07695689976674934 0 0 0 0 0 0 0 0 0 0 0 0 7:1 23:1 39:1 54:1 70:1 91:1 119:1 167:1 238:1 334:1 382:1 473:1 10004:1 25673:1 29491:1 44771:1 48205:1 48207:1 48209:1 48520:1 54819:1 60880:1 70724:1 73406:1 
-0.1832211555201911 -0.1279521564624901 -0.1143156514940077 0.1103492080427007 0.252752996590877 0.1340908887095288 0 0.1311027167966766 0 0 0 0 0.1319325635956391 0 0.08728310353230213 0.1855287451398442 0 0 7:1 23:1 38:1 54:1 72:1 91:1 119:1 167:1 238:1 334:1 382:1 1067:1 10004:1 23289:1 29251:1 44259:1 48205:1 48207:1 48209:1 52524:1 58823:1 60821:1 69511:1 73406:1 
-0.3357604875593123 -0 -0 0.1636661303093792 0.2178649165046736 0.1736111042124256 0.1420454553151426 0.1736111042124256 0.1736111042124256 0.1636661303093792 0.1855287451398442 0.1636661303093792 0.1636661303093792 0.1636661303093792 0.1855287451398442 0.1736111042124256 0.1736111042124256 0.1736111042124256 4:1 23:1 39:1 59:1 71:1 88:1 109:1 167:1 238:1 310:1 382:1 463:1 10004:1 28708:1 29162:1 38893:1 48205:1 48207:1 48209:1 48214:1 54509:1 60909:1 73151:1 73406:1 
-0 -0.1481481481481481 -0 -0 0 0 0 0 0.1152634184867686 0 0 0 0 0 0 0 0.08801069077220158 0 6:1 23:1 41:1 56:1 71:1 85:1 108:1 166:1 239:1 310:1 382:1 606:1 10004:1 19707:1 29188:1 38654:1 48205:1 48207:1 48209:1 48333:1 54509:1 60808:1 67231:1 73406:1 
-0 -0 -0.2680005202557501 -0 0 0 0 0 0 0 0 0 0 0 0.1132949224531004 0 0 0.09838184999163881 6:1 23:1 41:1 58:1 73:1 85:1 108:1 166:1 238:1 310:1 382:1 1753:1 10004:1 20085:1 29188:1 38654:1 48205:1 48207:1 48209:1 48333:1 54509:1 60808:1 67510:1 73406:1 
-0 -0 -0 -0 0.169683981110862 0 0 0.1754500882578024 0 0 0 0 0 0 0.08664321977404443 0 0 0 6:1 23:1 39:1 59:1 71:1 92:1 108:1 186:1 238:1 331:1 382:1 511:1 10004:1 21449:1 29215:1 39075:1 48205:1 48207:1 48209:1 48258:1 55856:1 60808:1 68405:1 73406:1 
-0 -0 -0.3650574127201708 -0 0 0.1710874696100913 0 0.06402215960195617 0 0 0 0 0 0 0.1570280139145986 0 0 0 6:1 23:1 37:1 55:1 76:1 85:1 108:1 166:1 239:1 310:1 382:1 606:1 10030:1 19874:1 29699:1 38654:1 48205:1 48207:1 48209:1 48333:1 54509:1 60808:1 67115:1 73406:1 
-0 -0 -0.1682906317299425 -0 0 0 0 0 0 0 0 0 0 0 0 0 0 0 6:1 23:1 37:1 59:1 75:1 92:1 108:1 186:1 239:1 310:1 382:1 606:1 10004:1 20955:1 30712:1 39075:1 48205:1 48207:1 48209:1 48333:1 54509:1 60808:1 68102:1 73406:1 
-0.1479479861619148 -0 -0.2403846242018708 -0.1103492080427007 0.1451582528183239 0 0 0.1496832248188507 0 0 0 0 0 0 0.1602736895532615 0 0 0 6:1 23:1 39:1 54:1 72:1 92:1 108:1 186:1 239:1 310:1 382:1 606:1 10004:1 22483:1 29263:1 38703:1 48205:1 48207:1 48209:1 48333:1 54509:1 61148:1 68248:1 73406:1 
-0 -0 -0.1119615315765639 -0 0 0 0 0 0 0 0 0 0.08846867755911164 0 0.1614043337944156 0 0 0 6:1 23:1 38:1 54:1 76:1 92:1 108:1 186:1 247:1 331:1 382:1 702:1 10068:1 20789:1 29134:1 40098:1 48205:1 48207:1 48209:1 48258:1 54835:1 60808:1 67991:1 73406:1 
-0 -0 -0.1593132311613484 -0.08538198132194225 0.1516595511461743 0 0 0 0 0 0 0 0 0 0.1408857820130348 0 0 0 6:1 23:1 38:1 54:1 70:1 88:1 108:1 176:1 238:1 311:1 382:1 2266:1 10004:1 23703:1 29251:1 40863:1 48205:1 48207:1 48209:1 48258:1 57825:1 60909:1 69833:1 73406:1 
-0 -0 -0.1862633646489632 -0 0 0 0 0 0 0 0 0 0 0 0 0 0 0 6:1 23:1 40:1 56:1 71:1 85:1 108:1 166:1 238:1 331:1 382:1 3645:1 10004:1 20186:1 32342:1 38654:1 48205:1 48207:1 48209:1 48258:1 58000:1 60808:1 67296:1 73406:1 
-0 -0 -0.1217729888629238 -0 0 0 0 0 0 0 0 0 0 0 0.1115427707401406 0 0 0 6:1 23:1 38:1 59:1 71:1 85:1 108:1 166:1 239:1 331:1 382:1 1164:1 10004:1 25824:1 29113:1 38654:1 48205:1 48207:1 48209:1 48258:1 55348:1 60808:1 69669:1 73406:1 
-0.1055386183996905 -0 -0.1937208258525912 -0 0.1088770850513971 0 0 0.136439474092834 0 0 0 0 0 0.1334432814310553 0.09131186942746054 0 0 0 6:1 23:1 43:1 59:1 76:1 87:1 108:1 179:1 259:1 310:1 382:1 916:1 10004:1 23879:1 29650:1 38680:1 48205:1 48207:1 48209:1 48258:1 54509:1 61018:1 67210:1 73406:1 
-0 -0 -0.1862413775793268 -0 0.09382368104066029 0.08364298034205231 0 0.1526791222217311 0 0 0 0 0 0 0.1610792001723657 0 0 0 6:1 23:1 43:1 56:1 71:1 92:1 108:1 186:1 239:1 329:1 382:1 462:1 10004:1 26401:1 31536:1 38738:1 48205:1 48207:1 48209:1 48218:1 55544:1 60856:1 70196:1 73406:1 
-0 -0 -0.1540647505099912 -0 0 0 0 0 0 0 0 0 0 0 0 0 0 0 6:1 23:1 38:1 59:1 71:1 92:1 108:1 179:1 239:1 331:1 382:1 511:1 10030:1 26685:1 29399:1 45783:1 48205:1 48207:1 48209:1 48258:1 59192:1 60808:1 70378:1 73406:1 
-0 -0 -0.2264755857767262 -0 0.09994157703771586 0 0 0 0 0 0 0 0 0 0.1681616420831822 0 0 0 6:1 23:1 41:1 57:1 73:1 85:1 108:1 166:1 268:1 310:1 382:1 8281:1 10004:1 27382:1 29118:1 38654:1 48205:1 48207:1 48209:1 51186:1 54509:1 60808:1 71900:1 73406:1 
-0.1771355349007809 -0.1735724498035787 -0.09934475010678727 -0.1235758985314355 0.1065725398732201 0.1037820887901063 0 0 0 0 0 0 0 0 0 0.1550458745195337 0 0 6:1 23:1 40:1 60:1 73:1 91:1 108:1 185:1 238:1 331:1 382:1 702:1 10004:1 20186:1 35826:1 46599:1 48205:1 48207:1 48209:1 48258:1 54733:1 60808:1 67296:1 73406:1 
-0 -0 -0.1967377372287147 -0 0 0 0 0 0 0 0 0 0.1745773988001007 0 0 0 0 0 6:1 23:1 43:1 57:1 73:1 85:1 108:1 166:1 239:1 310:1 382:1 8640:1 10004:1 26276:1 29152:1 38654:1 48205:1 48207:1 48209:1 48333:1 54509:1 60808:1 67185:1 73406:1 
-0.1416901698658939 -0.1110188365151143 -0.2802549449880274 -0.1693641280030677 0.3195169797968591 0.1785835979384358 0.1120041040285173 0.1041550859774961 0.133387886056672 0.1165316396678022 0.1705400973247327 0.1403034904049342 0.1536657870727785 0.1521335799269033 0.1844306122416301 0.1561214004544891 0.1578722819494956 0 8:1 23:1 39:1 59:1 71:1 85:1 115:1 166:1 238:1 311:1 382:1 8803:1 10004:1 27904:1 29158:1 38654:1 48205:1 48207:1 48209:1 49557:1 54687:1 60808:1 72628:1 73406:1 
-0.1636661303093792 -0 -0.25728303784371 -0 0 0.1710235706032136 0 0 0 0.1147449779998515 0.1005637394147429 0.08680555210621282 0 0 0 0 0 0 6:1 23:1 39:1 54:1 76:1 85:1 108:1 166:1 238:1 310:1 382:1 8811:1 10004:1 22435:1 29215:1 38654:1 48205:1 48207:1 48209:1 51356:1 54509:1 60808:1 68505:1 73406:1 
-0 -0 -0.1465697242915874 -0 0 0 0 0 0 0 0 0 0 0 0 0 0 0 6:1 23:1 39:1 54:1 76:1 92:1 108:1 186:1 238:1 331:1 382:1 511:1 10004:1 23048:1 29132:1 38738:1 48205:1 48207:1 48209:1 48258:1 60090:1 63541:1 67670:1 73406:1 
-0 -0 -0.2834724312855984 -0 0 0 0 0.1951550764275265 0 0 0 0 0 0 0.09209302982028797 0 0 0 6:1 23:1 39:1 54:1 70:1 92:1 108:1 179:1 239:1 310:1 382:1 8811:1 10004:1 26276:1 29132:1 41416:1 48205:1 48207:1 48209:1 51356:1 54509:1 60808:1 67185:1 73406:1 
-0 -0.08813824789304546 -0.2438738237534997 -0.1636661303093792 0.1866667402038736 0 0 0 0 0 0 0 0 0 0.2172000074386597 0 0 0 6:1 23:1 39:1 54:1 70:1 87:1 108:1 179:1 238:1 310:1 382:1 8811:1 10004:1 26276:1 29215:1 38680:1 48205:1 48207:1 48209:1 51356:1 54509:1 63954:1 67185:1 73406:1 
-0.124915801175534 -0.1280683891870099 -0.3948859168204701 -0.1427131893655989 0.2 0.1636661303093792 0.1367989066795754 0.2 0.04840271182261058 0.04053452372605464 0.06310239089463626 0.06134259604193532 0.1855287451398442 0.1855287451398442 0.2 0.1736111042124256 0.06726881095370457 0.1636661303093792 6:1 23:1 38:1 61:1 78:1 92:1 108:1 179:1 238:1 310:1 382:1 9382:1 10004:1 25385:1 29168:1 38668:1 48205:1 48207:1 48209:1 50147:1 54509:1 60886:1 68669:1 73406:1 
-0 -0 -0.160678093490331 -0 -0 0 0.08707613347904476 0 0 0 0 0 0 0 0 0 0 0 10:1 23:1 39:1 54:1 76:1 90:1 138:1 171:1 238:1 310:1 382:1 630:1 10004:1 19721:1 29155:1 38682:1 48205:1 48207:1 48209:1 48350:1 54509:1 60947:1 67241:1 73406:1 
-0 -0 -0 -0 -0.1016520632921854 0 0 0 0 0 0 0 0 0 0 0 0 0 5:1 23:1 39:1 54:1 76:1 89:1 117:1 169:1 238:1 315:1 382:1 482:1 10004:1 19721:1 29155:1 38829:1 48205:1 48207:1 48209:1 48216:1 54649:1 60808:1 67241:1 73406:1 
-0 -0.1462147036655971 -0 -0 -0 0 0 0 0 0 0 0 0 0 0 0 0 0 7:1 23:1 43:1 55:1 71:1 92:1 119:1 190:1 238:1 310:1 382:1 739:1 10004:1 19795:1 29512:1 38674:1 48205:1 48207:1 48209:1 48520:1 54509:1 61118:1 67299:1 73406:1 
-0 -0 -0 -0.2825820599265058 -0 0 0 0 0 0 0 0 0 0 0 0 0 0 7:1 23:1 43:1 55:1 71:1 92:1 119:1 190:1 238:1 334:1 382:1 474:1 10004:1 19795:1 29512:1 38673:1 48205:1 48207:1 48209:1 48520:1 54819:1 61114:1 67299:1 73406:1 
-0 -0 -0.3160264537488845 -0 -0.1451582528183239 0 0 0.1570790397839108 0.08024571507595361 0 0 0 0 0 0.1878839631856719 0 0 0 6:1 23:1 38:1 54:1 76:1 88:1 108:1 181:1 272:1 310:1 382:1 499:1 10060:1 20012:1 29251:1 39111:1 48205:1 48207:1 48209:1 48249:1 54509:1 60881:1 67460:1 73406:1 
-0 -0 -0 -0 -0 0.1158435308010349 0 0 0 0 0 0 0 0 0 0 0 0 4:1 23:1 38:1 54:1 76:1 92:1 106:1 179:1 238:1 313:1 382:1 909:1 10004:1 20012:1 29251:1 38668:1 48205:1 48207:1 48209:1 48283:1 54861:1 60881:1 67460:1 73406:1 
-0 -0.4444133102600442 -0 -0 -0 0 0 0 0 0 0 0 0 0 0 0 0 0 7:1 23:1 38:1 54:1 76:1 89:1 112:1 178:1 238:1 323:1 382:1 468:1 10004:1 20012:1 29251:1 39109:1 48205:1 48207:1 48209:1 48223:1 54582:1 60924:1 67460:1 73406:1 
-0.153769376845346 -0 -0 -0 -0 0 0 0 0 0 0 0 0 0 0 0 0 0 4:1 23:1 38:1 54:1 76:1 92:1 106:1 179:1 238:1 322:1 382:1 909:1 10004:1 20012:1 29251:1 38796:1 48205:1 48207:1 48209:1 48283:1 54522:1 60881:1 67460:1 73406:1 
-0 -0 -0.1668597016381264 -0 -0 0 0 0.09048082431855101 0 0 0 0 0 0 0 0 0 0 3:1 23:1 39:1 54:1 72:1 89:1 114:1 169:1 243:1 310:1 382:1 1389:1 10938:1 20490:1 29263:1 38684:1 48205:1 48207:1 48209:1 48892:1 54509:1 60847:1 67790:1 73406:1 
-0.1420248292323964 -0 -0 -0 -0 0.1383150180324611 0 0 0 0 0 0 0 0 0 0 0 0 4:1 23:1 39:1 54:1 72:1 91:1 109:1 167:1 238:1 313:1 382:1 484:1 10004:1 20490:1 29263:1 38699:1 48205:1 48207:1 48209:1 48236:1 55191:1 60808:1 67790:1 73406:1 
-0 -0 -0 -0 -0 0.07896030743847886 0 0 0 0 0 0 0 0 0 0 0 0 3:1 23:1 37:1 53:1 74:1 89:1 105:1 169:1 238:1 311:1 382:1 911:1 10004:1 20628:1 30179:1 38684:1 48205:1 48207:1 48209:1 48562:1 54599:1 60808:1 67584:1 73406:1 
-0 -0 -0 -0 -0 0 0 0 0 0 0 0 0 0.09926418514143197 0 0 0 0 7:1 23:1 42:1 56:1 71:1 92:1 119:1 190:1 238:1 310:1 382:1 739:1 10004:1 20715:1 30266:1 38674:1 48205:1 48207:1 48209:1 48520:1 54509:1 61118:1 67427:1 73406:1 
-0 -0 -0 -0 -0 0 0 0 0 0.2713881839362442 0 0 0 0 0 0 0 0 2:1 23:1 39:1 54:1 76:1 91:1 111:1 177:1 238:1 310:1 382:1 467:1 10004:1 20976:1 29158:1 38699:1 48205:1 48207:1 48209:1 48222:1 54509:1 60808:1 68111:1 73406:1 
-0 -0.08527365690267362 -0 -0 -0 0 0 0 0 0 0 0 0 0.09930215416444557 0 0 0 0 8:1 23:1 39:1 54:1 78:1 95:1 124:1 167:1 238:1 310:1 382:1 540:1 10004:1 21194:1 29215:1 39173:1 48205:1 48207:1 48209:1 48284:1 54509:1 60847:1 68253:1 73406:1 
-0 -0 -0 -0 -0.1088770850513971 0 0 0 0 0 0 0 0 0 0 0 0 0 10:1 23:1 39:1 54:1 78:1 91:1 127:1 172:1 238:1 311:1 382:1 973:1 10004:1 21194:1 29215:1 38699:1 48205:1 48207:1 48209:1 48604:1 54583:1 60821:1 68253:1 73406:1 
-0 -0 -0 -0 -0 0 0 0 0 0 0 0 0 0 0 0 0 0.132578279467174 8:1 23:1 41:1 61:1 74:1 91:1 115:1 187:1 238:1 310:1 382:1 2267:1 10004:1 20085:1 29188:1 40466:1 48205:1 48207:1 48209:1 49453:1 54509:1 60808:1 67510:1 73406:1 
-0 -0 -0 -0 -0 0.2710635780018324 0 0 0 0 0 0 0 0 0 0 0 0 9:1 23:1 37:1 55:1 74:1 94:1 121:1 190:1 238:1 310:1 382:1 2325:1 10004:1 20567:1 29526:1 38673:1 48205:1 48207:1 48209:1 49493:1 54509:1 60808:1 67849:1 73406:1 
-0.08198696352008884 -0 -0 -0 -0 0.1339032979275045 0 0 0 0 0.1069448571087857 0.135979847642612 0 0 0 0 0 0 1:1 23:1 39:1 59:1 71:1 88:1 103:1 183:1 238:1 310:1 393:1 1979:1 10004:1 20701:1 29215:1 38998:1 48205:1 48207:1 48209:1 49281:1 54509:1 60825:1 67881:1 73429:1 
-0 -0 -0.1687665719085657 -0 -0.169683981110862 0 0 0.142406350074355 0 0 0 0 0 0 0.1578612798316356 0 0 0 6:1 23:1 39:1 59:1 71:1 88:1 118:1 181:1 238:1 311:1 393:1 1255:1 10004:1 20701:1 29215:1 38858:1 48205:1 48207:1 48209:1 48239:1 54526:1 61691:1 67881:1 73429:1 
-0 -0 -0 -0 -0 0 0.1330589851703993 0 0.08339084351946813 0 0 0 0.07866237469453898 0 0 0 0 0 3:1 23:1 39:1 59:1 71:1 89:1 114:1 169:1 243:1 325:1 393:1 658:1 10004:1 20701:1 29215:1 39888:1 48205:1 48207:1 48209:1 48372:1 54538:1 60808:1 67881:1 73429:1 
-0 -0 -0 -0 -0 0 0 0.113112141971308 0 0 0 0 0 0 0 0 0 0 8:1 23:1 42:1 54:1 75:1 91:1 115:1 187:1 238:1 310:1 382:1 1719:1 10004:1 20116:1 31042:1 40591:1 48205:1 48207:1 48209:1 48536:1 54509:1 61508:1 67533:1 73406:1 
-0.2068183124674249 -0 -0 -0 -0.1866667402038736 0 0 0 0 0 0 0 0 0 0 0 0 0 8:1 23:1 39:1 59:1 71:1 91:1 115:1 187:1 238:1 310:1 382:1 2444:1 10004:1 21449:1 29215:1 38711:1 48205:1 48207:1 48209:1 49557:1 54509:1 60849:1 68405:1 73406:1 
-0.1129537087125898 -0 -0 -0 -0 0 0 0 0 0 0 0 0 0 0 0 0 0 9:1 23:1 39:1 54:1 72:1 91:1 121:1 167:1 238:1 310:1 382:1 1626:1 10004:1 20332:1 29158:1 39256:1 48205:1 48207:1 48209:1 49056:1 54509:1 60808:1 67682:1 73406:1 
-0.1106284240271408 -0 -0 -0 -0 0 0 0 0 0 0 0 0 0 0.07992206597751572 0 0 0 10:1 23:1 43:1 55:1 74:1 90:1 154:1 171:1 238:1 310:1 382:1 1782:1 10004:1 21992:1 29712:1 38705:1 48205:1 48207:1 48209:1 48350:1 54509:1 60834:1 68384:1 73406:1 
-0 -0 -0 -0 -0 0.1764315498681775 0 0 0 0 0 0 0 0.189247336569912 0 0 0 0 5:1 23:1 43:1 55:1 74:1 89:1 107:1 169:1 238:1 315:1 382:1 505:1 10004:1 21992:1 29712:1 38684:1 48205:1 48207:1 48209:1 48216:1 54649:1 60808:1 68384:1 73406:1 
-0 -0.102176652322111 -0 -0 -0 0 0.09313622308124431 0 0 0 0 0.1060100508268173 0 0 0 0 0 0 2:1 23:1 43:1 55:1 74:1 88:1 116:1 168:1 238:1 310:1 383:1 480:1 10004:1 21992:1 29712:1 39290:1 48205:1 48207:1 48209:1 48233:1 54509:1 62437:1 68384:1 73432:1 
-0 -0.2108970763343511 -0.2 -0 -0 0 0 0 0 0.1157229884521528 0 0 0 0 0 0 0 0 2:1 23:1 39:1 54:1 76:1 91:1 116:1 168:1 238:1 310:1 382:1 480:1 10004:1 19874:1 29162:1 38699:1 48205:1 48207:1 48209:1 48233:1 54509:1 60880:1 67115:1 73406:1 
-0 -0 -0 -0 -0 0 0 0.1607280940395478 0 0 0 0 0 0 0 0 0 0 7:1 23:1 39:1 59:1 71:1 92:1 119:1 190:1 238:1 310:1 382:1 739:1 10004:1 21419:1 29158:1 38674:1 48205:1 48207:1 48209:1 48520:1 54509:1 61118:1 68385:1 73406:1 
-0.2330474128160069 -0 -0 -0 -0 0.08659237092029601 0 0 0 0 0 0 0 0 0 0 0 0 4:1 23:1 38:1 54:1 73:1 91:1 109:1 167:1 238:1 313:1 382:1 473:1 10004:1 22650:1 29123:1 38969:1 48205:1 48207:1 48209:1 48227:1 54789:1 60808:1 69167:1 73406:1 
-0 -0 -0 -0 -0 0 0 0 0 0 0 0 0 0 0 0 0.09706427940849893 0 2:1 23:1 41:1 56:1 71:1 91:1 116:1 177:1 238:1 310:1 382:1 480:1 10004:1 22669:1 29188:1 38699:1 48205:1 48207:1 48209:1 48233:1 54509:1 60808:1 68744:1 73406:1 
-0 -0 -0 -0.1309329571229232 -0 0 0 0 0 0 0 0 0 0 0 0 0 0 9:1 23:1 39:1 54:1 70:1 91:1 121:1 167:1 238:1 310:1 382:1 1065:1 10004:1 19968:1 29155:1 38699:1 48205:1 48207:1 48209:1 48672:1 54509:1 60808:1 67423:1 73406:1 
-0.5 -0 -0.1670849373629143 -0.215295832166442 -0 0 0 0 0 0 0 0 0 0 0.1643027131243843 0 0 0.0965616255986232 4:1 23:1 39:1 54:1 72:1 89:1 109:1 191:1 238:1 310:1 382:1 463:1 10004:1 22798:1 29155:1 41863:1 48205:1 48207:1 48209:1 48214:1 54509:1 60808:1 69251:1 73406:1 
-0 -0 -0.08470791209885764 -0 -0 0 0 0 0 0 0 0 0 0 0 0 0 0 2:1 23:1 41:1 57:1 74:1 91:1 111:1 177:1 238:1 310:1 382:1 467:1 10004:1 22909:1 29188:1 38969:1 48205:1 48207:1 48209:1 48222:1 54509:1 60808:1 68296:1 73406:1 
-0 -0 -0 -0 -0 0 0 0 0 0 0 0 0 0.1369474141408789 0 0 0 0 8:1 23:1 38:1 54:1 76:1 91:1 115:1 187:1 238:1 310:1 382:1 1719:1 10004:1 20789:1 29134:1 38902:1 48205:1 48207:1 48209:1 48536:1 54509:1 61453:1 67991:1 73406:1 
-0.2325162882736629 -0.2128111293682018 -0 -0 -0 0 0 0.1711959047810408 0 0 0 0 0 0 0.09054617738261395 0 0 0 2:1 23:1 39:1 54:1 72:1 91:1 116:1 177:1 238:1 310:1 382:1 480:1 10004:1 20774:1 29158:1 38969:1 48205:1 48207:1 48209:1 48233:1 54509:1 60808:1 67671:1 73406:1 
-0 -0.1636661303093792 -0 -0 -0 0 0 0 0 0 0 0 0 0 0 0 0 0 9:1 23:1 41:1 56:1 71:1 91:1 121:1 167:1 238:1 310:1 382:1 612:1 10004:1 19569:1 29188:1 38699:1 48205:1 48207:1 48209:1 48255:1 54509:1 60808:1 67121:1 73406:1 
-0 -0 -0.218736380533908 -0 -0 0 0 0 0 0 0 0 0 0 0 0 0 0 9:1 23:1 39:1 54:1 72:1 91:1 121:1 167:1 238:1 310:1 382:1 612:1 10004:1 20332:1 29155:1 39256:1 48205:1 48207:1 48209:1 48255:1 54509:1 60808:1 67682:1 73406:1 
-0 -0.1530406918814379 -0 -0 -0 0 0 0 0 0 0.2116249243374002 0.1336939927850457 0.09102064871345185 0 0 0.1308109471156405 0 0 2:1 23:1 38:1 54:1 72:1 91:1 116:1 168:1 238:1 310:1 382:1 480:1 10004:1 23289:1 29399:1 38752:1 48205:1 48207:1 48209:1 48233:1 54509:1 60808:1 69511:1 73406:1 
-0 -0 -0 -0 -0 0 0 0.1406617388342945 0 0 0 0 0 0 0.1006089163012737 0 0 0 3:1 23:1 36:1 61:1 74:1 89:1 105:1 169:1 238:1 310:1 382:1 1660:1 10004:1 23631:1 29130:1 38663:1 48205:1 48207:1 48209:1 49076:1 54509:1 62080:1 67638:1 73406:1 
-0.1875459164054047 -0 -0 -0.1112556072902467 -0 0 0 0 0 0 0 0 0.1082809764611924 0 0 0 0 0 4:1 23:1 36:1 61:1 74:1 88:1 109:1 167:1 238:1 313:1 382:1 463:1 10004:1 23631:1 29130:1 42711:1 48205:1 48207:1 48209:1 48214:1 55375:1 60808:1 67638:1 73406:1 
-0 -0 -0 -0 -0 0 0 0 0 0 0 0 0 0 0 0.1054929963736848 0 0 3:1 23:1 40:1 53:1 68:1 89:1 105:1 169:1 238:1 310:1 382:1 2826:1 10004:1 22980:1 29340:1 38718:1 48205:1 48207:1 48209:1 49803:1 54509:1 61054:1 69120:1 73406:1 
-0.2403846242018708 -0 -0 -0 -0 0 0 0 0 0 0 0 0 0 0 0 0 0 4:1 23:1 40:1 53:1 68:1 91:1 109:1 167:1 238:1 313:1 382:1 518:1 10004:1 22980:1 29340:1 40800:1 48205:1 48207:1 48209:1 48264:1 56102:1 60808:1 69120:1 73406:1 
-0 -0.2358601993853341 -0 -0 -0 0 0 0 0 0 0.1499153436720227 0.1071136721252488 0 0 0 0 0 0 2:1 23:1 37:1 59:1 70:1 91:1 116:1 177:1 238:1 310:1 382:1 480:1 10004:1 24155:1 33656:1 42963:1 48205:1 48207:1 48209:1 48233:1 54509:1 60808:1 70148:1 73406:1 
-0 -0 -0 -0 -0 0 0 0.09246800586560756 0 0 0 0 0 0 0 0 0 0 9:1 23:1 39:1 59:1 71:1 91:1 121:1 167:1 238:1 310:1 382:1 5308:1 10004:1 21036:1 29162:1 40202:1 48205:1 48207:1 48209:1 51409:1 54509:1 60808:1 68099:1 73406:1 
-0 -0.1818391148877348 -0.08317646283638368 -0 -0.09382368104066029 0 0 0 0 0 0 0 0 0 0 0 0 0 8:1 23:1 40:1 56:1 71:1 91:1 115:1 187:1 276:1 310:1 382:1 5753:1 10004:1 20186:1 32342:1 41845:1 48205:1 48207:1 48209:1 51701:1 54509:1 60808:1 67296:1 73406:1 
-0.08858024486824341 -0 -0.09011750519072614 -0 -0 0 0 0 0 0 0 0 0 0 0 0 0 0 3:1 23:1 39:1 54:1 76:1 89:1 105:1 169:1 239:1 310:1 382:1 521:1 10004:1 25665:1 29263:1 38702:1 48205:1 48207:1 48209:1 48267:1 54509:1 61054:1 71120:1 73406:1 
-0 -0 -0 -0.1576473880655848 -0 0 0 0 0 0 0 0 0 0 0 0 0 0 4:1 23:1 39:1 54:1 76:1 91:1 109:1 167:1 238:1 313:1 382:1 502:1 10004:1 25665:1 29263:1 40577:1 48205:1 48207:1 48209:1 48252:1 54566:1 60880:1 71120:1 73406:1 
-0.128977529002732 -0 -0.1489535207836535 -0.1035372289317707 -0 0 0 0 0 0 0 0 0 0 0 0 0 0 7:1 23:1 39:1 54:1 70:1 92:1 119:1 190:1 238:1 310:1 382:1 739:1 10004:1 25673:1 29491:1 38674:1 48205:1 48207:1 48209:1 48520:1 54509:1 61118:1 70724:1 73406:1 
-0 -0 -0 -0 -0.1516595511461743 0 0 0 0 0 0 0 0 0 0.1354460378894288 0 0 0 7:1 23:1 39:1 54:1 70:1 92:1 119:1 190:1 238:1 334:1 382:1 474:1 10004:1 25673:1 29491:1 38673:1 48205:1 48207:1 48209:1 48520:1 54819:1 61409:1 70724:1 73406:1 
-0 -0 -0.1743682114184553 -0 -0 0 0 0 0 0 0 0 0 0 0 0 0 0 8:1 23:1 38:1 59:1 71:1 91:1 115:1 187:1 238:1 310:1 382:1 1616:1 10004:1 25824:1 29113:1 39364:1 48205:1 48207:1 48209:1 49049:1 54509:1 60808:1 69669:1 73406:1 
-0 -0 -0 -0.252752996590877 -0 0 0 0 0 0 0 0 0 0 0 0 0 0 7:1 23:1 38:1 54:1 72:1 92:1 119:1 190:1 238:1 310:1 382:1 463:1 10004:1 23289:1 29251:1 39267:1 48205:1 48207:1 48209:1 52524:1 54509:1 60867:1 69511:1 73406:1 
-0.2016319447285076 -0 -0 -0.113076482559069 -0 0 0 0 0 0 0 0 0 0 0 0 0 0 9:1 23:1 36:1 51:1 68:1 91:1 121:1 167:1 238:1 310:1 382:1 612:1 10004:1 19924:1 29106:1 45261:1 48205:1 48207:1 48209:1 48255:1 54509:1 60880:1 67390:1 73406:1 
-0 -0 -0 -0 -0 0 0 0 0 0 0 0 0.1482906570174503 0 0 0 0 0 3:1 23:1 43:1 56:1 71:1 91:1 105:1 185:1 243:1 310:1 382:1 1948:1 10004:1 26401:1 31536:1 38662:1 48205:1 48207:1 48209:1 49245:1 54509:1 60880:1 70196:1 73406:1 
-0 -0 -0.1077331914253955 -0 -0.2 0 0 0.09047148832133338 0 0 0 0 0 0 0 0 0 0 3:1 23:1 38:1 54:1 74:1 92:1 105:1 179:1 238:1 310:1 382:1 7616:1 10004:1 23858:1 29208:1 38668:1 48205:1 48207:1 48209:1 52915:1 54509:1 65512:1 69951:1 73406:1 
-0 -0.2257132066831055 -0 -0 -0 0 0 0 0 0 0 0 0 0 0 0.188400202567481 0 0 7:1 23:1 38:1 54:1 74:1 88:1 112:1 178:1 238:1 323:1 382:1 468:1 10004:1 23858:1 29208:1 45815:1 48205:1 48207:1 48209:1 48223:1 59214:1 60825:1 69951:1 73406:1 
-0 -0 -0 -0 -0 0 0.09474276591785845 0 0 0 0 0 0.101525932217403 0 0 0 0 0 3:1 23:1 38:1 54:1 74:1 91:1 105:1 185:1 243:1 311:1 382:1 7614:1 13889:1 23858:1 29208:1 45036:1 48205:1 48207:1 48209:1 52913:1 54526:1 60808:1 69951:1 73406:1 
-0.1801096268567636 -0 -0 -0 -0 0 0 0 0 0 0 0 0 0 0 0 0 0 3:1 23:1 40:1 55:1 73:1 100:1 152:1 167:1 238:1 310:1 382:1 7679:1 10004:1 21335:1 36330:1 45878:1 48205:1 48207:1 48209:1 52961:1 54509:1 65556:1 68256:1 73406:1 
-0 -0 -0.09150977320373115 -0 -0.1065725398732201 0 0 0 0 0 0 0 0 0 0.1133480245860195 0 0 0 15:1 23:1 40:1 55:1 73:1 88:1 151:1 168:1 238:1 311:1 382:1 7678:1 10004:1 21335:1 36330:1 45876:1 48205:1 48207:1 48209:1 52960:1 59260:1 60812:1 68256:1 73406:1 
-0 -0 -0 -0.08184654845852947 -0 0 0 0 0 0 0 0 0 0 0 0 0 0 9:1 23:1 39:1 59:1 71:1 91:1 121:1 167:1 238:1 310:1 382:1 5054:1 10004:1 27221:1 29215:1 40914:1 48205:1 48207:1 48209:1 51165:1 54509:1 60880:1 72064:1 73406:1 
-0 -0 -0.1250438121458689 -0 -0 0 0 0 0 0 0 0 0.08173802858375666 0.1838402606596217 0.2060556449484368 0 0.1477541273528911 0 3:1 23:1 38:1 55:1 71:1 89:1 152:1 169:1 238:1 310:1 382:1 5255:1 10004:1 23743:1 32768:1 38663:1 48205:1 48207:1 48209:1 51375:1 54509:1 63462:1 69601:1 73406:1 
-0.1054246310532858 -0 -0 -0.2178649165046736 -0 0 0 0 0 0 0 0 0 0 0 0 0 0 4:1 23:1 38:1 55:1 71:1 88:1 109:1 167:1 238:1 313:1 382:1 463:1 10004:1 23743:1 32768:1 42682:1 48205:1 48207:1 48209:1 48214:1 57674:1 60886:1 69601:1 73406:1 
-0 -0 -0 -0 -0.09994157703771586 0 0 0 0 0 0 0 0 0 0 0 0 0 3:1 23:1 41:1 57:1 73:1 91:1 114:1 185:1 243:1 310:1 382:1 7308:1 10004:1 26409:1 29118:1 45036:1 48205:1 48207:1 48209:1 52685:1 54509:1 60808:1 71583:1 73406:1 
-0.1272058941814528 -0.12528693567702 -0.120792885066736 -0.2075562593365678 -0 0.08444710307720042 0 0 0 0 0 0 0 0 0.1255483648057615 0 0 0 3:1 23:1 36:1 51:1 68:1 91:1 114:1 185:1 243:1 310:1 382:1 8352:1 10004:1 27453:1 29106:1 46551:1 48205:1 48207:1 48209:1 48638:1 54509:1 60821:1 72316:1 73406:1 
-0 -0 -0 -0 -0 0 0 0 0 0 0.09243685949072107 0 0 0 0 0 0 0 9:1 23:1 38:1 54:1 70:1 94:1 121:1 190:1 238:1 310:1 393:1 8392:1 10004:1 24158:1 29416:1 38888:1 48205:1 48207:1 48209:1 53456:1 54509:1 60808:1 68446:1 73429:1 
-0 -0 -0 -0 -0 0 0 0 0 0 0 0 0 0 0 0.1353171754445358 0 0 8:1 23:1 40:1 60:1 73:1 91:1 115:1 187:1 238:1 310:1 382:1 3498:1 10004:1 20186:1 35826:1 38902:1 48205:1 48207:1 48209:1 48434:1 54509:1 63333:1 67296:1 73406:1 
-0 -0 -0 -0 -0.2178649165046736 0.08744353540513698 0 0 0 0 0 0 0 0 0 0 0 0 9:1 23:1 39:1 59:1 71:1 93:1 121:1 167:1 238:1 310:1 382:1 676:1 10004:1 27904:1 29158:1 47003:1 48205:1 48207:1 48209:1 48388:1 54509:1 60808:1 72628:1 73406:1 
-0.1521041836319646 -0 -0 -0.1868019559731899 -0 0 0 0 0 0 0 0 0 0 0 0.1825233038661796 0 0 8:1 23:1 39:1 54:1 76:1 88:1 131:1 167:1 238:1 310:1 382:1 8903:1 10004:1 23048:1 29132:1 40989:1 48205:1 48207:1 48209:1 53792:1 54509:1 60812:1 67670:1 73406:1 
-0 -0 -0 -0 -0 0.1027204540939846 0 0 0 0 0 0 0 0 0 0 0 0 9:1 23:1 44:1 61:1 74:1 91:1 121:1 167:1 238:1 334:1 382:1 512:1 10004:1 26276:1 29651:1 47369:1 48205:1 48207:1 48209:1 52456:1 58755:1 60808:1 67185:1 73406:1 
-0 -0 -0 -0 -0 0.113407629079704 0.05340538223028969 0.08313961589109227 0.07503378664995254 0.0479431418572264 0.05672127320059347 0.04926945089908884 0.08500375561484018 0.06436397614493358 0.07311995292676521 0.1736111042124256 0.06660185090088022 0.08896711954122101 9:1 23:1 37:1 57:1 77:1 91:1 121:1 167:1 238:1 310:1 382:1 9745:1 10004:1 19653:1 38379:1 47944:1 48205:1 48207:1 48209:1 49230:1 54509:1 60808:1 67155:1 73406:1 
-0.2230184227478748 -0 -0.1666019605729102 -0.1686386240353893 -0.1037820887901063 -0.08744353540513698 0.1170099422918663 0 0 0.09932308986229481 0 0 0 0 0 0 0 0 4:1 23:1 39:1 54:1 76:1 88:1 109:1 166:1 238:1 313:1 382:1 629:1 10004:1 19721:1 29155:1 38654:1 48205:1 48207:1 48209:1 48349:1 54515:1 60808:1 67241:1 73406:1 
-0.1194978005008321 -0.1210793353441874 -0.07667547241147438 -0 -0 -0.1027204540939846 0 0.08163347382025835 0 0 0 0 0.1617078930211356 0 0 0.1415879852811215 0 0.09177804244497952 4:1 23:1 37:1 53:1 74:1 91:1 109:1 166:1 238:1 313:1 382:1 484:1 10004:1 20628:1 30179:1 38654:1 48205:1 48207:1 48209:1 48236:1 54861:1 60808:1 67584:1 73406:1 
-0.1537528565904679 -0 -0 -0.1340908887095288 -0 -0.1158435308010349 0 0 0 0 0 0 0 0 0 0 0 0 9:1 23:1 38:1 54:1 74:1 91:1 121:1 166:1 238:1 310:1 382:1 1742:1 10004:1 19604:1 29163:1 38654:1 48205:1 48207:1 48209:1 49130:1 54509:1 60808:1 67151:1 73406:1 
-0.2003716611729608 -0.1398518491674353 -0.1683762413042486 -0 -0.1785835979384358 -0.1383150180324611 0 0.1382209859323339 0.0924422782137438 0.1947801874890131 0 0.09275346770252423 0.1186968728350199 0.1204741289141546 0.147501726674679 0.1441474185528588 0 0 1:1 23:1 39:1 54:1 76:1 85:1 103:1 166:1 238:1 310:1 384:1 476:1 10004:1 19874:1 29158:1 38654:1 48205:1 48207:1 48209:1 48230:1 54509:1 60808:1 67115:1 73418:1 
-0 -0 -0 -0 -0.08364298034205231 -0.2710635780018324 0 0 0 0 0 0 0 0 0 0 0 0 9:1 23:1 37:1 55:1 74:1 92:1 121:1 166:1 238:1 334:1 382:1 473:1 10004:1 20567:1 29526:1 38654:1 48205:1 48207:1 48209:1 49493:1 55792:1 60808:1 67849:1 73406:1 
-0.1656322953369286 -0.07285347070092589 -0.120021022915724 -0.07695689976674934 -0 -0.1339032979275045 0 0.1322751332763021 0.07959410003971887 0 0.1506666642648202 0.1468621381291474 0 0 0.1502645500142578 0 0 0 4:1 23:1 39:1 59:1 71:1 87:1 109:1 166:1 238:1 313:1 393:1 1688:1 10004:1 20701:1 29215:1 38654:1 48205:1 48207:1 48209:1 49093:1 54671:1 60808:1 67881:1 73429:1 
-0 -0 -0 -0 -0 -0 0 0.1110762717039493 0 0 0 0 0 0 0 0 0 0 9:1 23:1 39:1 54:1 72:1 89:1 121:1 166:1 238:1 310:1 382:1 509:1 10004:1 21441:1 29162:1 38654:1 48205:1 48207:1 48209:1 48256:1 54509:1 60808:1 68401:1 73406:1 
-0.1806084992619842 -0 -0 -0 -0.1710874696100913 -0.1764315498681775 0 0 0 0 0 0 0 0.1336608272544937 0.1031055485502018 0 0.1458375679008142 0 4:1 23:1 43:1 55:1 74:1 87:1 109:1 166:1 238:1 313:1 382:1 484:1 10004:1 21992:1 29712:1 38654:1 48205:1 48207:1 48209:1 48236:1 54515:1 60808:1 68384:1 73406:1 
-0 -0 -0 -0 -0 -0.1634074105156793 0 0 0 0 0 0 0 0 0 0 0 0 9:1 23:1 37:1 55:1 71:1 89:1 121:1 166:1 238:1 310:1 382:1 509:1 10004:1 22996:1 32547:1 38654:1 48205:1 48207:1 48209:1 48256:1 54509:1 60808:1 67194:1 73406:1 
-0 -0 -0 -0 -0 -0 0 0 0 0 0.1131299913094286 0 0 0 0 0 0 0 9:1 23:1 39:1 54:1 70:1 89:1 121:1 166:1 238:1 310:1 382:1 509:1 10004:1 24287:1 29132:1 38654:1 48205:1 48207:1 48209:1 48256:1 54509:1 60808:1 69863:1 73406:1 
-0 -0 -0.09795625419986433 -0 -0 -0 0 0 0 0 0 0 0 0 0.1532848312600028 0 0 0 9:1 23:1 39:1 54:1 72:1 89:1 121:1 166:1 238:1 334:1 382:1 518:1 10004:1 26760:1 29132:1 38654:1 48205:1 48207:1 48209:1 52947:1 59246:1 60808:1 70415:1 73406:1 
-0 -0 -0.1204292340506553 -0 -0 -0 0 0 0 0 0.1186577789196996 0.1159760761645781 0 0 0 0 0 0 9:1 23:1 38:1 54:1 70:1 92:1 121:1 166:1 238:1 310:1 391:1 4967:1 10004:1 24158:1 29416:1 38654:1 48205:1 48207:1 48209:1 50847:1 54509:1 60808:1 68446:1 73429:1 
-0 -0 -0.1736111042124256 -0 -0 -0 0 0 0 0 0 0 0 0 0 0 0 0 9:1 23:1 38:1 54:1 73:1 91:1 121:1 166:1 238:1 310:1 382:1 509:1 10004:1 19874:1 29152:1 38654:1 48205:1 48207:1 48209:1 48256:1 54509:1 60808:1 67115:1 73406:1 
-0.2178649165046736 -0 -0 -0.1202903946227381 -0 -0.2 0 0 0 0 0 0 0 0 0.1292197841120548 0 0 0 9:1 23:1 36:1 51:1 68:1 91:1 121:1 166:1 238:1 310:1 382:1 8157:1 10004:1 28140:1 29106:1 38654:1 48205:1 48207:1 48209:1 53226:1 54509:1 60808:1 72786:1 73406:1 
-0 -0.1003289722299105 -0 -0 -0 -0 0 0 0 0 0 0 0 0 0 0 0 0 9:1 23:1 40:1 56:1 76:1 89:1 121:1 166:1 238:1 310:1 382:1 509:1 10004:1 20186:1 37793:1 38654:1 48205:1 48207:1 48209:1 48256:1 54509:1 60808:1 67296:1 73406:1 
-0 -0 -0 -0 -0 -0 0 0 0 0 0 0 0.1743934245871238 0 0 0 0 0 9:1 23:1 44:1 55:1 71:1 89:1 121:1 166:1 238:1 310:1 382:1 509:1 10004:1 26276:1 30200:1 38654:1 48205:1 48207:1 48209:1 48256:1 54509:1 60808:1 67185:1 73406:1 
-0.1482363770533298 -0 -0 -0 -0 -0 0 0 0 0 0 0 0 0 0 0 0 0 9:1 23:1 39:1 54:1 72:1 89:1 121:1 166:1 238:1 310:1 382:1 509:1 10004:1 26276:1 29491:1 38654:1 48205:1 48207:1 48209:1 48256:1 54509:1 60808:1 67185:1 73406:1 
-0 -0 -0 -0.1736111042124256 -0.1710235706032136 -0 0 0 0 0 0 0 0 0 0 0 0 0 9:1 23:1 39:1 59:1 70:1 89:1 121:1 166:1 238:1 310:1 382:1 509:1 10004:1 28496:1 29158:1 38654:1 48205:1 48207:1 48209:1 48256:1 54509:1 60808:1 67611:1 73406:1 
-0 -0 -0 -0 -0 -0 0 0 0 0 0 0 0 0 0.0787027180290195 0 0 0 9:1 23:1 38:1 54:1 72:1 89:1 121:1 166:1 238:1 310:1 382:1 509:1 10004:1 22956:1 29224:1 38654:1 48205:1 48207:1 48209:1 48256:1 54509:1 60808:1 69320:1 73406:1 
-0.09353146271689687 -0.2 -0.1513948895002482 -0 -0.1636661303093792 -0 0.1420454553151426 0.1636661303093792 0.1059346451001253 0.08620565527754941 0.08687000869057143 0.05763502804784756 0.2178649165046736 0.1736111042124256 0.2 0.1636661303093792 0.2178649165046736 0.1636661303093792 9:1 23:1 36:1 56:1 71:1 92:1 121:1 166:1 238:1 310:1 382:1 1939:1 10004:1 29013:1 29130:1 38654:1 48205:1 48207:1 48209:1 49253:1 54509:1 60808:1 69495:1 73406:1 
-0.1481481481481481 -0.1481481481481481 -0.1552795017259062 -0.1420454553151426 -0.1367989066795754 -0.2412843712293924 -0.1420454553151426 0.1362620643168246 0.08064829065356974 0.0883797114401435 0.1084259262791386 0.124572774533087 0.148089951207436 0.1299006659489464 0.1372399708777012 0.130648997034436 0.09600376212212638 0.07407407407407407 3:1 23:1 39:1 54:1 76:1 91:1 114:1 185:1 243:1 310:1 383:1 628:1 10004:1 19721:1 29155:1 38826:1 48205:1 48207:1 48209:1 48348:1 54509:1 60808:1 67241:1 73545:1 
-0.1339615963124322 -0.1275720195756559 -0.1100543483290967 -0.1176196502180413 -0.1120041040285173 -0.2201351186494441 -0.1170099422918663 0.1283697053782947 0.125 0.125 0.125 0.1322751332763021 0.1420454553151426 0.1367989066795754 0.1283697053782947 0.1283697053782947 0.1283697053782947 0.1283697053782947 3:1 23:1 43:1 55:1 74:1 91:1 105:1 185:1 243:1 312:1 383:1 1090:1 11563:1 21992:1 29712:1 41090:1 48205:1 48207:1 48209:1 48692:1 54532:1 60847:1 68384:1 73432:1 
-0.1659392687499582 -0 -0.3088533507271803 -0 -0.1496832248188507 -0.1711959047810408 -0 -0 0 0 0 0 0 0 0.1231901468652793 0 0 0 6:1 23:1 39:1 59:1 71:1 92:1 108:1 186:1 244:1 310:1 382:1 1692:1 10004:1 20793:1 29158:1 38738:1 48205:1 48207:1 48209:1 49096:1 54509:1 61106:1 67477:1 73406:1 
-0.1009919175297051 -0.09381216963078728 -0.3031501314048297 -0.09801085749406893 -0.1951550764275265 -0.1570790397839108 -0.08163347382025835 -0 0 0 0 0 0 0.1106885109568477 0.1724249851903161 0.06980757107793467 0 0 6:1 23:1 42:1 54:1 75:1 92:1 108:1 179:1 239:1 331:1 382:1 2391:1 10066:1 20116:1 31042:1 39614:1 48205:1 48207:1 48209:1 48530:1 54835:1 62127:1 67533:1 73406:1 
-0 -0.1263794206103603 -0.3086419971118972 -0 -0.1681772455794522 -0.09246800586560756 -0 -0 0 0 0 0 0 0 0.2373256092179421 0 0 0 6:1 23:1 39:1 54:1 76:1 92:1 108:1 186:1 244:1 310:1 382:1 1692:1 10004:1 22386:1 29215:1 38738:1 48205:1 48207:1 48209:1 49096:1 54509:1 61106:1 67570:1 73406:1 
-0.1382230524271191 -0.1552795017259062 -0.2430840052928548 -0.1223357154305108 -0.136439474092834 -0.232887174392906 -0.1322751332763021 -0 0 0 0 0.07602145909594689 0.09307633405882074 0.150814136829455 0.1683171624628071 0.1427531452449706 0.1222413031655694 0.0762140730942298 6:1 23:1 36:1 61:1 74:1 89:1 110:1 169:1 238:1 310:1 401:1 500:1 10004:1 23631:1 29130:1 38966:1 48205:1 48207:1 48209:1 48250:1 54509:1 63030:1 67638:1 74678:1 
-0.1736111042124256 -0.1485748584918123 -0.4880080277482386 -0.195613896513527 -0.1754500882578024 -0.2867232461837336 -0.1382209859323339 -0.1283697053782947 0.09410890212379809 0.1031355415441707 0.1330717064947114 0.1173035358175826 0.1190960012782943 0.08764600073377923 0.1945449116153808 0.1693641337839634 0 0.09130657950750941 6:1 23:1 39:1 54:1 72:1 91:1 110:1 184:1 238:1 310:1 382:1 4603:1 10004:1 20823:1 29162:1 40167:1 48205:1 48207:1 48209:1 50936:1 54509:1 60808:1 68015:1 73406:1 
-0.1225637955900832 -0.1390677946097839 -0.2887486488453975 -0.1311027167966766 -0.1526791222217311 -0.1607280940395478 -0.1110762717039493 -0 0 0 0.08892378073790796 0 0.1443797759514867 0.07828445615389594 0.1472604223309349 0.08675372119105451 0 0 6:1 23:1 38:1 59:1 71:1 95:1 137:1 181:1 261:1 310:1 382:1 1829:1 10004:1 25916:1 29494:1 38770:1 48205:1 48207:1 48209:1 48270:1 54509:1 60862:1 69986:1 73406:1 
-0.1211390406131154 -0 -0.4429643212831097 -0.1736111042124256 -0.2 -0.1406617388342945 -0.1636661303093792 -0.1362620643168246 0.2403846242018708 0.1552795017259062 0.08468732347451768 0.07925804262995927 0.1636661303093792 0.09788274440606498 0.3274817383332249 0.06139442695709363 0.1636661303093792 0.07193407505391834 6:1 23:1 39:1 59:1 71:1 92:1 108:1 179:1 244:1 310:1 382:1 6872:1 10004:1 25973:1 29155:1 38668:1 48205:1 48207:1 48209:1 52410:1 54509:1 60856:1 71308:1 73406:1 
-0.2911490746354778 -0.2277144473042828 -0.5 -0.2554441727543587 -0.2970540163660511 -0.2386703452453743 -0.277971023353588 -0.2056482906535697 -0.3344935263256689 0.1855287451398442 0.2178649165046736 0.1855287451398442 0.2 0.1636661303093792 0.3904805594354092 0.1552795017259062 0.2 0.1552795017259062 6:1 23:1 39:1 59:1 71:1 85:1 108:1 166:1 244:1 310:1 382:1 769:1 10004:1 20798:1 29155:1 38654:1 48205:1 48207:1 48209:1 48456:1 54509:1 60808:1 67288:1 73406:1 
-0.3153326975174983 -0.2578124993650073 -0.3344226499512566 -0.2554441727543587 -0.2718111413937083 -0.4350543142456234 -0.3803089326288573 -0.2133797114401435 -0.2584150432700769 -0.1855287451398442 0.2403846242018708 0.1855287451398442 0.2 0.1636661303093792 0.2 0.2601325275625399 0.2 0.1636661303093792 2:1 23:1 39:1 54:1 76:1 86:1 111:1 166:1 238:1 310:1 382:1 467:1 10004:1 19874:1 29158:1 38654:1 48205:1 48207:1 48209:1 48222:1 54509:1 60808:1 67115:1 73406:1 
-0.2664466545525058 -0.1481481481481481 -0.1438432117790939 -0.1855287451398442 -0.1705400973247327 -0.3040617838281213 -0.2 -0.1084259262791386 -0.1736111042124256 -0.2178649165046736 -0.2403846242018708 0.3932747836804578 0.1633986925728096 0.1159554742980974 0.1306181591638154 0.1272284063474049 0.1769230751596258 0 2:1 23:1 39:1 59:1 71:1 86:1 116:1 166:1 238:1 310:1 382:1 480:1 10004:1 20701:1 29215:1 38654:1 48205:1 48207:1 48209:1 48233:1 54509:1 60808:1 67881:1 73406:1 
-0.1636661303093792 -0.2883776302081875 -0.2501741264018067 -0.1159554742980974 -0.1636661303093792 -0.3135814739814018 -0.2693244431845198 -0.125 -0.1330717064947114 -0 -0 0.5 0.2178649165046736 0.1855287451398442 0.2403846242018708 0.1855287451398442 0.2 0.1636661303093792 2:1 23:1 38:1 54:1 70:1 94:1 116:1 166:1 238:1 310:1 382:1 480:1 10004:1 24158:1 29416:1 38654:1 48205:1 48207:1 48209:1 48233:1 54509:1 60808:1 68446:1 73406:1 
-0.1552795017259062 -0.1636661303093792 -0.2427298277291647 -0.1636661303093792 -0.1403034904049342 -0.2889734945109519 -0.1736111042124256 -0.1322751332763021 -0.1552795017259062 -0.1855287451398442 -0 -0.3932747836804578 0.1395768260404077 0.1049648468008673 0.108592594994439 0.1127477665176912 0.1348958276419178 0 2:1 23:1 39:1 59:1 71:1 91:1 116:1 166:1 238:1 310:1 383:1 480:1 10004:1 20701:1 29215:1 38654:1 48205:1 48207:1 48209:1 48233:1 54509:1 60808:1 67881:1 74289:1 
-0.1357107350232299 -0.1680689999194779 -0.1420454553151426 -0.1049648468008673 -0.1481481481481481 -0.2430935197678607 -0.2396156058316716 -0.124572774533087 -0.1173035358175826 -0 -0.1855287451398442 -0.5 0.1855287451398442 0.1636661303093792 0.2 0.1636661303093792 0.1736111042124256 0.1481481481481481 2:1 23:1 38:1 54:1 70:1 94:1 116:1 166:1 238:1 310:1 383:1 480:1 10004:1 24158:1 29416:1 38654:1 48205:1 48207:1 48209:1 48233:1 54509:1 60808:1 68446:1 78652:1 
-0.2189346287189505 -0.1165539831224281 -0.1459627322805121 -0.1240685744186436 -0.1745773988001007 -0.1727586772972085 -0.1617078930211356 -0.148089951207436 -0.1636661303093792 -0.2 -0.08589981112295585 -0.1633986925728096 -0.1395768260404077 0.1158744351924103 0.1391525850260938 0.1147002430378278 0 0 3:1 23:1 38:1 59:1 71:1 91:1 105:1 166:1 243:1 310:1 382:1 1765:1 10004:1 21570:1 29177:1 38654:1 48205:1 48207:1 48209:1 48709:1 54509:1 60808:1 68471:1 73406:1 
-0.1154516771711013 -0.1455026453067645 -0.1503145346229141 -0.1319325635956391 -0.1536657870727785 -0.2498165892348533 -0.1743934245871238 -0.1420454553151426 -0.1190960012782943 -0 -0 -0 -0 0.1247433475909501 0.1481481481481481 0.1486978624243136 0.1454810014133804 0.07763975429723098 3:1 23:1 36:1 61:1 74:1 91:1 114:1 166:1 243:1 311:1 382:1 4511:1 10004:1 23631:1 29130:1 38654:1 48205:1 48207:1 48209:1 49482:1 54513:1 60808:1 67638:1 73406:1 
-0 -0 -0.1510348558263848 -0 -0.1855287451398442 -0 -0 -0 -0 -0 -0 -0 -0 0 0 0 0 0 10:1 23:1 38:1 61:1 78:1 89:1 128:1 166:1 238:1 310:1 382:1 538:1 10004:1 26276:1 29134:1 38654:1 48205:1 48207:1 48209:1 48282:1 54509:1 60808:1 67185:1 73406:1 
-0.1263308969378844 -0 -0.1552795017259062 -0 -0.08846867755911164 -0.1082809764611924 -0.1186968728350199 -0 -0.09307633405882074 -0 -0.1141001888770442 -0.2178649165046736 -0.1855287451398442 0 0.111651461697883 0 0 0 10:1 23:1 38:1 54:1 72:1 89:1 128:1 166:1 238:1 310:1 382:1 538:1 10004:1 26276:1 37343:1 38654:1 48205:1 48207:1 48209:1 48282:1 54509:1 60808:1 67185:1 73406:1 
-0.1636661303093792 -0.1552795017259062 -0 -0.1636661303093792 -0 -0.1636661303093792 -0.2178649165046736 -0 -0.1443797759514867 -0 -0 -0 -0 0.1855287451398442 0.2 0.1855287451398442 0.2178649165046736 0.1855287451398442 10:1 23:1 38:1 56:1 71:1 89:1 128:1 166:1 238:1 310:1 382:1 538:1 10004:1 26276:1 29134:1 38654:1 48205:1 48207:1 48209:1 48282:1 54509:1 60808:1 67185:1 73406:1 
-0.141895976728426 -0.1514214791944435 -0.1422213082884603 -0.1549806963599014 -0.1334432814310553 -0.1838402606596217 -0.1204741289141546 -0.1367989066795754 -0.1889729671107437 -0 -0.08183306515468958 -0.1855287451398442 -0.1636661303093792 -0.1158744351924103 0.139508930143833 0.1688976594956484 0 0.08602637641684176 5:1 23:1 38:1 54:1 70:1 91:1 107:1 185:1 238:1 310:1 382:1 485:1 10004:1 22199:1 29108:1 41298:1 48205:1 48207:1 48209:1 48216:1 54509:1 60847:1 68876:1 73406:1 
-0.1068047685702452 -0 -0.1639597197127341 -0.1148587876109308 -0.1855287451398442 -0.1369474141408789 -0 -0 -0.1855287451398442 -0 -0 -0 -0 -0 0.08895113432005072 0 0 0 5:1 23:1 43:1 55:1 71:1 92:1 107:1 179:1 238:1 310:1 382:1 508:1 10004:1 22816:1 29643:1 38668:1 48205:1 48207:1 48209:1 48216:1 54509:1 63116:1 67531:1 73406:1 
-0.1636661303093792 -0.1481481481481481 -0.0915428510766042 -0.1636661303093792 -0 -0.1636661303093792 -0.1736111042124256 -0 -0 -0.1636661303093792 -0 -0 -0 -0.1855287451398442 0.1648026995296687 0.1694325801051712 0.153493908886783 0 5:1 23:1 43:1 55:1 71:1 89:1 107:1 169:1 238:1 310:1 382:1 508:1 10004:1 22816:1 29643:1 39575:1 48205:1 48207:1 48209:1 48216:1 54509:1 60808:1 67531:1 73406:1 
-0.1652733249092643 -0.1442011652167919 -0.2455244276892833 -0.137977051173789 -0.1521335799269033 -0.288511521711344 -0.1336608272544937 -0.1299006659489464 -0.150814136829455 -0 -0.08183306515468958 -0.1159554742980974 -0.1049648468008673 -0.1247433475909501 0.1736111042124256 0.1736111042124256 0.1636661303093792 0.1552795017259062 8:1 23:1 42:1 58:1 76:1 89:1 124:1 169:1 238:1 310:1 382:1 4653:1 10004:1 22668:1 37863:1 38684:1 48205:1 48207:1 48209:1 48401:1 54509:1 62218:1 67281:1 73406:1 
-0.1594473595490675 -0 -0.3897128383909164 -0 -0.09209302982028797 -0.1643027131243843 -0.1532848312600028 -0.1372399708777012 -0.1945449116153808 -0.1500959352335383 -0.09276437256992211 -0 -0 -0.1391525850260938 -0 0 0 0 6:1 23:1 39:1 54:1 72:1 85:1 137:1 166:1 244:1 310:1 382:1 5539:1 10061:1 24640:1 29155:1 38654:1 48205:1 48207:1 48209:1 51058:1 54509:1 60808:1 70208:1 73406:1 
-0 -0 -0 -0 -0 -0.1133480245860195 -0 -0 -0 -0 -0 -0 -0 -0 -0 0 0 0 6:1 23:1 40:1 55:1 73:1 92:1 137:1 186:1 269:1 329:1 382:1 6836:1 10004:1 21335:1 36330:1 38703:1 48205:1 48207:1 48209:1 48288:1 57145:1 60817:1 68256:1 73406:1 
-0.1491073981527238 -0.150138896320832 -0.143499424819352 -0.1855287451398442 -0.1132949224531004 -0 -0.2 -0 -0 -0.1201923121009354 -0 -0 -0 -0.111651461697883 -0 0 0 0 6:1 23:1 39:1 59:1 71:1 87:1 136:1 166:1 238:1 310:1 382:1 7842:1 10004:1 26274:1 29132:1 38654:1 48205:1 48207:1 48209:1 48288:1 54509:1 60808:1 70639:1 73406:1 
-0 -0 -0.151271531498195 -0 -0 -0 -0 -0 -0 -0 -0 -0 -0 -0 -0 0 0 0 6:1 23:1 38:1 54:1 70:1 88:1 137:1 181:1 244:1 310:1 382:1 6836:1 10376:1 27079:1 29123:1 43272:1 48205:1 48207:1 48209:1 48288:1 54509:1 63562:1 68341:1 73406:1 
-0 -0 -0.1458385353974864 -0 -0.1115427707401406 -0 -0 -0 -0 -0 -0 -0 -0 -0 -0 0 0 0 6:1 23:1 39:1 54:1 72:1 87:1 108:1 179:1 239:1 310:1 382:1 2714:1 10066:1 25942:1 29263:1 38680:1 48205:1 48207:1 48209:1 48288:1 54509:1 62768:1 67856:1 73406:1 
-0 -0 -0.1426794143231895 -0 -0 -0 -0 -0 -0 -0 -0 -0 -0 -0 -0 0 0 0 6:1 23:1 38:1 54:1 72:1 85:1 118:1 166:1 307:1 310:1 382:1 8075:1 10030:1 26592:1 29123:1 38654:1 48205:1 48207:1 48209:1 48288:1 54509:1 60808:1 71720:1 73406:1 
-0 -0 -0.1688549374778164 -0 -0.1844306122416301 -0.1578612798316356 -0.0787027180290195 -0 -0.1724249851903161 -0 -0 -0 -0 -0 -0 0 0 0 6:1 23:1 39:1 59:1 71:1 92:1 108:1 186:1 238:1 311:1 382:1 2714:1 10004:1 27221:1 29215:1 38738:1 48205:1 48207:1 48209:1 48288:1 57464:1 60856:1 72064:1 73406:1 
-0 -0 -0 -0 -0.1610792001723657 -0 -0 -0 -0 -0 -0 -0 -0 -0 -0 0 0 0 6:1 23:1 41:1 57:1 73:1 85:1 137:1 166:1 247:1 329:1 382:1 6836:1 10015:1 26409:1 29118:1 38654:1 48205:1 48207:1 48209:1 48288:1 58984:1 60808:1 71583:1 73406:1 
-0.1733140563295522 -0.1257478655215447 -0.2603033266136028 -0.1689406765322831 -0.1681616420831822 -0.1354460378894288 -0.1502645500142578 -0 -0.1472604223309349 -0 -0 -0 -0 -0 -0.08895113432005072 0.1382241961315678 0 0 6:1 23:1 36:1 51:1 68:1 92:1 137:1 179:1 238:1 329:1 382:1 8351:1 10004:1 27453:1 29106:1 38668:1 48205:1 48207:1 48209:1 48742:1 54937:1 60886:1 72316:1 73406:1 
-0 -0 -0.07822888647433901 -0 -0 -0 -0 -0 -0 -0 -0 -0 -0 -0 -0 0 0 0 6:1 23:1 43:1 60:1 77:1 85:1 108:1 166:1 247:1 310:1 382:1 7593:1 10015:1 27483:1 29338:1 38654:1 48205:1 48207:1 48209:1 48288:1 54509:1 60808:1 72342:1 73406:1 
-0 -0 -0 -0 -0 -0 -0 -0 -0.1231901468652793 -0 -0 -0 -0 -0 -0 0 0 0 6:1 23:1 39:1 59:1 71:1 88:1 137:1 181:1 244:1 310:1 382:1 6836:1 10030:1 27221:1 29158:1 45959:1 48205:1 48207:1 48209:1 48288:1 54509:1 60838:1 72064:1 73406:1 
-0 -0.1081592492200971 -0 -0 -0 -0.1878839631856719 -0 -0 -0 -0 -0 -0 -0 -0 -0 0 0 0 6:1 23:1 38:1 54:1 72:1 88:1 108:1 181:1 257:1 310:1 382:1 7669:1 18020:1 27571:1 29140:1 42323:1 48205:1 48207:1 48209:1 48288:1 54509:1 60812:1 70243:1 73406:1 
-0.09890064719483103 -0 -0.1529757220107779 -0 -0.09131186942746054 -0.1255483648057615 -0 -0 -0 -0 -0 -0 -0 -0 -0.139508930143833 0.1625794081538904 0 0 6:1 23:1 37:1 60:1 72:1 89:1 125:1 169:1 238:1 310:1 382:1 8475:1 10004:1 27571:1 32773:1 38663:1 48205:1 48207:1 48209:1 48288:1 54509:1 64170:1 70243:1 73406:1 
-0 -0 -0.09101599109583872 -0.08728310353230213 -0 -0 -0 -0 -0 -0 -0 -0 -0 -0 -0 0 0 0 6:1 23:1 35:1 54:1 72:1 88:1 137:1 181:1 244:1 310:1 382:1 6836:1 10012:1 23858:1 29205:1 44497:1 48205:1 48207:1 48209:1 48288:1 54509:1 60856:1 69951:1 73406:1 
-0 -0 -0.2839877862070365 -0 -0.1570280139145986 -0.07992206597751572 -0 -0 -0 -0 -0 -0 -0 -0 -0 0.08662486534045924 0 0 6:1 23:1 39:1 54:1 72:1 88:1 108:1 181:1 239:1 310:1 382:1 8241:1 18433:1 23041:1 29158:1 39904:1 48205:1 48207:1 48209:1 48288:1 54509:1 60808:1 68397:1 73406:1 
-0 -0 -0.1020543543656116 -0 -0 -0.1006089163012737 -0 -0 -0 -0 -0 -0 -0 -0 -0 0 0 0 6:1 23:1 37:1 55:1 71:1 88:1 137:1 181:1 244:1 310:1 382:1 4309:1 10035:1 22628:1 32992:1 44231:1 48205:1 48207:1 48209:1 48288:1 54509:1 60834:1 67166:1 73406:1 
-0 -0 -0.08850902388318602 -0 -0.1408857820130348 -0 -0.1031055485502018 -0 -0 -0 -0 -0 -0 -0 -0 0 0 0 6:1 23:1 38:1 54:1 69:1 85:1 108:1 166:1 239:1 311:1 382:1 8241:1 10030:1 27079:1 29113:1 38654:1 48205:1 48207:1 48209:1 48288:1 58878:1 60808:1 68341:1 73406:1 
-0.1645770508754046 -0 -0.2176560653706407 -0 -0 -0 -0 -0 -0.1096168218285512 -0 -0 -0 -0 -0 -0 0 0 0 6:1 23:1 39:1 54:1 72:1 92:1 108:1 179:1 239:1 310:1 382:1 7593:1 10004:1 23870:1 29155:1 42499:1 48205:1 48207:1 48209:1 48288:1 54509:1 60808:1 69960:1 73406:1 
-0 -0 -0 -0 -0.1614043337944156 -0 -0 -0 -0 -0 -0 -0.1306181591638154 -0.108592594994439 -0 -0 0 0 0 6:1 23:1 40:1 53:1 78:1 85:1 108:1 166:1 244:1 310:1 382:1 7593:1 10051:1 24158:1 34271:1 38654:1 48205:1 48207:1 48209:1 48288:1 54509:1 60808:1 68446:1 73406:1 
-0 -0 -0.10640506579074 -0.1859029534649611 -0.2 -0 -0 -0 -0.2373256092179421 -0 -0 -0 -0 -0 -0 0 0 0 6:1 23:1 39:1 54:1 70:1 92:1 108:1 179:1 257:1 310:1 382:1 8554:1 10004:1 28209:1 29215:1 38668:1 48205:1 48207:1 48209:1 48288:1 54509:1 63463:1 72830:1 73406:1 
-0 -0.1636661303093792 -0.08484623185964348 -0.1183583596147286 -0 -0.2060556449484368 -0.1292197841120548 -0.1283697053782947 -0.1683171624628071 -0 -0 -0 -0 -0.1481481481481481 -0.1736111042124256 0 0.1616062031162526 0 6:1 23:1 36:1 55:1 71:1 89:1 125:1 169:1 238:1 310:1 382:1 9158:1 10004:1 23765:1 29130:1 38718:1 48205:1 48207:1 48209:1 48288:1 54509:1 61812:1 69762:1 73406:1 
-0 -0 -0 -0 -0.1602736895532615 -0 -0 -0 -0 -0 -0 -0 -0 -0 -0 0 0 0 6:1 23:1 36:1 59:1 72:1 92:1 108:1 186:1 257:1 310:1 382:1 9211:1 10004:1 22792:1 29130:1 38703:1 48205:1 48207:1 48209:1 48288:1 54509:1 60997:1 68517:1 73406:1 
-0.07994943228160853 -0.08399981690468064 -0.2263616505338499 -0 -0.08664321977404443 -0 -0 -0 -0 -0 -0 -0 -0 -0 -0 0 0 0 6:1 23:1 38:1 54:1 76:1 92:1 108:1 186:1 257:1 310:1 382:1 8554:1 10004:1 24158:1 29930:1 47442:1 48205:1 48207:1 48209:1 48288:1 54509:1 61898:1 68446:1 73406:1 
-0 -0 -0.1680170867716386 -0 -0 -0 -0 -0 -0 -0.1201923121009354 -0 -0 -0 -0 -0 0 0 0 6:1 23:1 36:1 59:1 75:1 85:1 108:1 166:1 244:1 310:1 382:1 7593:1 10621:1 22111:1 29130:1 38654:1 48205:1 48207:1 48209:1 48288:1 54509:1 60808:1 67531:1 73406:1 
-0 -0 -0.2178649165046736 -0 -0 -0 -0 -0 -0.2178649165046736 -0 -0 -0 -0 -0 -0 0 0 0 6:1 23:1 39:1 54:1 72:1 92:1 108:1 186:1 244:1 310:1 382:1 2342:1 10066:1 28400:1 29155:1 38919:1 48205:1 48207:1 48209:1 48288:1 54509:1 60856:1 72944:1 73406:1 
-0.1636661303093792 -0 -0.1901736405445814 -0 -0.2172000074386597 -0.1636661303093792 -0.147501726674679 -0 -0 -0 -0.1072356274300779 -0.2403846242018708 -0.2 -0.2 -0.1648026995296687 0.1855287451398442 0.1855287451398442 0.1636661303093792 6:1 23:1 38:1 54:1 70:1 87:1 149:1 166:1 238:1 310:1 382:1 9323:1 10004:1 23743:1 29177:1 38654:1 48205:1 48207:1 48209:1 48288:1 54509:1 60808:1 69601:1 73406:1 
-0.1873506586671526 -0.1916731341394971 -0.1736044086003641 -0.1736111042124256 -0.1736111042124256 -0.3192111496831215 -0.1415879852811215 -0.130648997034436 -0.1427531452449706 -0 -0.08652142335011428 -0 -0 -0.1147002430378278 -0.1694325801051712 -0.1625794081538904 0.0776397538925374 0 8:1 23:1 40:1 57:1 76:1 88:1 131:1 167:1 238:1 310:1 382:1 4275:1 10004:1 25385:1 29161:1 44467:1 48205:1 48207:1 48209:1 50687:1 54509:1 60862:1 68669:1 73406:1 
-0.1588582048402836 -0.1619609202756081 -0.2226620469082924 -0.1516784003382627 -0.1550458745195337 -0.2880163002398644 -0.1441474185528588 -0 -0.1693641337839634 -0 -0 -0.1272284063474049 -0.1127477665176912 -0.1855287451398442 -0.1736111042124256 -0.224849061472027 0.1378091365136272 0.08183306854193304 10:1 23:1 37:1 60:1 74:1 89:1 127:1 169:1 238:1 310:1 382:1 869:1 10004:1 19790:1 34358:1 38803:1 48205:1 48207:1 48209:1 48387:1 54509:1 60808:1 67296:1 73406:1 
-0.2996349781821223 -0.4713905117962305 -0.2579558228230969 -0.2739674581251546 -0.1561214004544891 -0.3089282796569614 -0.1636661303093792 -0.1283697053782947 -0.2179557192260828 -0.1552795017259062 -0.1736111042124256 -0.1855287451398442 -0.1636661303093792 -0.1486978624243136 -0.1688976594956484 -0.1855287451398442 0.08602637641684176 0.1736111042124256 7:1 23:1 38:1 54:1 72:1 91:1 112:1 178:1 238:1 310:1 382:1 468:1 10004:1 22812:1 29123:1 38711:1 48205:1 48207:1 48209:1 48223:1 54509:1 60808:1 69258:1 73406:1 
-0.1362739340971966 -0.1401828727903097 -0.1653333275406449 -0.1736111042124256 -0.1578722819494956 -0.1477541273528911 -0.1458375679008142 -0.09600376212212638 -0.1636661303093792 -0.2 -0 -0.1769230751596258 -0.1348958276419178 -0.1454810014133804 -0.153493908886783 -0.1616062031162526 -0.1378091365136272 0 2:1 23:1 36:1 59:1 71:1 89:1 135:1 166:1 238:1 310:1 382:1 7243:1 10004:1 26360:1 35895:1 38654:1 48205:1 48207:1 48209:1 52642:1 54509:1 60808:1 67899:1 73406:1 
-0.1736111042124256 -0.1552795017259062 -0.1481481481481481 -0.1275800236927518 -0.1552795017259062 -0.1636661303093792 -0.2178649165046736 -0.1283697053782947 -0.1222413031655694 -0 -0.2 -0.2 -0.1736111042124256 -0.2178649165046736 -0.1636661303093792 -0.1855287451398442 -0.1636661303093792 0.1636661303093792 2:1 23:1 36:1 55:1 71:1 89:1 135:1 166:1 238:1 310:1 382:1 4339:1 10004:1 26843:1 32989:1 38654:1 48205:1 48207:1 48209:1 50742:1 54509:1 60808:1 71901:1 73406:1 
-0.4086419971118972 -0.2539259274800618 -0.2508073842421598 -0.2601325275625399 -0.2620479803010179 -0.3181070246070182 -0.2554441727543587 -0.2024437794523688 -0.2394547276556576 -0.1552795017259062 -0.1636661303093792 -0.1636661303093792 -0.1481481481481481 -0.2631684994370752 -0.2413058781427479 -0.1636661303093792 -0.2554441727543587 -0.1636661303093792 4:1 23:1 41:1 61:1 77:1 91:1 109:1 212:1 238:1 310:1 382:1 766:1 10004:1 26276:1 29188:1 47566:1 48205:1 48207:1 48209:1 48311:1 54509:1 60808:1 67185:1 73406:1 
