svm_type c_svc
kernel_type polynomial
degree 2
gamma 0.1
coef0 0.6
nr_class 9
total_sv 51
rho -0.426768 -0.107784 -0.675345 -0.507599 -0.962552 -0.777873 -0.486027 -0.8525 -0.00660747 -0.360507 -0.577947 -0.563734 -0.349136 -0.496445 -0.389726 -0.449877 -0.730418 -0.660958 -0.400494 0 -0.482627 0 0 0 0 0 0 0 0 0 0 0 0 0 0 0
label 1 2 9 57 61 4 31 13 28
nr_sv 33 9 3 1 1 1 1 1 1
SV
0.1587882976054962 0 0 0 0 0 0 0 8:1 23:1 40:1 58:1 74:1 88:1 131:1 167:1 238:1 310:1 382:1 1448:1 10004:1 19775:1 29484:1 39165:1 48205:1 48207:1 48209:1 48938:1 54509:1 60812:1 67155:1 73406:1 
0.3522283525004385 0 0 0 0 0 0 0 3:1 23:1 40:1 55:1 74:1 89:1 105:1 169:1 238:1 310:1 382:1 1408:1 10004:1 19775:1 30107:1 38658:1 48205:1 48207:1 48209:1 48904:1 54509:1 61542:1 67155:1 73406:1 
0.09531928364671254 0 0 0 0 0 0 0 8:1 23:1 40:1 53:1 77:1 88:1 115:1 167:1 238:1 310:1 382:1 562:1 10004:1 19775:1 30107:1 38761:1 48205:1 48207:1 48209:1 48300:1 54509:1 60812:1 67155:1 73406:1 
0.2649186549419159 0 0 0 0 0 0 0 8:1 23:1 40:1 55:1 71:1 88:1 124:1 167:1 238:1 310:1 382:1 799:1 10004:1 19775:1 29905:1 38998:1 48205:1 48207:1 48209:1 48478:1 54509:1 60838:1 67155:1 73406:1 
0 0 0 0 0.2174001400955173 0 0 0 9:1 23:1 40:1 55:1 73:1 88:1 121:1 166:1 238:1 310:1 382:1 509:1 10004:1 19611:1 30379:1 38654:1 48205:1 48207:1 48209:1 48256:1 54509:1 60808:1 67155:1 73406:1 
0.06460559825565045 0 0 0 0 0 0 0 1:1 23:1 40:1 55:1 74:1 88:1 103:1 183:1 238:1 310:1 382:1 662:1 10004:1 19611:1 30874:1 38810:1 48205:1 48207:1 48209:1 48376:1 54509:1 60808:1 67155:1 73406:1 
0 0 0.1093599694530725 0 0 0 0 0 6:1 23:1 40:1 55:1 73:1 95:1 137:1 181:1 238:1 310:1 382:1 987:1 10004:1 19611:1 30876:1 38770:1 48205:1 48207:1 48209:1 48615:1 54509:1 60812:1 67155:1 73406:1 
0.1713688376542718 0 0 0 0 0 0 0 7:1 23:1 40:1 55:1 74:1 92:1 119:1 190:1 238:1 310:1 389:1 570:1 10004:1 19611:1 30948:1 38673:1 48205:1 48207:1 48209:1 48308:1 54509:1 60856:1 67155:1 73411:1 
0 0.1002683153513602 0 0 0 0 0 0 10:1 23:1 40:1 55:1 78:1 87:1 127:1 166:1 238:1 310:1 382:1 1396:1 10004:1 19611:1 31122:1 38654:1 48205:1 48207:1 48209:1 48871:1 54509:1 60808:1 67155:1 73406:1 
0 0 0 0 0.2821350834953263 0 0 0 9:1 23:1 40:1 55:1 74:1 95:1 121:1 166:1 238:1 310:1 382:1 509:1 10004:1 19611:1 31396:1 38654:1 48205:1 48207:1 48209:1 48256:1 54509:1 60808:1 67155:1 73406:1 
0 0.1905073734949387 0 0 0 0 0 0 2:1 23:1 40:1 55:1 73:1 88:1 116:1 166:1 238:1 310:1 388:1 480:1 10004:1 19611:1 31396:1 38654:1 48205:1 48207:1 48209:1 48233:1 54509:1 60808:1 67155:1 73583:1 
0.1656004781530583 0 0 0 0 0 0 0 2:1 23:1 40:1 55:1 74:1 88:1 116:1 166:1 238:1 310:1 382:1 480:1 10004:1 19611:1 30509:1 38654:1 48205:1 48207:1 48209:1 48233:1 54509:1 60808:1 67155:1 73406:1 
0 0 0 0.2528409137945583 0 0 0 0 3:1 23:1 40:1 55:1 74:1 92:1 105:1 166:1 243:1 310:1 382:1 3229:1 10004:1 19611:1 32092:1 38654:1 48205:1 48207:1 48209:1 50068:1 54509:1 60808:1 67155:1 73406:1 
0 0.178147637119537 0 0 0 0 0 0 10:1 23:1 40:1 60:1 77:1 87:1 127:1 166:1 238:1 310:1 382:1 709:1 10004:1 19611:1 30698:1 38654:1 48205:1 48207:1 48209:1 48387:1 54509:1 60808:1 67155:1 73406:1 
0.1802272120338253 0 0 0 0 0 0 0 3:1 23:1 40:1 55:1 71:1 89:1 105:1 169:1 239:1 310:1 382:1 1735:1 10004:1 19611:1 30948:1 39109:1 48205:1 48207:1 48209:1 49126:1 54509:1 60813:1 67155:1 73406:1 
0 0 0 0.1376461616728219 0 0 0 0 3:1 23:1 43:1 57:1 70:1 92:1 105:1 166:1 243:1 310:1 382:1 459:1 10004:1 20016:1 29636:1 38654:1 48205:1 48207:1 48209:1 48215:1 54509:1 60808:1 67155:1 73406:1 
0 0.1325661929404409 0 0 0 0 0 0 3:1 23:1 40:1 55:1 74:1 85:1 105:1 166:1 243:1 310:1 382:1 461:1 10004:1 19611:1 30509:1 38654:1 48205:1 48207:1 48209:1 48217:1 54509:1 60808:1 67155:1 73406:1 
0.2778129781246542 0 0 0 0 0 0 0 8:1 23:1 40:1 55:1 76:1 88:1 124:1 167:1 238:1 310:1 382:1 799:1 10004:1 19611:1 31370:1 38998:1 48205:1 48207:1 48209:1 48478:1 54509:1 60838:1 67155:1 73406:1 
0 0 0 0 0 0 0.09976844786536095 0 3:1 23:1 40:1 53:1 72:1 89:1 105:1 169:1 243:1 310:1 382:1 1595:1 10004:1 19775:1 30107:1 38663:1 48205:1 48207:1 48209:1 49036:1 54509:1 61707:1 67155:1 73406:1 
0 0 0.1497596270674789 0 0 0 0 0 3:1 23:1 43:1 57:1 72:1 85:1 105:1 166:1 243:1 310:1 382:1 461:1 10004:1 19611:1 29674:1 38654:1 48205:1 48207:1 48209:1 48217:1 54509:1 60808:1 67155:1 73406:1 
0 0.1249109456312098 0 0 0 0 0 0 10:1 23:1 40:1 58:1 74:1 92:1 127:1 166:1 238:1 310:1 382:1 1215:1 10004:1 19562:1 29538:1 38654:1 48205:1 48207:1 48209:1 48387:1 54509:1 60808:1 67115:1 73406:1 
0.1477716474995615 0 0 0 0 0 0 0 3:1 23:1 40:1 55:1 73:1 89:1 122:1 169:1 238:1 310:1 382:1 673:1 10004:1 19802:1 30948:1 38713:1 48205:1 48207:1 48209:1 48386:1 54509:1 61117:1 67155:1 73406:1 
0.1340882363680193 0 0 0 0 0 0 0 2:1 23:1 43:1 57:1 72:1 88:1 111:1 177:1 238:1 310:1 382:1 467:1 10004:1 19775:1 29262:1 42550:1 48205:1 48207:1 48209:1 48222:1 54509:1 60812:1 67155:1 73406:1 
0 0.1674338070595591 0 0 0 0 0 0 3:1 23:1 43:1 57:1 72:1 85:1 105:1 166:1 243:1 310:1 382:1 5096:1 10277:1 19611:1 31241:1 38654:1 48205:1 48207:1 48209:1 51280:1 54509:1 60808:1 67155:1 73406:1 
0.2221870218753458 0 0 0 0 0 0 0 3:1 23:1 40:1 57:1 72:1 88:1 152:1 202:1 238:1 310:1 382:1 5052:1 10004:1 19611:1 29573:1 39736:1 48205:1 48207:1 48209:1 51248:1 54509:1 60808:1 67155:1 73406:1 
0 0.1983490598652216 0 0 0 0 0 0 3:1 23:1 40:1 55:1 73:1 85:1 114:1 166:1 243:1 310:1 382:1 5912:1 10004:1 19775:1 34563:1 38654:1 48205:1 48207:1 48209:1 51802:1 54509:1 60808:1 67155:1 73406:1 
0.09253030776597589 0 0 0 0 0 0 0 3:1 23:1 40:1 60:1 69:1 89:1 105:1 169:1 238:1 310:1 382:1 5584:1 10004:1 19611:1 31687:1 38663:1 48205:1 48207:1 48209:1 51586:1 54509:1 63584:1 67155:1 73406:1 
0.1209231468841938 0 0 0 0 0 0.102005429682433 0 3:1 23:1 43:1 57:1 74:1 89:1 114:1 169:1 243:1 310:1 382:1 1701:1 10766:1 19562:1 34221:1 38663:1 48205:1 48207:1 48209:1 49102:1 54509:1 64897:1 67115:1 73406:1 
0 0 0 0 0 0.2547039053840268 0 0 9:1 23:1 40:1 55:1 71:1 87:1 121:1 166:1 238:1 310:1 382:1 509:1 10004:1 25953:1 35504:1 38654:1 48205:1 48207:1 48209:1 48256:1 54509:1 60808:1 67531:1 73406:1 
0.2113113817206243 0 0 0 0 0 0 0 2:1 23:1 43:1 57:1 72:1 88:1 116:1 177:1 238:1 310:1 382:1 480:1 10004:1 19562:1 29636:1 40876:1 48205:1 48207:1 48209:1 48233:1 54509:1 60808:1 67115:1 73406:1 
0 0 0 0 0 0.1348008145215118 0 0 2:1 23:1 40:1 59:1 71:1 88:1 135:1 175:1 238:1 310:1 403:1 585:1 10004:1 21181:1 35892:1 45653:1 48205:1 48207:1 48209:1 48317:1 54509:1 60808:1 67531:1 74847:1 
0 0 0 0 0 0 0 0.4463636224920099 10:1 23:1 40:1 53:1 72:1 92:1 123:1 166:1 238:1 310:1 382:1 516:1 10004:1 19611:1 35486:1 38654:1 48205:1 48207:1 48209:1 48262:1 54509:1 60808:1 67155:1 73406:1 
0 0.02185236288046299 0.09064003054692756 0.03596494253960372 0.0004647764091562923 0.0830641019831618 0.03703045881421445 0.05363637750799005 10:1 23:1 40:1 56:1 71:1 88:1 123:1 166:1 238:1 310:1 382:1 516:1 10004:1 21366:1 38642:1 38654:1 48205:1 48207:1 48209:1 48262:1 54509:1 60808:1 67155:1 73406:1 
-0.5 0 0 0 0 0 0 0 8:1 23:1 40:1 55:1 74:1 88:1 124:1 167:1 238:1 310:1 382:1 799:1 10004:1 19775:1 30107:1 38998:1 48205:1 48207:1 48209:1 48478:1 54509:1 60838:1 67155:1 73406:1 
-0.1713688376542718 0.1882352901455319 0 0.1235679197989511 0 0 0.08583379474997894 0 3:1 23:1 40:1 55:1 74:1 89:1 105:1 169:1 238:1 311:1 382:1 798:1 10004:1 19775:1 30107:1 38690:1 48205:1 48207:1 48209:1 48335:1 54777:1 61075:1 67155:1 73406:1 
-0.09253030776597589 0.1349716773393847 0 0 0.09154979733616997 0.07407407696452195 0 0.08210511919368217 4:1 23:1 40:1 55:1 74:1 91:1 106:1 182:1 238:1 313:1 382:1 490:1 10004:1 19775:1 30107:1 39666:1 48205:1 48207:1 48209:1 48240:1 54634:1 61072:1 67155:1 73406:1 
-0.1340882363680193 0 0.07763975429723098 0 0 0 0 0 6:1 23:1 40:1 55:1 74:1 88:1 118:1 181:1 238:1 326:1 382:1 1466:1 10004:1 19775:1 30107:1 38990:1 48205:1 48207:1 48209:1 48477:1 54539:1 60812:1 67155:1 73406:1 
-0.1587882976054962 0 0 0 0 0 0 0 3:1 23:1 40:1 55:1 74:1 89:1 114:1 169:1 238:1 325:1 382:1 790:1 10004:1 19775:1 30107:1 38687:1 48205:1 48207:1 48209:1 48474:1 54776:1 60815:1 67155:1 73406:1 
-0.5 0 0 0 0.0943809138549829 0 0 0 3:1 23:1 40:1 55:1 74:1 89:1 105:1 169:1 238:1 310:1 382:1 510:1 10004:1 19611:1 30948:1 38663:1 48205:1 48207:1 48209:1 48257:1 54509:1 60813:1 67155:1 73406:1 
-0.2113113817206243 0 0 0.1022153154519604 0 0 0 0 4:1 23:1 40:1 55:1 74:1 88:1 109:1 167:1 238:1 313:1 382:1 463:1 10004:1 19611:1 30948:1 38659:1 48205:1 48207:1 48209:1 48214:1 54556:1 60808:1 67155:1 73406:1 
-0.4305191330949742 0 0 0 0 0 0.09803052540902353 0 2:1 23:1 44:1 57:1 72:1 88:1 116:1 168:1 238:1 310:1 382:1 480:1 10004:1 19802:1 30046:1 42747:1 48205:1 48207:1 48209:1 48233:1 54509:1 60812:1 67155:1 73406:1 
-0.461075240820382 0.2 0.1855287451398442 0.06145081485741873 0.09114783128486131 0.0895920533448572 0.05011762273912461 0.1855287451398442 3:1 23:1 43:1 57:1 76:1 88:1 152:1 202:1 238:1 310:1 382:1 9736:1 10004:1 19611:1 38395:1 42396:1 48205:1 48207:1 48209:1 54333:1 54509:1 60808:1 67155:1 73406:1 
-0.3154183191261485 -0.1882352901455319 0 0.2206790382370446 0.09426214733310063 0 0 0 3:1 23:1 40:1 55:1 74:1 85:1 114:1 166:1 243:1 311:1 382:1 576:1 10004:1 19775:1 30107:1 38654:1 48205:1 48207:1 48209:1 48217:1 54513:1 60808:1 67155:1 73406:1 
-0.5 -0.1349716773393847 0.114667072928836 0.08808687379126826 0.2018254683932665 0.1114546743423257 0 0.1474421277209125 10:1 23:1 40:1 55:1 73:1 87:1 127:1 166:1 238:1 310:1 383:1 1215:1 10004:1 19611:1 31396:1 38654:1 48205:1 48207:1 48209:1 48387:1 54509:1 60808:1 67155:1 73452:1 
-0.2986173752165818 -0.2 0.1736111042124256 0.1119131262087318 0.06940398297627852 0.1481481481481481 0.1636661303093792 0.1636661303093792 3:1 23:1 43:1 57:1 76:1 85:1 105:1 166:1 243:1 346:1 382:1 4196:1 10561:1 19611:1 38395:1 38654:1 48205:1 48207:1 48209:1 50616:1 60632:1 60808:1 67155:1 73406:1 
-0.3497596270674789 -0.2631684994370752 -0.2882781771412616 0.1736111042124256 0.2178649165046736 0.1855287451398442 0.1420454553151426 0.2178649165046736 6:1 23:1 39:1 54:1 72:1 85:1 137:1 166:1 238:1 310:1 382:1 2250:1 10004:1 19611:1 29155:1 38654:1 48205:1 48207:1 48209:1 49444:1 54509:1 60808:1 67155:1 73406:1 
-0.4264520180069839 -0.2872340501083303 -0.4206790382370446 -0.1736111042124256 0.2 0.1636661303093792 0.1552795017259062 0.2 3:1 23:1 40:1 55:1 74:1 92:1 105:1 166:1 243:1 311:1 382:1 459:1 10004:1 19611:1 30948:1 38654:1 48205:1 48207:1 48209:1 48215:1 54513:1 60808:1 67155:1 73406:1 
-0.5 -0.2770785424760142 -0.3654915987026457 -0.2178649165046736 -0.2 0.2403846242018708 0.1367989066795754 0.2403846242018708 9:1 23:1 40:1 55:1 73:1 95:1 121:1 166:1 238:1 310:1 382:1 509:1 10004:1 19611:1 31396:1 38654:1 48205:1 48207:1 48209:1 48256:1 54509:1 60808:1 67155:1 73406:1 
-0.4725688218887004 -0.1636661303093792 -0.2596028224904738 -0.1855287451398442 -0.1636661303093792 -0.2403846242018708 0.1322751332763021 0.2 9:1 23:1 40:1 59:1 71:1 87:1 121:1 166:1 238:1 310:1 382:1 2716:1 10004:1 21181:1 35892:1 38654:1 48205:1 48207:1 48209:1 49651:1 54509:1 60808:1 67531:1 73406:1 
-0.2388043363620084 -0.2339819428981271 -0.1636661303093792 -0.1420454553151426 -0.1552795017259062 -0.1367989066795754 -0.1322751332763021 0.1367989066795754 3:1 23:1 44:1 57:1 72:1 89:1 105:1 169:1 243:1 312:1 382:1 4547:1 17168:1 19802:1 30046:1 38663:1 48205:1 48207:1 48209:1 50908:1 54532:1 65568:1 67155:1 73406:1 
-0.5 -0.2676338643335264 -0.3111082580302916 -0.2178649165046736 -0.2 -0.2403846242018708 -0.2 -0.1367989066795754 10:1 23:1 40:1 53:1 75:1 92:1 123:1 166:1 238:1 310:1 382:1 516:1 10004:1 19611:1 35486:1 38654:1 48205:1 48207:1 48209:1 48262:1 54509:1 60808:1 67155:1 73406:1 
