svm_type c_svc
kernel_type polynomial
degree 2
gamma 0.1
coef0 0.6
nr_class 13
total_sv 181
rho -0.900822 -0.883355 -0.399975 -0.845831 -0.645727 -0.803942 -0.290863 -0.564472 -0.660218 -0.628985 -0.589451 -0.559371 -0.0964743 0.319989 0.0482957 -0.364329 -0.231344 0.462841 0.100983 -0.489009 0 0.0735545 0.0845738 0.169548 0.000706492 -0.387681 -0.283779 0.299806 -0.0791005 -0.394684 -0.359255 0.0802321 0.0160129 -0.545568 -0.548906 -0.359397 -0.0642415 -0.301845 -0.591766 -0.639629 -0.296108 -0.271101 0 -0.262465 0.218788 0.032443 -0.350414 -0.562991 0.0867254 0.059274 0 0.33924 0 0 0 0.347538 0 0.330592 0.178593 -0.269231 0 0.32091 0.18494 -0.337825 -0.56037 -0.504512 -0.179149 -0.109136 0 -0.363636 0.186414 -0.0364516 0 0.374646 0.319319 0.370192 0.355324 0.000688048
label 1 6 16 25 27 26 4 2 13 10 66 5 30
nr_sv 106 21 8 17 4 1 3 7 2 1 1 4 6
SV
0.1593692235190725 0 0 0 0 0 0 0 0 0 0 0 4:1 22:1 42:1 54:1 70:1 91:1 109:1 196:1 238:1 310:1 382:1 574:1 10004:1 19612:1 29182:1 38884:1 48205:1 48207:1 48209:1 48311:1 54509:1 60992:1 67156:1 73406:1 
0 0 0 0.1733983684255304 0 0 0 0 0 0 0 0 6:1 22:1 37:1 61:1 74:1 92:1 108:1 186:1 244:1 310:1 382:1 702:1 10004:1 19605:1 29353:1 38738:1 48205:1 48207:1 48209:1 48258:1 54509:1 61005:1 67113:1 73406:1 
0 0 0 0 0 0 0 0.1525919863577574 0 0 0 0 10:1 22:1 42:1 54:1 74:1 88:1 128:1 166:1 238:1 310:1 382:1 538:1 10004:1 19608:1 29560:1 38654:1 48205:1 48207:1 48209:1 48282:1 54509:1 60808:1 67113:1 73406:1 
0 0 0.1703952162216069 0 0 0 0 0 0 0 0 0 6:1 22:1 37:1 55:1 78:1 91:1 110:1 184:1 238:1 310:1 382:1 1008:1 10004:1 19585:1 29659:1 38969:1 48205:1 48207:1 48209:1 48546:1 54509:1 60808:1 67113:1 73406:1 
0 0 0 0 0 0 0 0 0 0 0.07284221330744918 0 3:1 22:1 37:1 59:1 74:1 91:1 105:1 185:1 243:1 310:1 382:1 703:1 10004:1 19585:1 29450:1 39253:1 48205:1 48207:1 48209:1 48408:1 54509:1 60825:1 67113:1 73406:1 
0 0 0.08925553121289179 0 0 0 0 0 0 0 0 0 6:1 22:1 42:1 54:1 70:1 89:1 110:1 169:1 238:1 310:1 382:1 1155:1 10004:1 19612:1 29806:1 38966:1 48205:1 48207:1 48209:1 48730:1 54509:1 61327:1 67156:1 73406:1 
0 0.1426198122166606 0 0 0 0 0 0 0 0 0 0 7:1 22:1 37:1 59:1 72:1 88:1 112:1 178:1 238:1 310:1 382:1 468:1 10004:1 19608:1 29920:1 39608:1 48205:1 48207:1 48209:1 48223:1 54509:1 60808:1 67113:1 73406:1 
0 0 0.1390323619891236 0 0 0 0 0 0 0 0 0 6:1 22:1 37:1 55:1 73:1 89:1 110:1 169:1 239:1 310:1 382:1 2341:1 10004:1 19612:1 30624:1 38939:1 48205:1 48207:1 48209:1 49504:1 54509:1 61199:1 67156:1 73406:1 
0.1851841217286841 0 0 0 0 0 0 0 0 0 0 0 4:1 22:1 42:1 54:1 72:1 92:1 109:1 166:1 238:1 310:1 382:1 518:1 10004:1 19605:1 29534:1 38654:1 48205:1 48207:1 48209:1 48264:1 54509:1 60808:1 67113:1 73406:1 
0 0 0.1378498475159219 0 0 0 0 0 0 0 0 0 6:1 22:1 42:1 54:1 76:1 85:1 108:1 166:1 244:1 310:1 382:1 2421:1 10004:1 19612:1 29182:1 38654:1 48205:1 48207:1 48209:1 48393:1 54509:1 60808:1 67156:1 73406:1 
0.2766527655371598 0 0 0 0 0.2083302526126133 0 0 0 0 0 0 2:1 22:1 44:1 61:1 78:1 93:1 116:1 166:1 238:1 310:1 382:1 480:1 10004:1 19608:1 31032:1 38654:1 48205:1 48207:1 48209:1 48233:1 54509:1 60808:1 67113:1 73406:1 
0 0 0.226446373752568 0 0 0 0 0 0 0 0 0 6:1 22:1 42:1 54:1 70:1 89:1 110:1 169:1 238:1 310:1 382:1 2731:1 10004:1 19713:1 29974:1 38718:1 48205:1 48207:1 48209:1 48586:1 54509:1 62357:1 67156:1 73406:1 
0 0.1546446247579928 0 0 0 0 0 0 0 0 0 0 7:1 22:1 42:1 54:1 72:1 91:1 112:1 178:1 238:1 310:1 382:1 468:1 10004:1 19612:1 30184:1 38711:1 48205:1 48207:1 48209:1 48223:1 54509:1 61020:1 67156:1 73406:1 
0 0 0.1867982465169225 0 0 0 0 0 0 0 0 0.09989933215363446 6:1 22:1 42:1 53:1 73:1 91:1 136:1 167:1 238:1 310:1 382:1 2849:1 10004:1 19585:1 31500:1 39148:1 48205:1 48207:1 48209:1 48516:1 54509:1 60849:1 67113:1 73406:1 
0 0 0.2426621781672716 0 0 0 0 0 0 0 0 0 6:1 22:1 37:1 55:1 74:1 91:1 110:1 184:1 238:1 310:1 382:1 770:1 10004:1 19608:1 29109:1 38699:1 48205:1 48207:1 48209:1 48459:1 54509:1 60808:1 67113:1 73406:1 
0 0.3522636873596113 0 0 0 0 0 0 0 0 0 0 7:1 22:1 37:1 55:1 71:1 90:1 112:1 178:1 238:1 310:1 382:1 468:1 10004:1 19585:1 31679:1 38708:1 48205:1 48207:1 48209:1 48223:1 54509:1 60965:1 67113:1 73406:1 
0 0.1717442710295815 0.1634469118883767 0 0 0 0 0 0 0 0 0 2:1 22:1 40:1 53:1 75:1 88:1 116:1 166:1 238:1 310:1 382:1 480:1 10004:1 19608:1 31609:1 38654:1 48205:1 48207:1 48209:1 48233:1 54509:1 60808:1 67113:1 73406:1 
0.2110404319265477 0 0 0 0 0 0 0 0 0 0 0 4:1 22:1 37:1 55:1 73:1 91:1 109:1 167:1 238:1 310:1 382:1 484:1 10004:1 19608:1 31894:1 40946:1 48205:1 48207:1 48209:1 48236:1 54509:1 60808:1 67113:1 73406:1 
0.1590763739053398 0 0 0 0 0 0 0 0 0 0 0 4:1 22:1 37:1 58:1 72:1 91:1 109:1 167:1 238:1 310:1 382:1 1781:1 10004:1 19608:1 29111:1 40946:1 48205:1 48207:1 48209:1 49157:1 54509:1 60808:1 67113:1 73406:1 
0.1518450234088204 0 0.2080714556812755 0 0.1107902752018455 0 0.1369881975870598 0 0 0 0 0 3:1 22:1 44:1 57:1 71:1 89:1 105:1 169:1 243:1 310:1 382:1 3219:1 10004:1 19612:1 31032:1 40721:1 48205:1 48207:1 48209:1 50059:1 54509:1 60808:1 67156:1 73406:1 
0.1178497692865818 0 0 0 0 0 0 0 0 0 0 0 4:1 22:1 42:1 54:1 72:1 85:1 109:1 166:1 239:1 310:1 382:1 518:1 10017:1 19608:1 30162:1 38654:1 48205:1 48207:1 48209:1 48264:1 54509:1 60808:1 67113:1 73406:1 
0 0 0 0 0.1929674075494858 0 0 0 0 0 0 0 7:1 22:1 37:1 58:1 73:1 89:1 128:1 169:1 238:1 310:1 382:1 538:1 10004:1 19605:1 29209:1 39891:1 48205:1 48207:1 48209:1 48282:1 54509:1 60980:1 67113:1 73406:1 
0 0 0 0 0 0 0 0 0 0 0.1003837532602042 0 6:1 22:1 37:1 53:1 68:1 88:1 108:1 181:1 239:1 310:1 382:1 3694:1 10004:1 19608:1 29660:1 39180:1 48205:1 48207:1 48209:1 48785:1 54509:1 62205:1 67113:1 73406:1 
0.1199615666423531 0 0 0 0 0 0 0 0 0 0 0 4:1 22:1 42:1 58:1 76:1 93:1 109:1 195:1 238:1 310:1 382:1 518:1 10004:1 19612:1 32390:1 41939:1 48205:1 48207:1 48209:1 48264:1 54509:1 61228:1 67156:1 73406:1 
0.2235892833510864 0 0 0 0 0 0 0 0 0 0 0 4:1 22:1 37:1 53:1 68:1 92:1 109:1 179:1 238:1 310:1 382:1 766:1 10004:1 19612:1 29332:1 38818:1 48205:1 48207:1 48209:1 48311:1 54509:1 60909:1 67156:1 73406:1 
0 0.2529066446414325 0 0 0 0 0 0 0 0 0 0 7:1 22:1 42:1 54:1 72:1 88:1 112:1 178:1 238:1 310:1 382:1 468:1 10004:1 19608:1 29792:1 39060:1 48205:1 48207:1 48209:1 48223:1 54509:1 60862:1 67113:1 73406:1 
0.3053402968429184 0 0 0 0 0 0 0 0 0 0 0 4:1 22:1 37:1 55:1 71:1 91:1 109:1 167:1 238:1 310:1 382:1 518:1 10004:1 19608:1 32392:1 42041:1 48205:1 48207:1 48209:1 48264:1 54509:1 60812:1 67113:1 73406:1 
0 0 0.1301334890374919 0 0 0 0 0 0 0 0 0 6:1 22:1 37:1 55:1 71:1 89:1 110:1 169:1 238:1 310:1 382:1 3932:1 10004:1 19608:1 32475:1 38939:1 48205:1 48207:1 48209:1 49993:1 54509:1 62348:1 67113:1 73406:1 
0.4621240425004011 0 0 0 0 0 0 0 0 0 0 0 4:1 22:1 44:1 54:1 77:1 88:1 109:1 167:1 238:1 310:1 382:1 518:1 10004:1 19608:1 29364:1 38873:1 48205:1 48207:1 48209:1 48264:1 54509:1 60812:1 67113:1 73406:1 
0 0 0.08674418965377249 0 0 0 0 0 0 0 0 0 6:1 22:1 37:1 53:1 68:1 88:1 137:1 181:1 244:1 310:1 382:1 3978:1 10562:1 19585:1 29511:1 40014:1 48205:1 48207:1 48209:1 48526:1 54509:1 62468:1 67113:1 73406:1 
0 0 0 0 0 0 0.1032801468419598 0 0 0 0 0 3:1 22:1 37:1 53:1 68:1 89:1 105:1 169:1 238:1 310:1 382:1 725:1 10004:1 19585:1 30953:1 38673:1 48205:1 48207:1 48209:1 48405:1 54509:1 60939:1 67113:1 73406:1 
0 0 0.1289554106278114 0 0 0 0 0 0 0 0 0 6:1 22:1 42:1 54:1 72:1 91:1 110:1 184:1 238:1 310:1 382:1 1693:1 10004:1 19608:1 29661:1 38699:1 48205:1 48207:1 48209:1 48580:1 54509:1 60808:1 67113:1 73406:1 
0 0 0 0 0 0 0 0.1696441720198073 0 0 0 0 3:1 22:1 37:1 57:1 72:1 89:1 114:1 169:1 243:1 310:1 382:1 4119:1 10004:1 19608:1 30350:1 38803:1 48205:1 48207:1 48209:1 50581:1 54509:1 60808:1 67113:1 73406:1 
0.2198624038565678 0 0 0 0 0 0 0 0 0 0 0 4:1 22:1 42:1 54:1 74:1 91:1 109:1 167:1 238:1 310:1 382:1 518:1 10004:1 19713:1 30300:1 42364:1 48205:1 48207:1 48209:1 48264:1 54509:1 60808:1 67156:1 73406:1 
0 0 0 0 0 0 0 0 0 0.146321150369841 0 0 6:1 22:1 37:1 55:1 69:1 88:1 108:1 181:1 244:1 310:1 382:1 4607:1 10004:1 19612:1 29211:1 42452:1 48205:1 48207:1 48209:1 48986:1 54509:1 60856:1 67156:1 73406:1 
0 0 0 0 0 0 0 0 0 0 0 0.3393633131212714 6:1 22:1 42:1 54:1 76:1 85:1 108:1 166:1 244:1 310:1 382:1 1342:1 10004:1 19608:1 33322:1 38654:1 48205:1 48207:1 48209:1 48258:1 54509:1 60808:1 67113:1 73406:1 
0 0 0 0 0 0 0 0 0 0 0 0.3448109771561526 6:1 22:1 37:1 55:1 69:1 85:1 108:1 166:1 238:1 310:1 382:1 4789:1 10004:1 19605:1 32676:1 38654:1 48205:1 48207:1 48209:1 48258:1 54509:1 60808:1 67113:1 73406:1 
0 0 0 0 0 0.2033604525111455 0 0 0 0 0 0 9:1 22:1 37:1 55:1 71:1 87:1 121:1 166:1 238:1 310:1 382:1 612:1 10004:1 19608:1 33547:1 38654:1 48205:1 48207:1 48209:1 48255:1 54509:1 60808:1 67113:1 73406:1 
0 0 0.1546491736524014 0 0 0 0 0 0 0 0 0 6:1 22:1 37:1 55:1 71:1 92:1 108:1 186:1 244:1 310:1 382:1 5063:1 10004:1 19612:1 33714:1 39954:1 48205:1 48207:1 48209:1 51255:1 54509:1 61821:1 67156:1 73406:1 
0 0 0 0 0 0 0 0 0 0 0.1780290700729277 0 10:1 22:1 35:1 54:1 72:1 93:1 128:1 166:1 238:1 310:1 382:1 538:1 10004:1 19608:1 34060:1 38654:1 48205:1 48207:1 48209:1 48282:1 54509:1 60808:1 67113:1 73406:1 
0 0 0 0 0 0 0.2356934704119216 0 0 0 0 0 9:1 22:1 37:1 59:1 72:1 91:1 121:1 167:1 238:1 310:1 382:1 2367:1 10004:1 19713:1 34070:1 38711:1 48205:1 48207:1 48209:1 49516:1 54509:1 60808:1 67156:1 73406:1 
0 0 0.2342898147131866 0 0 0 0 0 0 0 0 0 6:1 22:1 37:1 55:1 71:1 89:1 110:1 169:1 238:1 310:1 382:1 4269:1 10004:1 19608:1 29382:1 38663:1 48205:1 48207:1 48209:1 50683:1 54509:1 60848:1 67113:1 73406:1 
0 0 0 0.07484065245999943 0 0 0 0 0 0 0 0 6:1 22:1 42:1 54:1 72:1 92:1 137:1 186:1 244:1 310:1 382:1 923:1 10252:1 19608:1 31449:1 38701:1 48205:1 48207:1 48209:1 48258:1 54509:1 60856:1 67113:1 73406:1 
0 0 0 0.1993977109073563 0 0 0 0 0 0 0 0 6:1 22:1 37:1 59:1 72:1 85:1 108:1 166:1 244:1 310:1 382:1 511:1 10004:1 19608:1 34641:1 38654:1 48205:1 48207:1 48209:1 48258:1 54509:1 60808:1 67113:1 73406:1 
0 0 0 0 0 0 0 0 0 0 0.1881471576596809 0 6:1 22:1 42:1 54:1 72:1 88:1 108:1 181:1 244:1 310:1 382:1 2873:1 10004:1 19605:1 34643:1 42396:1 48205:1 48207:1 48209:1 49829:1 54509:1 60812:1 67113:1 73406:1 
0 0 0 0.1918177861658954 0 0 0 0 0 0 0 0 6:1 22:1 43:1 59:1 71:1 85:1 108:1 166:1 239:1 310:1 382:1 916:1 14106:1 19605:1 29193:1 38654:1 48205:1 48207:1 48209:1 48258:1 54509:1 60808:1 67113:1 73406:1 
0.1818566128587742 0 0 0 0 0 0 0 0 0 0 0 4:1 22:1 37:1 61:1 78:1 91:1 109:1 182:1 238:1 310:1 382:1 739:1 10004:1 19612:1 33173:1 44291:1 48205:1 48207:1 48209:1 48240:1 54509:1 60999:1 67156:1 73406:1 
0 0.1205719946561609 0 0 0 0 0 0 0 0 0 0 9:1 22:1 37:1 60:1 70:1 94:1 121:1 166:1 238:1 310:1 382:1 612:1 10004:1 19585:1 33038:1 38654:1 48205:1 48207:1 48209:1 48255:1 54509:1 60808:1 67113:1 73406:1 
0 0 0 0 0 0 0 0 0 0 0.2152133425928793 0 6:1 22:1 37:1 55:1 76:1 85:1 137:1 166:1 269:1 310:1 382:1 3981:1 10004:1 19608:1 32882:1 38654:1 48205:1 48207:1 48209:1 48643:1 54509:1 60808:1 67113:1 73406:1 
0 0 0 0 0 0 0 0 0 0 0 0.1826484102303172 4:1 22:1 37:1 53:1 77:1 85:1 109:1 166:1 238:1 310:1 382:1 1375:1 10004:1 19585:1 34388:1 38654:1 48205:1 48207:1 48209:1 48236:1 54509:1 60808:1 67113:1 73406:1 
0 0.1484252059653281 0 0 0 0 0 0 0 0 0 0 7:1 22:1 40:1 54:1 78:1 88:1 112:1 178:1 238:1 310:1 382:1 468:1 10004:1 19605:1 35133:1 44681:1 48205:1 48207:1 48209:1 48223:1 54509:1 60831:1 67113:1 73406:1 
0 0 0 0 0 0 0 0 0.2895622895622896 0 0 0 6:1 22:1 37:1 55:1 71:1 91:1 110:1 184:1 238:1 310:1 382:1 6585:1 10004:1 19612:1 35236:1 40014:1 48205:1 48207:1 48209:1 52232:1 54509:1 60808:1 67156:1 73406:1 
0 0 0 0 0 0 0.1940389522749472 0 0 0 0 0 2:1 22:1 44:1 54:1 76:1 88:1 116:1 168:1 238:1 310:1 382:1 480:1 10004:1 19608:1 29364:1 43583:1 48205:1 48207:1 48209:1 48233:1 54509:1 60821:1 67113:1 73406:1 
0.1238876539273014 0 0 0 0 0 0 0 0 0 0 0 4:1 22:1 42:1 53:1 71:1 91:1 109:1 167:1 238:1 310:1 382:1 484:1 10004:1 19612:1 35265:1 44814:1 48205:1 48207:1 48209:1 48236:1 54509:1 61313:1 67156:1 73406:1 
0.2512985276217621 0 0 0 0 0 0 0 0 0 0 0 4:1 22:1 42:1 53:1 71:1 91:1 109:1 174:1 238:1 310:1 382:1 463:1 10004:1 19612:1 35283:1 44832:1 48205:1 48207:1 48209:1 48214:1 54509:1 60808:1 67156:1 73406:1 
0.1921470287764687 0 0 0 0 0 0 0 0 0 0 0 4:1 22:1 42:1 59:1 71:1 91:1 109:1 167:1 238:1 310:1 382:1 484:1 10004:1 19608:1 35287:1 44836:1 48205:1 48207:1 48209:1 48236:1 54509:1 61047:1 67113:1 73406:1 
0 0.3013068690606092 0 0 0 0 0 0 0 0 0 0 7:1 22:1 44:1 57:1 70:1 91:1 112:1 178:1 238:1 310:1 382:1 468:1 10004:1 20171:1 29190:1 44947:1 48205:1 48207:1 48209:1 48223:1 54509:1 60808:1 67113:1 73406:1 
0 0 0 0 0 0 0 0 0.1227492361979024 0 0 0 9:1 22:1 42:1 54:1 76:1 91:1 121:1 167:1 238:1 310:1 382:1 612:1 10004:1 19612:1 29182:1 45074:1 48205:1 48207:1 48209:1 48255:1 54509:1 60808:1 67156:1 73406:1 
0 0 0 0 0 0 0 0 0 0 0 0.1606366868787286 6:1 22:1 37:1 53:1 68:1 85:1 108:1 166:1 239:1 310:1 382:1 511:1 10030:1 19608:1 35608:1 38654:1 48205:1 48207:1 48209:1 48258:1 54509:1 60808:1 67113:1 73406:1 
0 0.2090358337128907 0 0 0 0 0 0 0 0 0 0 7:1 22:1 37:1 59:1 76:1 91:1 112:1 178:1 238:1 310:1 382:1 468:1 10004:1 19608:1 32161:1 38711:1 48205:1 48207:1 48209:1 48223:1 54509:1 62526:1 67113:1 73406:1 
0 0 0.123875219439552 0 0 0 0 0 0 0 0 0 6:1 22:1 42:1 54:1 72:1 89:1 110:1 169:1 238:1 310:1 382:1 6995:1 10004:1 19612:1 35151:1 38663:1 48205:1 48207:1 48209:1 52490:1 54509:1 64170:1 67156:1 73406:1 
0.1292148876519212 0 0 0 0 0 0 0 0 0 0 0 4:1 22:1 37:1 60:1 74:1 87:1 109:1 166:1 238:1 310:1 382:1 518:1 10004:1 19605:1 35647:1 38654:1 48205:1 48207:1 48209:1 48264:1 54509:1 60808:1 67113:1 73406:1 
0 0 0.1693419535086168 0 0 0 0 0 0 0 0.09231526329759283 0 6:1 22:1 43:1 59:1 71:1 88:1 137:1 181:1 272:1 310:1 382:1 6286:1 13938:1 19608:1 29193:1 42787:1 48205:1 48207:1 48209:1 49229:1 54509:1 64931:1 67113:1 73406:1 
0 0 0 0 0 0 0.1677290866472423 0 0 0 0 0 3:1 22:1 37:1 55:1 73:1 89:1 105:1 169:1 238:1 310:1 382:1 1147:1 10004:1 19612:1 34619:1 38795:1 48205:1 48207:1 48209:1 48249:1 54509:1 61795:1 67156:1 73406:1 
0.1326660815959579 0 0 0 0 0 0.1522475941758576 0 0 0 0 0 4:1 22:1 42:1 53:1 73:1 91:1 109:1 167:1 238:1 310:1 382:1 731:1 10004:1 19612:1 29182:1 41119:1 48205:1 48207:1 48209:1 48432:1 54509:1 60862:1 67156:1 73406:1 
0 0 0.1632350022716115 0 0 0 0.1896611368508204 0 0 0 0 0 4:1 22:1 42:1 53:1 77:1 88:1 109:1 167:1 238:1 310:1 382:1 463:1 10004:1 19612:1 29182:1 39088:1 48205:1 48207:1 48209:1 48214:1 54509:1 60909:1 67156:1 73406:1 
0 0 0 0.1055588494943095 0 0 0 0 0 0 0 0 6:1 22:1 42:1 54:1 70:1 85:1 108:1 166:1 244:1 310:1 382:1 511:1 10004:1 19605:1 31023:1 38654:1 48205:1 48207:1 48209:1 48258:1 54509:1 60808:1 67113:1 73406:1 
0 0 0 0 0 0 0 0 0 0.1193704643952705 0 0 6:1 22:1 37:1 54:1 76:1 88:1 108:1 181:1 244:1 310:1 382:1 7181:1 10004:1 19608:1 35832:1 42752:1 48205:1 48207:1 48209:1 48459:1 54509:1 60825:1 67113:1 73406:1 
0 0 0 0 0 0 0 0 0 0 0.09586480793902984 0 6:1 22:1 36:1 54:1 70:1 85:1 108:1 166:1 264:1 310:1 382:1 7193:1 10004:1 19585:1 32989:1 38654:1 48205:1 48207:1 48209:1 50270:1 54509:1 60808:1 67113:1 73406:1 
0 0 0 0 0 0 0 0 0 0 0 0.3263888957875744 6:1 22:1 37:1 55:1 74:1 85:1 108:1 166:1 259:1 310:1 382:1 511:1 10004:1 19608:1 30624:1 38654:1 48205:1 48207:1 48209:1 48258:1 54509:1 60808:1 67113:1 73406:1 
0 0 0 0 0 0 0 0.0873292463845929 0 0 0 0 7:1 22:1 42:1 59:1 71:1 87:1 120:1 166:1 238:1 310:1 382:1 503:1 10004:1 19608:1 31492:1 38654:1 48205:1 48207:1 48209:1 48253:1 54509:1 60808:1 67113:1 73406:1 
0.2920027661836899 0 0 0 0 0 0 0 0 0 0.08595566241141021 0 4:1 22:1 36:1 54:1 72:1 88:1 109:1 167:1 238:1 310:1 382:1 484:1 10004:1 19608:1 32989:1 44363:1 48205:1 48207:1 48209:1 48236:1 54509:1 60909:1 67113:1 73406:1 
0 0.216342600785957 0 0 0 0 0 0 0 0 0 0 4:1 22:1 43:1 54:1 72:1 88:1 109:1 167:1 238:1 310:1 382:1 502:1 10004:1 19585:1 33177:1 39859:1 48205:1 48207:1 48209:1 48252:1 54509:1 62868:1 67113:1 73406:1 
0 0 0 0.121921156168966 0 0 0 0 0 0 0 0 6:1 22:1 37:1 53:1 78:1 92:1 108:1 186:1 238:1 310:1 382:1 7477:1 10004:1 19608:1 33279:1 38738:1 48205:1 48207:1 48209:1 50558:1 54509:1 60856:1 67113:1 73406:1 
0 0 0 0 0 0 0.1949101679372209 0 0 0 0 0 9:1 22:1 37:1 53:1 68:1 91:1 121:1 167:1 238:1 310:1 382:1 541:1 10004:1 19585:1 31074:1 45780:1 48205:1 48207:1 48209:1 48285:1 54509:1 65490:1 67113:1 73406:1 
0.1338164631811969 0 0 0 0 0.2816607607449038 0 0 0 0 0 0 9:1 22:1 35:1 55:1 69:1 85:1 121:1 166:1 238:1 310:1 382:1 2277:1 10004:1 19585:1 36312:1 38654:1 48205:1 48207:1 48209:1 48280:1 54509:1 60808:1 67113:1 73406:1 
0.2099978017952241 0.3332904910014177 0.1587491960600326 0.157966523958712 0 0 0 0 0 0 0.1147325384606498 0 7:1 22:1 35:1 55:1 69:1 91:1 112:1 178:1 238:1 310:1 382:1 468:1 10004:1 19608:1 36317:1 45864:1 48205:1 48207:1 48209:1 48223:1 54509:1 60808:1 67113:1 73406:1 
0 0 0.1223442451030735 0 0 0 0 0 0 0 0 0 6:1 22:1 37:1 59:1 70:1 92:1 108:1 179:1 239:1 310:1 382:1 7848:1 10004:1 19608:1 33768:1 38668:1 48205:1 48207:1 48209:1 48288:1 54509:1 60856:1 67113:1 73406:1 
0 0 0 0 0 0.1677621645054589 0 0 0 0 0 0 9:1 22:1 37:1 57:1 74:1 89:1 121:1 166:1 238:1 310:1 382:1 1688:1 10004:1 19612:1 31223:1 38654:1 48205:1 48207:1 48209:1 49093:1 54509:1 60808:1 67156:1 73406:1 
0 0 0 0 0 0 0 0.1704855485344677 0 0 0 0 3:1 22:1 37:1 55:1 71:1 88:1 152:1 166:1 238:1 310:1 382:1 7898:1 10004:1 21101:1 36549:1 38654:1 48205:1 48207:1 48209:1 53106:1 54509:1 60808:1 67156:1 73406:1 
0 0 0 0.1305519336696013 0 0 0 0 0 0 0 0 6:1 22:1 37:1 55:1 74:1 92:1 108:1 179:1 239:1 310:1 382:1 511:1 10004:1 19608:1 29468:1 41416:1 48205:1 48207:1 48209:1 48258:1 54509:1 60808:1 67113:1 73406:1 
0 0 0.09964906108845613 0 0 0 0.1111553455697773 0.09847305520749008 0 0 0 0 2:1 22:1 35:1 55:1 71:1 85:1 135:1 166:1 238:1 310:1 383:1 4339:1 10004:1 20171:1 36730:1 38654:1 48205:1 48207:1 48209:1 50742:1 54509:1 60808:1 67113:1 78422:1 
0 0 0 0 0 0 0 0 0 0 0 0.1668938053025291 2:1 22:1 44:1 57:1 77:1 88:1 116:1 168:1 238:1 310:1 382:1 480:1 10004:1 19608:1 30432:1 46290:1 48205:1 48207:1 48209:1 48233:1 54509:1 60909:1 67113:1 73406:1 
0 0 0.191756522162297 0 0 0 0 0 0 0 0 0 6:1 22:1 42:1 54:1 72:1 85:1 137:1 166:1 239:1 310:1 382:1 1814:1 10030:1 19612:1 31382:1 38654:1 48205:1 48207:1 48209:1 48399:1 54509:1 60808:1 67156:1 73406:1 
0 0 0.1923930012962797 0 0 0 0 0 0 0 0 0 6:1 22:1 37:1 55:1 71:1 88:1 137:1 181:1 244:1 310:1 382:1 4942:1 10012:1 19608:1 29538:1 46383:1 48205:1 48207:1 48209:1 49608:1 54509:1 60808:1 67113:1 73406:1 
0 0.1681034631224666 0 0 0 0 0 0 0 0 0 0 7:1 22:1 37:1 55:1 71:1 88:1 112:1 178:1 238:1 310:1 382:1 477:1 10004:1 19608:1 36878:1 38859:1 48205:1 48207:1 48209:1 48223:1 54509:1 65931:1 67113:1 73406:1 
0.372215661633093 0 0 0 0 0 0 0 0 0 0 0 4:1 22:1 37:1 57:1 72:1 91:1 109:1 167:1 238:1 310:1 382:1 484:1 10004:1 19585:1 36409:1 38662:1 48205:1 48207:1 48209:1 48236:1 54509:1 60808:1 67113:1 73406:1 
0 0.101265810210404 0 0 0 0 0 0 0 0 0 0.1422802600834283 6:1 22:1 43:1 59:1 71:1 92:1 108:1 179:1 238:1 310:1 382:1 8278:1 10004:1 19783:1 36929:1 38668:1 48205:1 48207:1 48209:1 50984:1 54509:1 60856:1 67156:1 73406:1 
0 0 0 0 0 0 0.1003666357277021 0 0 0 0 0 3:1 22:1 37:1 55:1 71:1 89:1 105:1 169:1 239:1 310:1 382:1 1515:1 10004:1 19585:1 32265:1 38684:1 48205:1 48207:1 48209:1 49871:1 54509:1 60886:1 67113:1 73406:1 
0 0 0 0 0 0 0 0 0 0 0 0.1551890228438474 6:1 22:1 42:1 54:1 70:1 87:1 108:1 166:1 238:1 310:1 382:1 3645:1 10004:1 19612:1 37178:1 38654:1 48205:1 48207:1 48209:1 48258:1 54509:1 60808:1 67156:1 73406:1 
0.1217337697195404 0 0 0 0 0 0.1231220520913508 0 0 0 0 0 3:1 22:1 44:1 57:1 74:1 89:1 105:1 169:1 238:1 310:1 382:1 8513:1 10004:1 19608:1 30432:1 39531:1 48205:1 48207:1 48209:1 50443:1 54509:1 64657:1 67113:1 73406:1 
0 0 0.08804417743133205 0 0 0 0 0 0 0 0 0 6:1 22:1 42:1 59:1 71:1 85:1 137:1 166:1 244:1 310:1 382:1 705:1 10012:1 19605:1 29377:1 38654:1 48205:1 48207:1 48209:1 48410:1 54509:1 60808:1 67113:1 73406:1 
0.2927195100514616 0 0 0 0 0 0 0 0 0 0 0 4:1 22:1 37:1 55:1 71:1 87:1 109:1 166:1 238:1 310:1 382:1 484:1 10004:1 19585:1 37326:1 38654:1 48205:1 48207:1 48209:1 48236:1 54509:1 60808:1 67113:1 73406:1 
0 0 0 0 0 0.1211901523890214 0 0 0 0 0 0 9:1 22:1 42:1 54:1 78:1 91:1 121:1 167:1 238:1 310:1 382:1 2367:1 10004:1 19612:1 31224:1 38711:1 48205:1 48207:1 48209:1 49516:1 54509:1 60924:1 67156:1 73406:1 
0 0 0 0.1568694815148131 0 0 0 0 0 0 0 0 6:1 22:1 37:1 59:1 70:1 92:1 108:1 186:1 244:1 310:1 382:1 511:1 10271:1 19713:1 29156:1 38738:1 48205:1 48207:1 48209:1 48258:1 54509:1 64136:1 67156:1 73406:1 
0 0.2498440030353603 0 0 0 0 0 0 0 0 0 0 7:1 22:1 43:1 59:1 71:1 88:1 112:1 178:1 238:1 310:1 382:1 468:1 10004:1 19605:1 29193:1 41556:1 48205:1 48207:1 48209:1 48223:1 54509:1 63157:1 67113:1 73406:1 
0 0.1367847579353277 0 0 0 0 0 0 0 0 0 0 7:1 22:1 42:1 59:1 71:1 88:1 112:1 178:1 238:1 310:1 382:1 468:1 10004:1 19585:1 37700:1 47246:1 48205:1 48207:1 48209:1 48223:1 54509:1 60886:1 67113:1 73406:1 
0 0 0 0.0937944551557582 0 0 0 0 0 0 0 0 3:1 22:1 44:1 57:1 72:1 92:1 105:1 179:1 243:1 310:1 382:1 9360:1 10004:1 19605:1 30432:1 38668:1 48205:1 48207:1 48209:1 54086:1 54509:1 66683:1 67113:1 73406:1 
0 0 0 0.1029704135009814 0 0 0 0 0 0 0 0 6:1 22:1 37:1 53:1 75:1 92:1 108:1 186:1 244:1 310:1 382:1 9376:1 11489:1 19605:1 32959:1 38738:1 48205:1 48207:1 48209:1 48219:1 54509:1 61751:1 67113:1 73406:1 
0 0 0.1211721231552378 0 0 0 0 0 0 0 0 0 6:1 22:1 37:1 53:1 68:1 89:1 110:1 169:1 238:1 310:1 382:1 9444:1 10004:1 19605:1 38059:1 38663:1 48205:1 48207:1 48209:1 49705:1 54509:1 60816:1 67113:1 73406:1 
0 0 0 0 0 0 0.121303500529105 0 0 0 0 0 2:1 22:1 44:1 55:1 78:1 88:1 116:1 168:1 238:1 310:1 382:1 480:1 10004:1 19608:1 31449:1 47713:1 48205:1 48207:1 48209:1 48233:1 54509:1 60850:1 67113:1 73406:1 
0 0.1002519825542596 0 0 0 0 0.09670358206937953 0 0 0 0 0 7:1 22:1 44:1 57:1 69:1 91:1 112:1 178:1 238:1 310:1 382:1 1754:1 10004:1 19608:1 29793:1 38711:1 48205:1 48207:1 48209:1 49138:1 54509:1 63124:1 67113:1 73406:1 
0 0 0.1044270658434919 0 0 0 0 0 0 0 0 0 6:1 22:1 42:1 54:1 72:1 92:1 137:1 179:1 239:1 310:1 382:1 4569:1 10012:1 19608:1 29661:1 38668:1 48205:1 48207:1 48209:1 50925:1 54509:1 66952:1 67113:1 73406:1 
0 0 0.09367425475534122 0 0 0 0 0 0 0 0 0 6:1 22:1 37:1 61:1 74:1 85:1 108:1 166:1 244:1 310:1 382:1 9815:1 10562:1 19608:1 36945:1 38654:1 48205:1 48207:1 48209:1 48950:1 54509:1 60808:1 67113:1 73406:1 
0 0 0 0 0 0.1533189842314926 0 0 0 0 0 0 9:1 22:1 37:1 58:1 74:1 91:1 121:1 166:1 238:1 310:1 382:1 1332:1 10004:1 19612:1 30422:1 38654:1 48205:1 48207:1 48209:1 48856:1 54509:1 60808:1 67156:1 73406:1 
0 0.0530391095562647 0.1311207268509011 0.1123060670103642 0.03125518011329707 0.01034714607788656 0.06038598346741934 0.06519307510188907 0.02539891195024573 0.06615828074457376 0.09961624673979581 0.07371177205879119 6:1 22:1 42:1 54:1 72:1 92:1 108:1 186:1 239:1 310:1 382:1 10001:1 19550:1 19608:1 38652:1 47872:1 48205:1 48207:1 48209:1 48347:1 54509:1 63093:1 67113:1 73406:1 
-0.317850203324642 0 0 0 0.1240619693489022 0 0.1845432591792948 0 0 0 0 0 4:1 22:1 44:1 53:1 77:1 89:1 109:1 191:1 238:1 310:1 382:1 574:1 10004:1 19612:1 29182:1 38773:1 48205:1 48207:1 48209:1 48311:1 54509:1 60907:1 67156:1 73406:1 
-0.1403418009016786 0 0 0 0 0 0 0 0 0 0 0 4:1 22:1 44:1 57:1 73:1 88:1 109:1 166:1 238:1 310:1 382:1 1781:1 10004:1 19608:1 30432:1 38654:1 48205:1 48207:1 48209:1 49157:1 54509:1 60808:1 67113:1 73406:1 
-0.1217337697195404 0 0 0 0 0 0 0 0 0 0 0 4:1 22:1 44:1 55:1 71:1 91:1 109:1 182:1 238:1 310:1 382:1 739:1 10004:1 19612:1 31032:1 40839:1 48205:1 48207:1 48209:1 48240:1 54509:1 61130:1 67156:1 73406:1 
-0.1921470287764687 0.1425897372636177 0.1804762195687056 0 0 0 0.2057291692536737 0 0.1240619693489022 0 0 0.1214641872161347 4:1 22:1 44:1 55:1 71:1 91:1 109:1 182:1 238:1 310:1 382:1 739:1 10004:1 19612:1 31032:1 40839:1 48205:1 48207:1 48209:1 48240:1 54509:1 60849:1 67156:1 73406:1 
-0.1593692235190725 0 0 0 0 0 0 0 0 0 0 0 4:1 22:1 44:1 57:1 77:1 87:1 109:1 166:1 238:1 310:1 382:1 484:1 10004:1 19605:1 30432:1 38654:1 48205:1 48207:1 48209:1 48236:1 54509:1 60808:1 67113:1 73406:1 
-0.1338164631811969 0 0 0 0 0 0.1315563179720241 0 0 0 0 0 4:1 22:1 40:1 58:1 74:1 88:1 109:1 167:1 238:1 310:1 382:1 1781:1 10004:1 19608:1 31609:1 38688:1 48205:1 48207:1 48209:1 49157:1 54509:1 60838:1 67113:1 73406:1 
-0.1818566128587742 0 0 0 0 0 0.1132855143106376 0 0 0 0 0 4:1 22:1 44:1 58:1 73:1 91:1 109:1 167:1 238:1 310:1 382:1 3265:1 10004:1 19585:1 29529:1 41293:1 48205:1 48207:1 48209:1 50087:1 54509:1 60808:1 67113:1 73406:1 
-0.2099978017952241 0 0.1330178374419364 0.1486355681343829 0 0.110352265812714 0 0 0 0 0.13092969932512 0.09739638012043082 4:1 22:1 44:1 57:1 72:1 92:1 109:1 179:1 239:1 310:1 382:1 766:1 10004:1 19612:1 31032:1 38818:1 48205:1 48207:1 48209:1 48311:1 54509:1 60909:1 67156:1 73406:1 
-0.2512985276217621 0 0 0 0 0 0.1179799562555814 0 0 0 0 0 4:1 22:1 44:1 61:1 78:1 92:1 109:1 179:1 238:1 310:1 382:1 463:1 10004:1 19612:1 31032:1 38818:1 48205:1 48207:1 48209:1 48214:1 54509:1 60992:1 67156:1 73406:1 
-0.2110404319265477 0 0 0 0 0 0 0 0 0 0 0 4:1 22:1 44:1 56:1 71:1 88:1 109:1 166:1 238:1 310:1 382:1 518:1 10004:1 19608:1 30432:1 38654:1 48205:1 48207:1 48209:1 48264:1 54509:1 60808:1 67113:1 73406:1 
-0.3053402968429184 0.2001118382419682 0 0 0 0 0 0 0 0 0 0 4:1 22:1 40:1 55:1 71:1 91:1 109:1 167:1 238:1 310:1 382:1 484:1 10004:1 19585:1 32645:1 42193:1 48205:1 48207:1 48209:1 48236:1 54509:1 60808:1 67113:1 73406:1 
-0.2927195100514616 0 0 0 0 0 0 0 0 0 0 0 4:1 22:1 40:1 55:1 74:1 91:1 109:1 166:1 238:1 310:1 382:1 484:1 10004:1 19608:1 32741:1 38654:1 48205:1 48207:1 48209:1 48236:1 54509:1 60808:1 67113:1 73406:1 
-0.1238876539273014 0 0 0 0 0 0.1854927618945579 0 0 0 0 0 4:1 22:1 35:1 66:1 72:1 91:1 109:1 167:1 238:1 310:1 382:1 484:1 10004:1 19585:1 33152:1 42699:1 48205:1 48207:1 48209:1 48236:1 54509:1 63214:1 67113:1 73406:1 
-0.2920027661836899 0 0.1072080898549103 0 0 0 0.1728787385353247 0 0 0 0 0.120121539060366 4:1 22:1 48:1 53:1 68:1 88:1 109:1 167:1 238:1 310:1 382:1 518:1 10004:1 19608:1 33896:1 41772:1 48205:1 48207:1 48209:1 48264:1 54509:1 63964:1 67113:1 73406:1 
-0.4953933458111481 0.1675575816007448 0 0 0 0 0 0 0 0 0.2013071830580906 0 4:1 22:1 35:1 54:1 72:1 91:1 109:1 167:1 238:1 310:1 382:1 518:1 10004:1 19608:1 31110:1 45698:1 48205:1 48207:1 48209:1 48264:1 54509:1 60812:1 67113:1 73406:1 
-0.4669270607950707 0 0.1057999218177736 0 0 0 0 0.1194201855992394 0.09858495043868105 0 0 0 4:1 22:1 42:1 52:1 83:1 91:1 109:1 167:1 238:1 310:1 382:1 518:1 10004:1 19612:1 32083:1 38875:1 48205:1 48207:1 48209:1 48264:1 54509:1 60808:1 67156:1 73406:1 
-0.1590763739053398 0 0 0 0 0 0 0 0 0 0 0 4:1 22:1 35:1 58:1 70:1 91:1 109:1 167:1 238:1 310:1 382:1 518:1 10004:1 19608:1 37135:1 39409:1 48205:1 48207:1 48209:1 48264:1 54509:1 62389:1 67113:1 73406:1 
-0.2235892833510864 0.1123601879854033 0.1487140859575742 0.1319892390104031 0 0.1855287451398442 0 0 0 0 0.1028859320448575 0 4:1 22:1 35:1 55:1 69:1 91:1 109:1 185:1 238:1 310:1 382:1 1688:1 10004:1 19585:1 35839:1 46718:1 48205:1 48207:1 48209:1 49093:1 54509:1 60808:1 67113:1 73406:1 
-0.1199615666423531 0.1540000976082306 0 0 0 0 0 0 0 0 0 0 4:1 22:1 40:1 60:1 72:1 85:1 109:1 166:1 238:1 310:1 382:1 1375:1 10004:1 19608:1 32366:1 38654:1 48205:1 48207:1 48209:1 48236:1 54509:1 60808:1 67113:1 73406:1 
-0.3504495808294878 0 0 0 0 0 0 0 0 0 0 0 4:1 22:1 35:1 66:1 72:1 91:1 109:1 167:1 238:1 310:1 382:1 484:1 10004:1 19608:1 38378:1 39111:1 48205:1 48207:1 48209:1 48236:1 54509:1 60808:1 67113:1 73406:1 
-0.2766527655371598 0.1280244362164675 0.2178649165046736 0.1855287451398442 0.1736111042124256 0.2403846242018708 0.05563114795684423 0.2178649165046736 0.07502615377374459 0.1636661303093792 0.2 0.2403846242018708 4:1 22:1 44:1 61:1 74:1 87:1 109:1 166:1 238:1 310:1 382:1 484:1 10004:1 19608:1 30432:1 38654:1 48205:1 48207:1 48209:1 48236:1 54509:1 60808:1 67113:1 73406:1 
-0.4439266812772698 -0.1675575816007448 0.1690904151815875 0 0 0 0 0 0 0 0 0 7:1 22:1 44:1 59:1 70:1 91:1 112:1 178:1 238:1 310:1 382:1 468:1 10004:1 19585:1 29182:1 38711:1 48205:1 48207:1 48209:1 48223:1 54509:1 60849:1 67113:1 73406:1 
-0.3048882210577943 -0 0 0 0 0 0.1392480528259919 0 0 0 0 0 7:1 22:1 44:1 55:1 71:1 90:1 112:1 178:1 238:1 310:1 382:1 468:1 10004:1 19585:1 29182:1 38685:1 48205:1 48207:1 48209:1 48223:1 54509:1 62685:1 67113:1 73406:1 
-0.4345563012118217 -0 0 0 0 0 0 0.1349902650267711 0 0 0 0 7:1 22:1 40:1 55:1 71:1 88:1 112:1 178:1 238:1 310:1 382:1 468:1 10004:1 19608:1 32099:1 41648:1 48205:1 48207:1 48209:1 48223:1 54509:1 62795:1 67113:1 73406:1 
-0.3522636873596113 -0 0 0 0 0 0 0 0 0 0 0 7:1 22:1 43:1 59:1 72:1 90:1 112:1 178:1 238:1 310:1 382:1 468:1 10004:1 19608:1 29643:1 38708:1 48205:1 48207:1 48209:1 48223:1 54509:1 60856:1 67113:1 73406:1 
-0.4253784344988478 -0.1540000976082306 0.1028335159210595 0 0 0 0 0 0 0 0 0.07482075732245387 7:1 22:1 40:1 60:1 72:1 88:1 112:1 178:1 238:1 310:1 382:1 468:1 10004:1 19608:1 32366:1 42190:1 48205:1 48207:1 48209:1 48223:1 54509:1 60808:1 67113:1 73406:1 
-0.3531586271956921 -0 0 0.1481481481481481 0.107888997711169 0.108440316141053 0.1789930474496002 0 0.09705343397732791 0 0.1417936008398709 0.11844122544082 7:1 22:1 44:1 59:1 70:1 88:1 112:1 178:1 238:1 310:1 382:1 468:1 10004:1 19783:1 29669:1 43923:1 48205:1 48207:1 48209:1 48223:1 54509:1 60856:1 67156:1 73406:1 
-0.5 -0.2001118382419682 0.1373052507405766 0.1303253551304963 0 0.1540271342306445 0.1332274784314476 0.09246839147292905 0 0.1031355415441707 0.1761836024450313 0.1510507572661059 7:1 22:1 35:1 54:1 72:1 91:1 112:1 178:1 238:1 310:1 382:1 477:1 10004:1 19608:1 32310:1 45698:1 48205:1 48207:1 48209:1 48223:1 54509:1 60812:1 67113:1 73406:1 
-0.3982692090006885 -0.3829743614654886 0.2403846242018708 0.1736111042124256 0.1552795017259062 0.2403846242018708 0.2 0.2403846242018708 0.1736111042124256 0.1552795017259062 0.1855287451398442 0.2178649165046736 4:1 22:1 40:1 55:1 71:1 94:1 109:1 166:1 238:1 310:1 382:1 502:1 10004:1 19585:1 37319:1 38654:1 48205:1 48207:1 48209:1 48252:1 54509:1 60808:1 67113:1 73406:1 
-0.3260954348410241 -0.2178649165046736 -0 0 0 0.1248979190860337 0 0 0.1826894232378297 0 0.1022008233345862 0.1762857723880663 6:1 22:1 44:1 55:1 74:1 91:1 110:1 184:1 238:1 310:1 382:1 2666:1 10004:1 19608:1 31032:1 38699:1 48205:1 48207:1 48209:1 48566:1 54509:1 60808:1 67113:1 73406:1 
-0.4601838396604406 -0.1057999218177736 -0.1373052507405766 0 0.1204545463781711 0 0 0 0 0 0 0 6:1 22:1 42:1 61:1 70:1 89:1 110:1 169:1 238:1 310:1 382:1 2731:1 10004:1 19612:1 31382:1 38939:1 48205:1 48207:1 48209:1 48586:1 54509:1 62348:1 67156:1 73406:1 
-0.2513056121927296 -0 -0 0 0 0 0 0 0 0 0 0 6:1 22:1 40:1 55:1 71:1 89:1 110:1 169:1 238:1 310:1 382:1 868:1 10004:1 19608:1 31583:1 38663:1 48205:1 48207:1 48209:1 48526:1 54509:1 60999:1 67113:1 73406:1 
-0.3162682207358317 -0 -0.2403846242018708 0 0 0 0.09134350974432633 0.1478623845193164 0 0 0 0 6:1 22:1 40:1 55:1 71:1 91:1 110:1 184:1 238:1 310:1 382:1 3098:1 10004:1 19585:1 31749:1 38699:1 48205:1 48207:1 48209:1 49333:1 54509:1 60808:1 67113:1 73406:1 
-0.191756522162297 -0 -0 0.2214849270035263 0 0 0 0 0 0 0 0.1556119933254786 6:1 22:1 40:1 53:1 75:1 85:1 108:1 166:1 244:1 310:1 382:1 3895:1 10030:1 19608:1 31609:1 38654:1 48205:1 48207:1 48209:1 48566:1 54509:1 60808:1 67113:1 73406:1 
-0.2640694709769481 -0.1036385342348549 -0 0 0 0 0 0 0 0 0 0 6:1 22:1 44:1 55:1 71:1 88:1 137:1 181:1 244:1 310:1 382:1 4553:1 11359:1 19612:1 33204:1 42752:1 48205:1 48207:1 48209:1 50913:1 54509:1 60825:1 67156:1 73406:1 
-0.1693419535086168 -0 -0.1028335159210595 0 0 0 0 0 0 0 0 0 6:1 22:1 35:1 66:1 72:1 88:1 137:1 176:1 239:1 310:1 382:1 5430:1 10012:1 19608:1 32940:1 42983:1 48205:1 48207:1 48209:1 48992:1 54509:1 60808:1 67113:1 73406:1 
-0.1587491960600326 -0.1487140859575742 -0.1690904151815875 0.1459369431474917 0 0.1561294335185899 0 0.1038187872861708 0 0.1042782184994989 0.2047457418576756 0.2354888969844718 6:1 22:1 35:1 66:1 72:1 85:1 108:1 166:1 244:1 310:1 382:1 5758:1 10004:1 19608:1 29126:1 38654:1 48205:1 48207:1 48209:1 50568:1 54509:1 60808:1 67113:1 73406:1 
-0.1044270658434919 -0 -0 0 0 0 0 0 0 0 0 0 6:1 22:1 35:1 66:1 72:1 85:1 137:1 166:1 244:1 310:1 382:1 2077:1 10012:1 19608:1 34572:1 38654:1 48205:1 48207:1 48209:1 49139:1 54509:1 60808:1 67113:1 73406:1 
-0.1634469118883767 -0.1072080898549103 -0 0.1659259266323513 0.08500186588362378 0 0.1126605772070035 0.09093973256488373 0 0.08311143265009531 0 0 6:1 22:1 44:1 55:1 78:1 92:1 108:1 186:1 238:1 310:1 383:1 3414:1 10004:1 19612:1 31032:1 38738:1 48205:1 48207:1 48209:1 49504:1 54509:1 60856:1 67156:1 74052:1 
-0.1867982465169225 -0.0768376853338507 -0 0.07014165178085729 0 0 0.1288370426654946 0 0 0 0.06898669689895019 0.2334134710170112 6:1 22:1 44:1 53:1 73:1 92:1 108:1 179:1 260:1 311:1 382:1 7196:1 10562:1 19612:1 29182:1 38668:1 48205:1 48207:1 48209:1 48420:1 54526:1 65211:1 67156:1 73406:1 
-0.2426621781672716 -0 -0 0 0 0 0.1656080771720332 0 0 0 0.1628912385272706 0 6:1 22:1 40:1 55:1 71:1 89:1 110:1 169:1 238:1 310:1 382:1 1008:1 10004:1 19608:1 36420:1 38718:1 48205:1 48207:1 48209:1 48546:1 54509:1 61608:1 67113:1 73406:1 
-0.2178649165046736 -0 -0 0.2718750143280402 0 0 0.1217140357979757 0 0 0 0.1891065698343753 0.2274514926584013 6:1 22:1 35:1 66:1 72:1 92:1 108:1 179:1 239:1 310:1 382:1 7955:1 10004:1 19608:1 29582:1 38668:1 48205:1 48207:1 48209:1 49504:1 54509:1 62097:1 67113:1 73406:1 
-0.3627206293336769 -0.1330178374419364 -0 0 0 0.1359839268328991 0.1918096676391585 0 0.1172646486896618 0 0 0.1249641065812166 6:1 22:1 42:1 53:1 78:1 91:1 136:1 167:1 238:1 310:1 382:1 8584:1 10004:1 19612:1 37235:1 46783:1 48205:1 48207:1 48209:1 51255:1 54509:1 60808:1 67156:1 73406:1 
-0.3506321383050889 -0 -0 0.09897574739236821 0 0 0 0 0 0 0 0.08660108392745558 6:1 22:1 42:1 53:1 68:1 89:1 110:1 169:1 239:1 310:1 382:1 9396:1 10004:1 19608:1 30634:1 38663:1 48205:1 48207:1 48209:1 48714:1 54509:1 62949:1 67113:1 73406:1 
-0.1289554106278114 -0 -0 0 0 0 0 0 0 0 0.07799305168458683 0 6:1 22:1 35:1 66:1 72:1 85:1 137:1 166:1 244:1 310:1 382:1 3296:1 10012:1 19608:1 38378:1 38654:1 48205:1 48207:1 48209:1 49084:1 54509:1 60808:1 67113:1 73406:1 
-0.1632350022716115 -0 -0 0.1298583482191427 0.05704358943151884 0.04871318512639193 0.1736111042124256 0.05984734302320838 0.03088349945848637 0.1135866980051747 0.1156640931700875 0.07503589341878344 6:1 22:1 35:1 66:1 70:1 88:1 137:1 181:1 244:1 310:1 382:1 4942:1 10012:1 19608:1 38415:1 47964:1 48205:1 48207:1 48209:1 49608:1 54509:1 60838:1 67113:1 73406:1 
-0.5 -0 -0 -0.2214849270035263 0 0 0.07268115019181487 0 0 0 0.09399108187219013 0.2643426964905785 6:1 22:1 43:1 59:1 75:1 92:1 108:1 186:1 244:1 310:1 382:1 511:1 10004:1 19608:1 29193:1 38738:1 48205:1 48207:1 48209:1 48258:1 54509:1 60808:1 67113:1 73406:1 
-0.4518708007459236 -0.1855287451398442 -0.1736111042124256 -0.2649016740247195 0 0.1464754869800653 0.1521488777434375 0.1326767097302216 0.08602637641684176 0.07899373324958603 0.1634246888610723 0.4079785580614032 6:1 22:1 44:1 53:1 70:1 85:1 108:1 166:1 287:1 310:1 382:1 511:1 10278:1 19605:1 35387:1 38654:1 48205:1 48207:1 48209:1 48258:1 54509:1 60808:1 67113:1 73406:1 
-0.3747343980194868 -0.1319892390104031 -0.1303253551304963 -0.3459369431474917 0 0.109605157671035 0.1474931423647917 0 0 0.1251005439347515 0.20087145883493 0.1559415347595648 6:1 22:1 35:1 66:1 72:1 92:1 108:1 186:1 244:1 310:1 382:1 1342:1 10004:1 19608:1 36594:1 38738:1 48205:1 48207:1 48209:1 48258:1 54509:1 60886:1 67113:1 73406:1 
-0.2947881996668767 -0.1486355681343829 -0.1481481481481481 -0.2718750143280402 0.1420454553151426 0.1636661303093792 0.1636661303093792 0.1636661303093792 0.1552795017259062 0.1065350118902582 0.2 0.1736111042124256 6:1 22:1 35:1 55:1 69:1 92:1 118:1 179:1 239:1 310:1 382:1 7947:1 10225:1 19608:1 30199:1 38668:1 48205:1 48207:1 48209:1 49229:1 54509:1 60856:1 67113:1 73406:1 
-0.3350128628646284 -0.2976730735613279 -0.2631684994370752 -0.2625000016933138 -0.1420454553151426 0.1855287451398442 0.2403846242018708 0.1552795017259062 0.2 0.1481481481481481 0.1552795017259062 0.1636661303093792 7:1 22:1 44:1 58:1 74:1 89:1 128:1 169:1 238:1 310:1 382:1 538:1 10004:1 19612:1 29182:1 42952:1 48205:1 48207:1 48209:1 48282:1 54509:1 61716:1 67156:1 73406:1 
-0.3719963829219924 -0.2403846242018708 -0.108440316141053 -0.1736111042124256 -0.109605157671035 -0 0.1585403681523427 0 0 0 0.1374999983066862 0.1346336576588617 9:1 22:1 35:1 66:1 72:1 87:1 121:1 166:1 238:1 310:1 382:1 1688:1 10004:1 19608:1 34279:1 38654:1 48205:1 48207:1 48209:1 49093:1 54509:1 60808:1 67113:1 73406:1 
-0.4923127694056257 -0.1855287451398442 -0.1540271342306445 -0.1561294335185899 -0.1464754869800653 -0.1855287451398442 0.1765416041398784 0.1112434559389163 0.1201923170759492 0 0.114295419121173 0.1257715405033643 9:1 22:1 44:1 55:1 78:1 91:1 121:1 166:1 238:1 310:1 382:1 1332:1 10004:1 19612:1 31032:1 38654:1 48205:1 48207:1 48209:1 48856:1 54509:1 60808:1 67156:1 73406:1 
-0.2816607607449038 -0.110352265812714 -0.2403846242018708 -0.1359839268328991 -0.1636661303093792 -0 0.2 0.2403846242018708 0.1736111042124256 0.1636661303093792 0.2 0.2178649165046736 9:1 22:1 35:1 55:1 71:1 87:1 121:1 166:1 238:1 310:1 382:1 8079:1 10004:1 20171:1 36730:1 38654:1 48205:1 48207:1 48209:1 53226:1 54509:1 60808:1 67113:1 73406:1 
-0.2908511387385931 -0.1728787385353247 -0.1332274784314476 -0.1288370426654946 -0.1474931423647917 -0 -0 0.1921317658350502 0 0.09310784382977219 0.1291397604325142 0.1046855837154149 2:1 22:1 35:1 66:1 72:1 88:1 116:1 168:1 238:1 310:1 383:1 480:1 10004:1 19608:1 34279:1 42751:1 48205:1 48207:1 48209:1 48233:1 54509:1 61030:1 67113:1 74289:1 
-0.3323970524813011 -0.2057291692536737 -0 -0.1217140357979757 -0 -0.09062499713439197 -0.1765416041398784 0 0.09193933036934528 0 0 0 9:1 22:1 44:1 53:1 68:1 91:1 121:1 167:1 238:1 310:1 382:1 5520:1 10004:1 19612:1 29793:1 39364:1 48205:1 48207:1 48209:1 51548:1 54509:1 60821:1 67156:1 73406:1 
-0.3159137244852367 -0.1854927618945579 -0.1392480528259919 -0.1736111042124256 -0.1521488777434375 -0 -0.2 0 0 0.08069018467980725 0.173745330446572 0.1747476768199586 9:1 22:1 35:1 66:1 72:1 91:1 121:1 167:1 238:1 310:1 382:1 2367:1 10004:1 19608:1 33363:1 43940:1 48205:1 48207:1 48209:1 49516:1 54509:1 61531:1 67113:1 73406:1 
-0.3485101788845391 -0.1845432591792948 -0.1789930474496002 -0.1918096676391585 -0 -0.1497596270674789 -0 0.1055477736356199 0.1271739128020336 0 0.07915162188313331 0.1249995688480265 3:1 22:1 44:1 53:1 73:1 89:1 105:1 169:1 238:1 310:1 382:1 7197:1 10004:1 19612:1 29182:1 38673:1 48205:1 48207:1 48209:1 52614:1 54509:1 61018:1 67156:1 73406:1 
-0.1896611368508204 -0.1315563179720241 -0 -0.09134350974432633 -0.07268115019181487 -0 -0 0 0 0 0 0 4:1 22:1 44:1 53:1 73:1 91:1 109:1 167:1 238:1 313:1 382:1 473:1 10004:1 19612:1 29182:1 45396:1 48205:1 48207:1 48209:1 48227:1 58913:1 60821:1 67156:1 73406:1 
-0.3162136684663259 -0.1132855143106376 -0 -0.1126605772070035 -0.1636661303093792 -0 -0.1585403681523427 0.0936893018472108 0 0 0.1695398633583454 0 3:1 22:1 44:1 55:1 71:1 89:1 105:1 169:1 239:1 310:1 382:1 9178:1 10004:1 19585:1 29263:1 38663:1 48205:1 48207:1 48209:1 53976:1 54509:1 66572:1 67113:1 73406:1 
-0.1940389522749472 -0.1736111042124256 -0.2 -0.1656080771720332 -0 -0 -0 0.07992180236521484 0.06334017135656088 0.06745796346834089 0.1855287451398442 0.1636661303093792 4:1 22:1 44:1 55:1 71:1 88:1 109:1 167:1 238:1 313:1 382:1 463:1 10004:1 19585:1 29263:1 47375:1 48205:1 48207:1 48209:1 48214:1 60275:1 60816:1 67113:1 73406:1 
-0.2578147949190606 -0.1194201855992394 -0.1349902650267711 -0.1478623845193164 -0.1326767097302216 -0 -0.1112434559389163 -0.1921317658350502 0 0.07102273059735208 0.1662222226460775 0.1433404560037383 3:1 22:1 35:1 66:1 72:1 89:1 114:1 169:1 243:1 312:1 383:1 4551:1 10004:1 19608:1 34279:1 38931:1 48205:1 48207:1 48209:1 50633:1 54532:1 61924:1 67113:1 74289:1 
-0.4859022886869439 -0.2178649165046736 -0.3328530156747999 -0.2546058628742629 -0.1636661303093792 -0.1552795017259062 -0.2403846242018708 -0.2791588778480456 0.1736111042124256 0.1736111042124256 0.2967338645175084 0.2403846242018708 3:1 22:1 42:1 55:1 71:1 88:1 152:1 166:1 238:1 310:1 382:1 8015:1 10004:1 19608:1 36666:1 38654:1 48205:1 48207:1 48209:1 53187:1 54509:1 60808:1 67113:1 73406:1 
-0.4377104377104377 -0.2976730735613279 -0.2706645381897536 -0.3308375713859778 -0.2413058781427479 -0.2 -0.2938034212883748 -0.2824534145279397 -0.1736111042124256 0.1552795017259062 0.1636661303093792 0.2 6:1 22:1 44:1 55:1 76:1 91:1 110:1 184:1 238:1 310:1 382:1 5784:1 10004:1 19612:1 29182:1 40014:1 48205:1 48207:1 48209:1 51720:1 54509:1 60808:1 67156:1 73406:1 
-0.3318498955096852 -0.1636661303093792 -0.2584150432700769 -0.300976349154769 -0.3106292890745957 -0.1481481481481481 -0.1636661303093792 -0.2412559919779203 -0.2446338348097777 -0.1552795017259062 0.3086419971118972 0.2 6:1 22:1 35:1 54:1 69:1 88:1 108:1 181:1 244:1 310:1 382:1 6769:1 10004:1 19608:1 30209:1 44966:1 48205:1 48207:1 48209:1 49755:1 54509:1 64947:1 67113:1 73406:1 
-0.2735304141795092 -0.1028859320448575 -0 -0.146979748583537 -0.2 -0 -0 -0.1291397604325142 -0 -0 -0.1884496850109618 0.1820751264517077 6:1 22:1 35:1 54:1 69:1 88:1 108:1 181:1 239:1 310:1 382:1 3208:1 10004:1 19608:1 35430:1 41218:1 48205:1 48207:1 48209:1 50056:1 54509:1 61755:1 67113:1 73406:1 
-0.3075286058904722 -0.2013071830580906 -0.1417936008398709 -0.2178649165046736 -0.09399108187219013 -0.08425677406833484 -0.114295419121173 -0.1695398633583454 -0.09673386451750837 -0 -0.1201923121009354 0.1116117700419516 6:1 22:1 35:1 54:1 72:1 88:1 137:1 181:1 238:1 310:1 382:1 4669:1 10004:1 19608:1 36617:1 43306:1 48205:1 48207:1 48209:1 50648:1 54509:1 63531:1 67113:1 73406:1 
-0.2738938780119575 -0.13092969932512 -0.1761836024450313 -0.1628912385272706 -0.1634246888610723 -0.07102272765757131 -0.1374999983066862 -0.2646803670229775 -0.1662222226460775 -0.07799713832023898 -0 0.1420454553151426 3:1 22:1 44:1 55:1 71:1 91:1 114:1 185:1 243:1 311:1 382:1 9175:1 10004:1 19585:1 29263:1 40823:1 48205:1 48207:1 48209:1 53974:1 54513:1 62112:1 67113:1 73406:1 
-0.3881471576596809 -0.2 -0.1855287451398442 -0.3938523116920509 -0.20087145883493 -0 -0.2 -0.173745330446572 -0.2 -0.08566899198914017 -0 0.3086419971118972 6:1 22:1 35:1 54:1 72:1 85:1 108:1 166:1 260:1 310:1 382:1 10003:1 10004:1 19608:1 31110:1 38654:1 48205:1 48207:1 48209:1 48643:1 54509:1 60808:1 67113:1 73406:1 
-0.1422802600834283 -0.09739638012043082 -0 -0.2334134710170112 -0 -0 -0 -0.1046855837154149 -0 -0 -0 -0.1116117700419516 6:1 22:1 44:1 53:1 68:1 92:1 108:1 179:1 239:1 311:1 382:1 1164:1 16365:1 19612:1 29793:1 38668:1 48205:1 48207:1 48209:1 48258:1 57847:1 60816:1 67156:1 73406:1 
-0.1668938053025291 -0.120121539060366 -0.07482075732245387 -0.1762857723880663 -0.2551213292384184 -0 -0 -0 -0 -0.09219999790191651 -0 -0 6:1 22:1 44:1 53:1 68:1 92:1 108:1 179:1 239:1 310:1 382:1 511:1 10004:1 19680:1 29182:1 42499:1 48205:1 48207:1 48209:1 48258:1 54509:1 60808:1 67201:1 73406:1 
-0.1826484102303172 -0.1214641872161347 -0.1510507572661059 -0.2866010839274556 -0.1559415347595648 -0 -0.1257715405033643 -0.1747476768199586 -0.1433404560037383 -0 -0.08680555210621282 -0.1420454553151426 6:1 22:1 35:1 66:1 72:1 88:1 137:1 181:1 239:1 311:1 382:1 5740:1 10061:1 19608:1 33363:1 39641:1 48205:1 48207:1 48209:1 51484:1 55815:1 60808:1 67113:1 73406:1 
-0.5 -0 -0.11844122544082 -0.1556119933254786 -0.1528572288229847 -0 -0.1346336576588617 -0.1249995688480265 -0 -0 -0 -0 6:1 22:1 42:1 53:1 76:1 85:1 108:1 166:1 238:1 310:1 382:1 5103:1 10004:1 19585:1 34001:1 38654:1 48205:1 48207:1 48209:1 48258:1 54509:1 60808:1 67113:1 73406:1 
-0.5 -0 -0 -0.2274514926584013 -0.2643426964905785 -0 -0 -0 -0 -0 -0.1131944478937872 -0.3086419971118972 6:1 22:1 35:1 66:1 74:1 85:1 108:1 166:1 259:1 310:1 382:1 511:1 10004:1 19608:1 38384:1 38654:1 48205:1 48207:1 48209:1 48258:1 54509:1 60808:1 67113:1 73406:1 
-0.5 -0.2403846242018708 -0.2178649165046736 -0.2354888969844718 -0.1736111042124256 -0.1636661303093792 -0.2178649165046736 -0.1636661303093792 -0.2403846242018708 -0.1078000020980835 -0 -0.1820751264517077 6:1 22:1 44:1 55:1 77:1 85:1 108:1 166:1 238:1 310:1 382:1 4789:1 10004:1 19608:1 33204:1 38654:1 48205:1 48207:1 48209:1 48258:1 54509:1 60808:1 67113:1 73406:1 
