svm_type c_svc
kernel_type polynomial
degree 2
gamma 0.1
coef0 0.6
nr_class 16
total_sv 327
rho -0.434204 -0.454421 -0.635274 -0.0936799 -0.380142 -0.742513 -0.802219 -0.443187 -0.486719 -0.33926 -0.680334 -0.641157 -0.529923 -0.798217 -0.524812 -0.232405 -0.174499 0.160978 -0.364406 -0.34466 -0.347646 -0.469132 -0.21586 -0.297965 -0.572009 -0.346193 -0.422761 -0.326214 -0.540961 0.165552 0.593158 0.0998828 -0.331335 -0.259674 -0.186527 -0.336942 -0.136216 0 -0.240758 -0.470794 -0.456708 -0.479955 0.389222 -0.0636883 -0.519088 -0.61213 -0.541043 -0.341797 -0.311322 -0.535721 -0.406136 -0.599048 -0.540754 -0.599638 -0.483148 -0.633758 -0.755993 -0.760545 -0.710028 -0.536905 -0.51194 -0.568307 -0.723786 -0.60469 -0.676697 -0.163685 -0.171781 -0.158748 -0.126773 -0.213788 -0.338619 -0.157262 -0.220141 -0.207184 -0.382716 -0.633644 -0.080466 0.0306265 -0.222828 0 -0.133088 -0.263127 -0.301368 -0.815425 0.0584027 0.047608 -0.0706073 0 0.0263705 -0.0728889 -0.0457122 -0.508547 -0.0986532 -0.111918 0 -0.119489 -0.265594 -0.0928973 -0.344039 -0.11005 0 -0.0315837 -0.110762 -0.0849381 0 0 0.0760725 -0.0448286 0.0238169 0 0 0 0 0 -0.0898232 -0.233952 0 0.0293889 0 0
label 5 27 16 1 2 13 4 58 6 26 70 25 35 74 8 100
nr_sv 80 38 29 57 70 2 27 2 7 2 2 1 3 4 2 1
SV
0 0 0 0.1525275378675515 0 0 0 0 0 0 0 0 0 0 0 3:1 25:1 36:1 58:1 73:1 89:1 122:1 169:1 238:1 310:1 382:1 515:1 10004:1 19752:1 29130:1 38851:1 48205:1 48207:1 48209:1 48261:1 54509:1 60964:1 67265:1 73406:1 
0.1127354233994857 0 0 0 0 0 0 0 0 0 0 0 0 0 0 3:1 25:1 36:1 51:1 68:1 92:1 114:1 179:1 238:1 310:1 382:1 488:1 10004:1 19702:1 29106:1 38677:1 48205:1 48207:1 48209:1 48238:1 54509:1 61074:1 67227:1 73406:1 
0 0 0 0 0.1136528656298162 0 0 0 0 0 0 0 0 0 0 3:1 25:1 41:1 59:1 70:1 85:1 114:1 166:1 243:1 312:1 382:1 472:1 10004:1 19890:1 29268:1 38654:1 48205:1 48207:1 48209:1 48226:1 54532:1 60808:1 67371:1 73406:1 
0 0 0 0.1134460602643933 0 0 0 0 0 0 0 0 0 0 0 3:1 25:1 38:1 54:1 70:1 91:1 114:1 172:1 238:1 311:1 382:1 997:1 10004:1 20098:1 29113:1 39196:1 48205:1 48207:1 48209:1 48621:1 54526:1 60939:1 67519:1 73406:1 
0 0 0 0 0 0.1338568015854395 0.1219751160933617 0 0 0 0 0 0 0 0 3:1 25:1 40:1 57:1 70:1 87:1 122:1 166:1 243:1 310:1 382:1 673:1 10004:1 20419:1 29325:1 38654:1 48205:1 48207:1 48209:1 48386:1 54509:1 60808:1 67744:1 73406:1 
0 0 0 0.1609845195728611 0 0 0 0 0 0 0 0 0 0 0 3:1 25:1 38:1 54:1 70:1 91:1 114:1 185:1 238:1 310:1 382:1 1658:1 10004:1 20759:1 29113:1 39857:1 48205:1 48207:1 48209:1 48299:1 54509:1 60812:1 67310:1 73406:1 
0 0 0.09092598149586469 0 0 0 0 0 0 0 0 0 0 0 0 6:1 25:1 43:1 55:1 80:1 85:1 108:1 166:1 244:1 312:1 382:1 499:1 10004:1 21195:1 30556:1 38654:1 48205:1 48207:1 48209:1 48249:1 54532:1 60808:1 67405:1 73406:1 
0 0 0 0.1240284715817823 0 0 0 0 0 0 0 0 0 0 0 3:1 25:1 41:1 54:1 70:1 89:1 114:1 169:1 238:1 310:1 382:1 2128:1 10004:1 21281:1 29118:1 38663:1 48205:1 48207:1 48209:1 49377:1 54509:1 61972:1 68302:1 73406:1 
0 0 0 0.1263120212108944 0 0 0 0 0 0 0 0 0 0 0 3:1 25:1 36:1 51:1 68:1 91:1 114:1 185:1 238:1 310:1 382:1 2220:1 10004:1 21321:1 29106:1 38749:1 48205:1 48207:1 48209:1 48737:1 54509:1 60924:1 67692:1 73406:1 
0 0 0 0.1589619953389007 0 0 0 0 0 0 0 0 0 0 0 3:1 25:1 41:1 57:1 77:1 91:1 114:1 185:1 243:1 311:1 420:1 572:1 10004:1 21379:1 29188:1 40009:1 48205:1 48207:1 48209:1 48249:1 54513:1 60808:1 68358:1 74656:1 
0 0 0.1671536216969726 0 0 0 0 0 0 0 0 0 0 0 0 3:1 25:1 37:1 54:1 69:1 89:1 114:1 169:1 238:1 310:1 382:1 663:1 10004:1 19885:1 30936:1 38671:1 48205:1 48207:1 48209:1 48377:1 54509:1 62063:1 67197:1 73406:1 
0 0 0 0.1460757727312328 0 0 0 0 0 0 0 0 0 0 0 3:1 25:1 36:1 51:1 68:1 89:1 114:1 169:1 238:1 310:1 382:1 2243:1 10004:1 21547:1 29106:1 38673:1 48205:1 48207:1 48209:1 48405:1 54509:1 62157:1 68457:1 73406:1 
0.2243217900326344 0 0 0 0 0 0 0 0 0 0 0 0 0 0 3:1 25:1 36:1 51:1 68:1 85:1 114:1 166:1 239:1 310:1 382:1 1620:1 10006:1 21574:1 29106:1 38654:1 48205:1 48207:1 48209:1 48408:1 54509:1 60808:1 68473:1 73406:1 
0 0.1456121776520731 0 0 0 0 0 0 0 0 0 0 0 0 0 3:1 25:1 38:1 54:1 70:1 85:1 114:1 166:1 239:1 310:1 382:1 2505:1 10006:1 20098:1 29113:1 38654:1 48205:1 48207:1 48209:1 48226:1 54509:1 60808:1 67519:1 73406:1 
0.1465776607714054 0 0.1568168361539125 0 0 0.09031110889979983 0 0 0 0 0 0 0 0 0 6:1 25:1 39:1 59:1 71:1 85:1 108:1 166:1 257:1 312:1 382:1 2198:1 10066:1 20056:1 29215:1 38654:1 48205:1 48207:1 48209:1 48984:1 54532:1 60808:1 68337:1 73406:1 
0 0 0.1064989706737138 0 0 0 0 0 0 0 0 0 0 0 0 3:1 25:1 41:1 59:1 70:1 89:1 122:1 169:1 239:1 310:1 382:1 2938:1 10004:1 22039:1 29118:1 38966:1 48205:1 48207:1 48209:1 49875:1 54509:1 62471:1 67800:1 73406:1 
0.3699103464294062 0 0 0 0 0 0 0 0.09798016623469745 0.1220521464116574 0 0 0 0 0 6:1 25:1 39:1 54:1 72:1 85:1 108:1 166:1 244:1 312:1 382:1 675:1 10004:1 20056:1 29215:1 38654:1 48205:1 48207:1 48209:1 48258:1 54532:1 60808:1 67405:1 73406:1 
0.1803819390979632 0.09822050368037845 0.1049683643152582 0.1757757740813093 0 0 0 0 0 0 0 0 0 0 0 6:1 25:1 39:1 54:1 74:1 91:1 110:1 184:1 238:1 312:1 382:1 2156:1 10004:1 22352:1 29132:1 38699:1 48205:1 48207:1 48209:1 48270:1 54532:1 60951:1 68977:1 73406:1 
0 0 0 0.0785934037889443 0 0 0 0 0 0 0 0 0 0 0 3:1 25:1 41:1 55:1 71:1 92:1 114:1 179:1 238:1 321:1 383:1 953:1 10004:1 21270:1 29118:1 38668:1 48205:1 48207:1 48209:1 48590:1 54521:1 61187:1 68997:1 73810:1 
0.1292742964040297 0 0 0 0 0 0 0 0 0 0 0 0 0 0 6:1 25:1 38:1 59:1 71:1 85:1 108:1 166:1 244:1 312:1 382:1 511:1 10059:1 20056:1 29123:1 38654:1 48205:1 48207:1 48209:1 48258:1 54532:1 60808:1 67405:1 73406:1 
0 0 0.08234749503276632 0.2006360758071207 0 0 0 0 0.09083480111557675 0 0 0 0 0 0 10:1 25:1 38:1 57:1 73:1 91:1 140:1 187:1 238:1 310:1 382:1 1975:1 10004:1 20693:1 29224:1 38875:1 48205:1 48207:1 48209:1 48401:1 54509:1 60808:1 67433:1 73406:1 
0 0 0 0.1439218996370128 0 0 0 0 0 0 0 0 0 0 0 3:1 25:1 36:1 51:1 68:1 89:1 122:1 169:1 238:1 310:1 382:1 3631:1 10004:1 22732:1 29106:1 41830:1 48205:1 48207:1 48209:1 48386:1 54509:1 60808:1 67744:1 73406:1 
0 0 0 0.1737283104414613 0 0 0 0 0 0 0 0 0 0 0 3:1 25:1 38:1 54:1 76:1 89:1 114:1 169:1 238:1 310:1 382:1 1585:1 10004:1 20343:1 29416:1 38663:1 48205:1 48207:1 48209:1 49036:1 54509:1 60855:1 67691:1 73406:1 
0.1157598182354001 0 0 0 0 0 0 0 0 0 0 0 0 0 0 3:1 25:1 38:1 57:1 73:1 92:1 114:1 179:1 243:1 310:1 382:1 876:1 10004:1 20143:1 29168:1 38818:1 48205:1 48207:1 48209:1 48532:1 54509:1 62964:1 67554:1 73406:1 
0 0 0 0 0 0 0.1565447409037122 0 0 0 0 0 0 0 0 6:1 25:1 39:1 54:1 74:1 85:1 118:1 166:1 239:1 312:1 382:1 1457:1 10030:1 21195:1 29132:1 38654:1 48205:1 48207:1 48209:1 48566:1 54532:1 60808:1 67405:1 73406:1 
0.133747729048031 0.1406754135711569 0.1584828322021512 0.1510480505874015 0 0 0 0 0 0 0 0 0 0 0 5:1 25:1 42:1 59:1 71:1 92:1 117:1 179:1 238:1 310:1 382:1 841:1 10004:1 20344:1 29362:1 38668:1 48205:1 48207:1 48209:1 48216:1 54509:1 63007:1 67422:1 73406:1 
0.1255110638046818 0 0 0 0 0 0 0 0 0 0 0 0 0 0 3:1 25:1 36:1 58:1 77:1 89:1 114:1 169:1 243:1 310:1 382:1 2009:1 10248:1 21437:1 29130:1 38718:1 48205:1 48207:1 48209:1 48257:1 54509:1 60821:1 68400:1 73406:1 
0 0 0 0.1005167455934205 0 0 0 0 0 0 0 0 0 0 0 3:1 25:1 36:1 51:1 68:1 92:1 114:1 179:1 243:1 310:1 411:1 3673:1 10004:1 22774:1 29106:1 38668:1 48205:1 48207:1 48209:1 50340:1 54509:1 61425:1 69238:1 73507:1 
0.1918967641850728 0 0 0 0 0 0 0 0 0 0 0 0 0 0 3:1 25:1 38:1 59:1 71:1 92:1 114:1 179:1 243:1 310:1 382:1 3885:1 10004:1 20693:1 29416:1 38668:1 48205:1 48207:1 48209:1 48357:1 54509:1 63061:1 67433:1 73406:1 
0 0 0 0 0 0 0 0.1058420562186881 0 0 0 0 0 0 0 3:1 25:1 36:1 51:1 68:1 89:1 122:1 169:1 238:1 310:1 382:1 673:1 10004:1 22986:1 29106:1 41857:1 48205:1 48207:1 48209:1 48386:1 54509:1 60808:1 68459:1 73406:1 
0.09784442299673321 0 0 0.3940283508845016 0 0 0 0 0 0 0 0 0 0 0 3:1 25:1 36:1 51:1 68:1 89:1 105:1 169:1 238:1 310:1 382:1 4026:1 10004:1 21956:1 29106:1 38801:1 48205:1 48207:1 48209:1 50541:1 54509:1 60821:1 67436:1 73406:1 
0 0 0 0 0 0 0 0.1493567241523058 0 0 0 0 0 0 0 3:1 25:1 38:1 54:1 72:1 89:1 114:1 169:1 238:1 310:1 382:1 1980:1 10004:1 20403:1 29416:1 39317:1 48205:1 48207:1 48209:1 49282:1 54509:1 60808:1 67596:1 73406:1 
0.1802731355805918 0 0.1612177993296269 0.1748697703396454 0 0 0 0 0 0 0.1762820594461767 0 0 0 0 6:1 25:1 38:1 57:1 73:1 92:1 108:1 186:1 239:1 329:1 382:1 4081:1 10004:1 23182:1 29416:1 38701:1 48205:1 48207:1 48209:1 48265:1 54566:1 60847:1 67695:1 73406:1 
0 0 0 0.2188676934601029 0 0 0 0 0 0 0 0 0 0 0 3:1 25:1 38:1 54:1 76:1 91:1 114:1 185:1 243:1 310:1 382:1 2243:1 10004:1 19668:1 29230:1 42143:1 48205:1 48207:1 48209:1 48405:1 54509:1 60939:1 67203:1 73406:1 
0 0 0 0.2268981385885659 0 0 0 0 0 0 0 0 0 0 0 3:1 25:1 36:1 51:1 68:1 88:1 114:1 176:1 238:1 310:1 382:1 4369:1 10004:1 23470:1 29106:1 42567:1 48205:1 48207:1 48209:1 50768:1 54509:1 63362:1 69666:1 73406:1 
0 0 0 0.02972074885833009 0 0 0 0 0 0 0 0 0 0 0 3:1 25:1 38:1 55:1 71:1 89:1 114:1 169:1 238:1 310:1 383:1 4882:1 10004:1 23983:1 29223:1 38663:1 48205:1 48207:1 48209:1 50986:1 54509:1 62389:1 68866:1 74936:1 
0 0 0 0.1977507149930694 0 0 0 0 0 0 0 0 0 0 0 3:1 25:1 44:1 57:1 72:1 89:1 122:1 169:1 238:1 310:1 382:1 4552:1 10004:1 23651:1 29188:1 39150:1 48205:1 48207:1 48209:1 50912:1 54509:1 63920:1 69530:1 73406:1 
0 0 0 0 0 0.1720541819496116 0 0 0 0 0 0 0 0 0.1346432202124496 3:1 25:1 38:1 54:1 74:1 88:1 114:1 166:1 243:1 310:1 382:1 5311:1 10004:1 24412:1 29137:1 38654:1 48205:1 48207:1 48209:1 51413:1 54509:1 60808:1 70311:1 73406:1 
0.1405467075916159 0 0 0 0 0 0 0 0 0 0 0 0 0 0 3:1 25:1 38:1 54:1 70:1 89:1 122:1 169:1 238:1 310:1 382:1 5356:1 10004:1 24457:1 29113:1 38687:1 48205:1 48207:1 48209:1 51444:1 54509:1 64041:1 69828:1 73406:1 
0 0 0 0.1529168141201343 0 0 0 0 0 0 0 0 0 0 0 3:1 25:1 41:1 55:1 71:1 89:1 114:1 169:1 238:1 310:1 382:1 5370:1 10004:1 24471:1 29521:1 38663:1 48205:1 48207:1 48209:1 49702:1 54509:1 61918:1 69995:1 73406:1 
0 0 0.1877590078911336 0 0 0 0 0 0 0 0 0 0 0 0 3:1 25:1 41:1 56:1 78:1 89:1 122:1 169:1 238:1 310:1 382:1 965:1 10004:1 19651:1 29118:1 38939:1 48205:1 48207:1 48209:1 48598:1 54509:1 62387:1 67190:1 73406:1 
0 0 0 0.07934658629131991 0 0 0 0 0 0 0 0 0 0 0 3:1 25:1 38:1 54:1 76:1 85:1 114:1 166:1 239:1 311:1 383:1 5903:1 10004:1 25005:1 29134:1 38654:1 48205:1 48207:1 48209:1 51795:1 54513:1 60808:1 70694:1 73483:1 
0 0 0.1097734607330091 0.08833284099537388 0 0 0 0 0 0 0 0 0 0 0 10:1 25:1 36:1 54:1 76:1 91:1 140:1 172:1 238:1 310:1 382:1 1550:1 10004:1 23449:1 29130:1 41816:1 48205:1 48207:1 48209:1 48401:1 54509:1 60808:1 69647:1 73406:1 
0.1035148984020532 0 0 0.1532763540906478 0 0 0.08805985705486934 0 0 0 0 0 0 0 0 10:1 25:1 36:1 57:1 77:1 88:1 140:1 176:1 239:1 310:1 382:1 1550:1 10004:1 25366:1 29130:1 44465:1 48205:1 48207:1 48209:1 48401:1 54509:1 60808:1 70938:1 73406:1 
0 0 0.1483477433863554 0 0 0 0 0 0 0 0 0 0 0 0 3:1 25:1 40:1 55:1 71:1 87:1 114:1 166:1 243:1 310:1 382:1 5971:1 10004:1 25328:1 34945:1 38654:1 48205:1 48207:1 48209:1 51843:1 54509:1 60808:1 70565:1 73406:1 
0 0 0 0.2637586356012237 0 0 0 0 0 0 0 0 0 0 0 3:1 25:1 38:1 54:1 70:1 89:1 114:1 169:1 238:1 311:1 383:1 5546:1 10004:1 25458:1 29108:1 38750:1 48205:1 48207:1 48209:1 51563:1 54513:1 61133:1 70040:1 73483:1 
0 0 0 0.1553290329129922 0 0 0 0 0 0 0 0 0 0 0 3:1 25:1 41:1 60:1 76:1 89:1 122:1 169:1 238:1 311:1 383:1 965:1 10004:1 23651:1 29246:1 38663:1 48205:1 48207:1 48209:1 48598:1 58394:1 64093:1 69530:1 74052:1 
0 0 0 0 0 0 0 0 0 0 0 0 0 0.1475637488911973 0 3:1 25:1 38:1 54:1 74:1 85:1 114:1 166:1 243:1 310:1 382:1 6399:1 10004:1 23376:1 29123:1 38654:1 48205:1 48207:1 48209:1 52119:1 54509:1 60808:1 69585:1 73406:1 
0 0.118243851887481 0 0 0 0 0 0 0 0 0 0 0 0 0 3:1 25:1 36:1 51:1 68:1 91:1 122:1 185:1 238:1 311:1 382:1 4753:1 10004:1 25573:1 29237:1 42979:1 48205:1 48207:1 48209:1 51050:1 55038:1 60909:1 71065:1 73406:1 
0 0 0 0.1101937381802093 0 0.1178652271780777 0 0 0 0.1067218169746261 0 0 0 0 0 3:1 25:1 36:1 51:1 68:1 85:1 114:1 166:1 238:1 311:1 382:1 6474:1 10004:1 25576:1 29106:1 38654:1 48205:1 48207:1 48209:1 49398:1 54513:1 60808:1 71066:1 73406:1 
0 0 0 0.1157820282001227 0 0 0 0 0 0 0 0 0 0 0 3:1 25:1 36:1 57:1 74:1 89:1 122:1 169:1 243:1 310:1 382:1 800:1 10004:1 23651:1 29130:1 38684:1 48205:1 48207:1 48209:1 48479:1 54509:1 61649:1 69530:1 73406:1 
0.08148192590076252 0 0 0 0 0 0 0 0 0 0 0 0 0 0 3:1 25:1 38:1 54:1 72:1 91:1 114:1 172:1 243:1 310:1 383:1 4276:1 10004:1 21675:1 29123:1 42724:1 48205:1 48207:1 48209:1 50688:1 54509:1 60821:1 67280:1 74712:1 
0 0 0 0 0 0.08201217514198132 0 0 0 0 0 0 0 0 0 3:1 25:1 36:1 56:1 71:1 89:1 122:1 169:1 238:1 310:1 382:1 800:1 10004:1 23651:1 29130:1 38671:1 48205:1 48207:1 48209:1 48479:1 54509:1 61003:1 69530:1 73406:1 
0.1872214980507531 0 0.1586243595223792 0.1151842426985999 0 0.2469002628902193 0 0.1752047434403021 0 0 0 0.1297766827832813 0.1479871957817253 0.1527827412754862 0 10:1 25:1 36:1 57:1 73:1 85:1 140:1 166:1 238:1 310:1 382:1 6675:1 10004:1 25776:1 29130:1 38654:1 48205:1 48207:1 48209:1 48401:1 54509:1 60808:1 71191:1 73406:1 
0 0 0.09073222879833268 0 0 0 0 0 0 0 0 0 0 0 0 3:1 25:1 37:1 59:1 70:1 91:1 114:1 185:1 243:1 310:1 382:1 1389:1 10938:1 25792:1 35343:1 41535:1 48205:1 48207:1 48209:1 48892:1 54509:1 60909:1 70256:1 73406:1 
0 0 0 0 0 0 0 0 0 0 0.09646276528672547 0 0 0 0 3:1 25:1 42:1 61:1 74:1 89:1 114:1 169:1 239:1 310:1 382:1 1167:1 10004:1 25979:1 35530:1 38663:1 48205:1 48207:1 48209:1 48735:1 54509:1 65012:1 71312:1 73406:1 
0 0 0.1129763559684053 0.2065428721973515 0 0 0 0 0 0 0 0 0 0 0 3:1 25:1 40:1 55:1 74:1 89:1 105:1 169:1 238:1 310:1 382:1 3425:1 10004:1 26137:1 35688:1 38663:1 48205:1 48207:1 48209:1 50188:1 54509:1 60992:1 71413:1 73406:1 
0 0.1155071663845749 0 0 0 0 0 0 0 0 0 0 0 0 0 3:1 25:1 41:1 57:1 71:1 91:1 114:1 185:1 238:1 310:1 382:1 3257:1 10004:1 26145:1 29118:1 45244:1 48205:1 48207:1 48209:1 48454:1 54509:1 60909:1 71417:1 73406:1 
0.07057900671343194 0 0 0.1614606754607448 0 0.1391510357179337 0.08490451265723256 0.08214700511427504 0 0 0 0 0 0 0 9:1 25:1 41:1 56:1 71:1 92:1 121:1 179:1 238:1 321:1 383:1 2622:1 10004:1 26214:1 29188:1 38796:1 48205:1 48207:1 48209:1 49676:1 54532:1 65157:1 71460:1 77758:1 
0.1740312424680036 0.07672916041783027 0.1598508206179522 0.1527723466822274 0 0 0 0 0 0 0 0 0 0 0 6:1 25:1 42:1 53:1 71:1 88:1 137:1 181:1 244:1 310:1 382:1 1048:1 10023:1 26425:1 29277:1 39838:1 48205:1 48207:1 48209:1 48218:1 54509:1 60812:1 71594:1 73406:1 
0.09673754766143405 0.08925895234694851 0.1140794976360437 0.1268505373070223 0 0.1020390955374123 0 0 0 0 0 0.1223967279377619 0 0.1092102972592024 0 5:1 25:1 38:1 56:1 71:1 91:1 117:1 185:1 238:1 310:1 383:1 482:1 10004:1 26633:1 29301:1 44920:1 48205:1 48207:1 48209:1 48216:1 54509:1 60862:1 71754:1 73483:1 
0 0 0 0.1948331806348446 0.1522633729282214 0 0 0 0 0 0 0 0 0 0 3:1 25:1 36:1 57:1 73:1 89:1 114:1 169:1 238:1 310:1 383:1 7539:1 10004:1 26641:1 29130:1 38663:1 48205:1 48207:1 48209:1 52862:1 54509:1 62043:1 71761:1 78059:1 
0 0 0 0 0 0 0 0 0 0 0 0 0 0 0.1112250803099954 3:1 25:1 38:1 54:1 70:1 89:1 114:1 169:1 238:1 310:1 382:1 2062:1 10004:1 26710:1 29108:1 39581:1 48205:1 48207:1 48209:1 49340:1 54509:1 60808:1 71808:1 73406:1 
0 0 0 0 0.09705447873102713 0 0 0 0 0 0 0 0 0 0 3:1 25:1 38:1 57:1 73:1 89:1 114:1 169:1 238:1 312:1 382:1 5679:1 10004:1 26872:1 29113:1 38663:1 48205:1 48207:1 48209:1 50848:1 54532:1 61184:1 68666:1 73406:1 
0 0 0 0.1301769560870593 0 0 0 0 0 0 0 0 0 0 0 3:1 25:1 36:1 51:1 68:1 89:1 114:1 169:1 239:1 334:1 382:1 7877:1 10032:1 26081:1 29106:1 38939:1 48205:1 48207:1 48209:1 53091:1 59390:1 63246:1 67400:1 73406:1 
0.2294834402780458 0 0 0 0 0 0 0 0 0 0 0 0 0 0 3:1 25:1 36:1 56:1 76:1 87:1 114:1 179:1 243:1 310:1 382:1 7909:1 10004:1 21336:1 29130:1 38680:1 48205:1 48207:1 48209:1 53113:1 54509:1 65710:1 67197:1 73406:1 
0 0 0.1746148431121387 0.08707281127011682 0 0 0 0 0 0 0 0.2248180543987901 0 0.1336484329932448 0 5:1 25:1 41:1 59:1 72:1 89:1 117:1 169:1 238:1 310:1 383:1 482:1 10004:1 27286:1 29127:1 38851:1 48205:1 48207:1 48209:1 48216:1 54509:1 60872:1 68661:1 73483:1 
0.1232338215219526 0 0.1095479186829825 0 0 0.1248123257101968 0 0 0 0 0 0 0 0 0 3:1 25:1 40:1 60:1 76:1 92:1 114:1 166:1 238:1 310:1 382:1 789:1 10004:1 27322:1 34459:1 38654:1 48205:1 48207:1 48209:1 48473:1 54509:1 60808:1 68050:1 73406:1 
0 0 0 0 0 0 0 0 0 0 0 0.1500928842798549 0.1541702787860379 0 0 3:1 25:1 40:1 60:1 72:1 92:1 114:1 166:1 243:1 310:1 382:1 7125:1 10004:1 19725:1 29992:1 38654:1 48205:1 48207:1 48209:1 52567:1 54509:1 60808:1 67243:1 73406:1 
0 0 0 0.1571038349581148 0 0 0 0 0 0 0 0 0 0 0 3:1 25:1 38:1 54:1 70:1 89:1 114:1 179:1 238:1 310:1 382:1 8418:1 10004:1 26081:1 29108:1 38992:1 48205:1 48207:1 48209:1 51747:1 54509:1 61127:1 67400:1 73406:1 
0 0 0 0.09047448587290137 0 0 0 0 0 0 0 0 0 0 0 3:1 25:1 36:1 51:1 68:1 89:1 114:1 169:1 238:1 311:1 382:1 650:1 10004:1 23954:1 29106:1 38949:1 48205:1 48207:1 48209:1 48366:1 54513:1 60838:1 67262:1 73406:1 
0 0 0 0.24016095245632 0 0 0 0 0 0 0 0 0 0 0 3:1 25:1 36:1 57:1 73:1 92:1 122:1 179:1 238:1 310:1 383:1 713:1 10004:1 27773:1 29130:1 38668:1 48205:1 48207:1 48209:1 48416:1 54509:1 66244:1 72544:1 73483:1 
0 0.2 0 0.26796532335602 0 0 0 0 0 0 0 0 0 0 0 10:1 25:1 36:1 51:1 68:1 89:1 140:1 169:1 238:1 310:1 382:1 1550:1 10004:1 25567:1 29106:1 38966:1 48205:1 48207:1 48209:1 48401:1 54509:1 65616:1 71060:1 73406:1 
0 0 0.2042068789660372 0 0 0 0 0 0 0 0 0 0 0 0 3:1 25:1 36:1 60:1 77:1 85:1 114:1 166:1 238:1 310:1 382:1 2807:1 10004:1 25458:1 29130:1 38654:1 48205:1 48207:1 48209:1 48905:1 54509:1 60808:1 70040:1 73406:1 
0.1523072919704173 0 0 0 0 0 0 0 0 0 0 0 0 0 0 3:1 25:1 38:1 54:1 75:1 92:1 114:1 179:1 243:1 310:1 382:1 6457:1 10004:1 20693:1 29259:1 38668:1 48205:1 48207:1 48209:1 51901:1 54509:1 66740:1 67433:1 73406:1 
0 0 0 0.1409376510899389 0 0 0 0 0 0 0 0 0 0 0 3:1 25:1 36:1 57:1 73:1 91:1 114:1 185:1 243:1 311:1 382:1 7974:1 10004:1 28600:1 29130:1 47699:1 48205:1 48207:1 48209:1 51683:1 54610:1 60909:1 68555:1 73406:1 
0 0 0 0.1207046213786853 0 0 0 0 0 0 0 0 0 0 0 3:1 25:1 36:1 51:1 68:1 89:1 114:1 169:1 238:1 310:1 383:1 9518:1 10004:1 27137:1 29106:1 38673:1 48205:1 48207:1 48209:1 54195:1 54509:1 66790:1 68555:1 73483:1 
0 0 0 0.23268429936677 0 0 0 0 0 0 0 0 0 0 0 3:1 25:1 42:1 55:1 71:1 89:1 105:1 169:1 238:1 311:1 382:1 9652:1 10004:1 24471:1 29461:1 38733:1 48205:1 48207:1 48209:1 54278:1 59952:1 62936:1 69995:1 73406:1 
0.1560855955281437 0.1792596708498953 0.1692394152682075 0.5 0.09832241097418036 0 0 0.1374903688406669 0.1573619449980953 0 0 0 0.08974849654269362 0 0 8:1 25:1 38:1 54:1 75:1 88:1 131:1 167:1 238:1 310:1 382:1 5371:1 10004:1 19911:1 29113:1 47852:1 48205:1 48207:1 48209:1 51098:1 54509:1 60838:1 67382:1 73406:1 
0.09648510159794679 0.1855287451398442 0.0671121335387118 0.1026806738060737 0.04982573717396778 0.09796090446258772 0.06721964467103682 0.0796866889211561 0.0728313291938024 0.05694431333475301 0.05168538286142267 0.03388944752609788 0.08386260766973203 0.04606920446670371 0.04405442141591072 3:1 25:1 36:1 51:1 68:1 91:1 114:1 172:1 238:1 310:1 382:1 9988:1 10004:1 29089:1 29185:1 48187:1 48205:1 48207:1 48209:1 54499:1 54509:1 63910:1 73397:1 73406:1 
-0 0 0.148114430974602 0 0 0.1787629102031804 0.1821022727657571 0 0 0 0 0 0.104388593892476 0.1592078140754107 0.1591182351538317 6:1 25:1 38:1 54:1 70:1 87:1 136:1 166:1 238:1 310:1 382:1 599:1 10004:1 19700:1 29251:1 38654:1 48205:1 48207:1 48209:1 48258:1 54509:1 60808:1 67226:1 73406:1 
-0.2 0 0 0 0 0 0 0 0 0 0 0 0 0 0 6:1 25:1 36:1 51:1 68:1 91:1 110:1 184:1 238:1 310:1 382:1 553:1 10004:1 19702:1 29106:1 38752:1 48205:1 48207:1 48209:1 48258:1 54509:1 60926:1 67227:1 73406:1 
-0.1803819390979632 0 0 0 0 0 0 0 0 0 0 0 0 0 0 6:1 25:1 39:1 54:1 74:1 85:1 108:1 166:1 238:1 311:1 382:1 954:1 10004:1 20056:1 29215:1 38654:1 48205:1 48207:1 48209:1 48258:1 54890:1 60808:1 67405:1 73406:1 
-0.133747729048031 0.08344577924056233 0.1659589663358165 0.07592535737707702 0 0.1224229668327464 0 0 0 0 0 0 0 0 0 6:1 25:1 40:1 60:1 73:1 88:1 118:1 181:1 238:1 310:1 382:1 1093:1 10004:1 20188:1 29744:1 39237:1 48205:1 48207:1 48209:1 48694:1 54509:1 60838:1 67587:1 73406:1 
-0.1157598182354001 0 0.129112008412731 0.148224154555412 0 0 0 0.1449468424527061 0 0 0 0 0 0 0 6:1 25:1 38:1 54:1 73:1 91:1 118:1 184:1 261:1 310:1 382:1 1406:1 10004:1 20403:1 29416:1 38752:1 48205:1 48207:1 48209:1 48431:1 54509:1 60808:1 67596:1 73406:1 
-0.07057900671343194 0.1518486156507378 0.0875800648347254 0.1706521725448569 0 0 0 0 0 0 0 0 0 0 0 6:1 25:1 38:1 56:1 71:1 95:1 118:1 181:1 238:1 310:1 382:1 1551:1 10004:1 20652:1 29168:1 39750:1 48205:1 48207:1 48209:1 48673:1 54509:1 60821:1 67907:1 73406:1 
-0.1740312424680036 0 0 0 0 0 0 0 0 0 0 0 0 0 0 6:1 25:1 38:1 57:1 76:1 88:1 108:1 181:1 257:1 310:1 382:1 880:1 11246:1 20693:1 29168:1 39076:1 48205:1 48207:1 48209:1 48530:1 54509:1 60821:1 67433:1 73406:1 
-0.1465776607714054 0 0 0.1471932742957824 0 0 0 0 0 0 0 0 0 0 0 6:1 25:1 38:1 59:1 71:1 85:1 108:1 166:1 238:1 310:1 382:1 954:1 10004:1 20056:1 29123:1 38654:1 48205:1 48207:1 48209:1 48258:1 54509:1 60808:1 67405:1 73406:1 
-0.1255110638046818 0 0.1681634241347619 0 0 0.1691573817188651 0 0.1468403978713519 0 0 0 0 0 0 0 6:1 25:1 36:1 55:1 71:1 85:1 108:1 166:1 257:1 310:1 382:1 2114:1 10066:1 19668:1 29130:1 38654:1 48205:1 48207:1 48209:1 49146:1 54509:1 60808:1 67203:1 73406:1 
-0 0 0 0.08089054091800446 0 0 0 0 0 0 0 0 0 0 0 6:1 25:1 38:1 56:1 71:1 92:1 108:1 186:1 238:1 310:1 383:1 2280:1 10004:1 21381:1 29134:1 38738:1 48205:1 48207:1 48209:1 48258:1 54509:1 62059:1 68359:1 73943:1 
-0 0 0.1220304504482962 0 0 0 0 0 0 0 0 0 0 0 0 6:1 25:1 36:1 52:1 70:1 92:1 118:1 179:1 269:1 310:1 382:1 2914:1 10004:1 22015:1 29115:1 38818:1 48205:1 48207:1 48209:1 49229:1 54509:1 61269:1 68755:1 73406:1 
-0 0 0 0 0 0 0 0.08430201703416092 0.09042544694742526 0 0 0 0 0 0.09545575779592846 6:1 25:1 38:1 54:1 72:1 88:1 118:1 181:1 238:1 310:1 382:1 3485:1 10004:1 20693:1 29140:1 40006:1 48205:1 48207:1 48209:1 48530:1 54509:1 60856:1 67433:1 73406:1 
-0.3699103464294062 0 0.09320374309138073 0 0 0 0.09743943046677436 0 0 0 0 0 0 0 0 6:1 25:1 39:1 54:1 72:1 85:1 108:1 166:1 239:1 310:1 382:1 675:1 10004:1 21574:1 29215:1 38654:1 48205:1 48207:1 48209:1 48258:1 54509:1 60808:1 68473:1 73406:1 
-0 0 0.1266222695721876 0 0 0 0 0 0 0 0 0 0 0 0 6:1 25:1 38:1 59:1 71:1 85:1 108:1 166:1 238:1 310:1 382:1 954:1 10004:1 22772:1 29389:1 38654:1 48205:1 48207:1 48209:1 48258:1 54509:1 60808:1 69177:1 73406:1 
-0 0.1390449104317076 0 0 0 0 0 0 0 0 0 0 0 0 0 6:1 25:1 36:1 51:1 68:1 85:1 108:1 166:1 257:1 310:1 382:1 2114:1 10066:1 21547:1 29106:1 38654:1 48205:1 48207:1 48209:1 49146:1 54509:1 60808:1 68457:1 73406:1 
-0 0 0.1578937981242611 0 0 0 0 0 0 0 0.1235679197989511 0 0 0 0 6:1 25:1 38:1 54:1 72:1 92:1 108:1 186:1 239:1 310:1 382:1 4133:1 10004:1 23234:1 29259:1 39200:1 48205:1 48207:1 48209:1 48569:1 54509:1 60863:1 69249:1 73406:1 
-0.1802731355805918 0 0 0 0 0 0 0 0 0 0 0 0 0 0 6:1 25:1 38:1 54:1 75:1 92:1 108:1 179:1 244:1 329:1 382:1 3943:1 10004:1 23282:1 29259:1 38818:1 48205:1 48207:1 48209:1 48530:1 54704:1 62696:1 69508:1 73406:1 
-0.1918967641850728 0 0.08543444504792937 0 0 0 0 0 0 0.1433241012884677 0 0 0 0 0 6:1 25:1 36:1 51:1 68:1 85:1 118:1 166:1 244:1 310:1 382:1 754:1 10059:1 23801:1 29106:1 38654:1 48205:1 48207:1 48209:1 48258:1 54509:1 60808:1 69910:1 73406:1 
-0.1560855955281437 0 0.1331773421094591 0.1117705474387753 0 0 0 0 0 0 0 0 0 0 0 6:1 25:1 42:1 54:1 75:1 89:1 110:1 169:1 238:1 310:1 382:1 1615:1 10004:1 23836:1 29273:1 38966:1 48205:1 48207:1 48209:1 48530:1 54509:1 60831:1 69934:1 73406:1 
-0 0 0 0 0 0 0 0 0 0 0 0 0.1459976249601165 0 0 6:1 25:1 41:1 61:1 74:1 85:1 108:1 166:1 244:1 310:1 382:1 675:1 10059:1 23843:1 29246:1 38654:1 48205:1 48207:1 48209:1 48258:1 54509:1 60808:1 69938:1 73406:1 
-0.1127354233994857 0.1270954641279599 0.09227094719097784 0.1934653719726628 0.0830960571006267 0 0 0.1286321158728808 0 0.07886394315068813 0 0.1363959207072166 0.1093129213871753 0 0 6:1 25:1 36:1 51:1 68:1 89:1 110:1 169:1 238:1 310:1 382:1 4811:1 10004:1 23912:1 29106:1 38663:1 48205:1 48207:1 48209:1 50939:1 54509:1 61300:1 69988:1 73406:1 
-0 0 0 0.1031115991255521 0 0 0 0 0 0 0 0 0 0 0 6:1 25:1 36:1 51:1 68:1 88:1 108:1 181:1 244:1 310:1 382:1 4853:1 10004:1 23954:1 29106:1 43052:1 48205:1 48207:1 48209:1 50626:1 54509:1 63709:1 67262:1 73406:1 
-0.1523072919704173 0 0 0.0969337652062935 0.1322751332763021 0 0 0 0 0 0 0 0 0 0 6:1 25:1 38:1 54:1 70:1 88:1 118:1 181:1 238:1 311:1 382:1 5528:1 10004:1 24629:1 29123:1 42752:1 48205:1 48207:1 48209:1 49815:1 55815:1 60812:1 69828:1 73406:1 
-0.08148192590076252 0 0 0.1260998677582968 0 0 0 0 0 0 0 0 0 0 0 6:1 25:1 36:1 51:1 68:1 92:1 108:1 186:1 239:1 310:1 383:1 5809:1 15211:1 24910:1 32987:1 39954:1 48205:1 48207:1 48209:1 50626:1 54509:1 63491:1 70636:1 73483:1 
-0 0.09059764339587341 0.2355559534966294 0 0 0 0 0 0 0 0.1084692909440394 0 0 0 0 6:1 25:1 41:1 59:1 74:1 92:1 108:1 186:1 238:1 310:1 382:1 6200:1 10004:1 25301:1 29268:1 38701:1 48205:1 48207:1 48209:1 48258:1 54509:1 60808:1 70896:1 73406:1 
-0 0 0 0 0 0.1002230487289971 0 0 0 0 0 0.1055133267857361 0 0 0 6:1 25:1 39:1 54:1 72:1 87:1 108:1 166:1 238:1 310:1 382:1 954:1 10004:1 26866:1 29132:1 38654:1 48205:1 48207:1 48209:1 48258:1 54509:1 60808:1 71916:1 73406:1 
-0 0 0 0.1171216481965188 0 0 0 0 0 0 0 0 0 0 0 6:1 25:1 38:1 54:1 76:1 91:1 108:1 185:1 239:1 311:1 382:1 996:1 10059:1 27073:1 29113:1 45376:1 48205:1 48207:1 48209:1 48258:1 54913:1 65128:1 72050:1 73406:1 
-0 0 0.1008527911496233 0 0 0 0 0 0 0 0 0 0 0 0 6:1 25:1 43:1 60:1 71:1 88:1 108:1 181:1 244:1 310:1 382:1 2714:1 12068:1 27219:1 29262:1 46318:1 48205:1 48207:1 48209:1 48288:1 54509:1 61312:1 72153:1 73406:1 
-0.1872214980507531 0 0.1985397487117768 0 0 0 0.08281267765016478 0 0 0 0 0 0 0 0 6:1 25:1 36:1 57:1 77:1 92:1 108:1 186:1 244:1 310:1 382:1 8137:1 10004:1 23912:1 29130:1 38738:1 48205:1 48207:1 48209:1 49223:1 54509:1 60997:1 69988:1 73406:1 
-0.1292742964040297 0 0 0 0.06438375742308737 0 0 0 0 0 0 0 0 0 0 6:1 25:1 38:1 59:1 72:1 92:1 108:1 186:1 244:1 311:1 383:1 3299:1 10030:1 27258:1 29113:1 38738:1 48205:1 48207:1 48209:1 48258:1 59525:1 65880:1 71544:1 74921:1 
-0 0.08267256254137254 0 0 0 0 0 0 0 0 0 0 0 0 0 6:1 25:1 36:1 51:1 68:1 92:1 108:1 186:1 244:1 310:1 383:1 5809:1 10004:1 27324:1 29106:1 38718:1 48205:1 48207:1 48209:1 50626:1 54509:1 65928:1 70438:1 78528:1 
-0.09673754766143405 0 0 0 0 0 0 0 0 0 0 0 0 0 0 6:1 25:1 42:1 54:1 76:1 92:1 108:1 179:1 244:1 311:1 383:1 2714:1 10004:1 23219:1 33476:1 38796:1 48205:1 48207:1 48209:1 48288:1 55946:1 64773:1 69478:1 78969:1 
-0.3475556115545869 0.1262514845789564 0.08072848575372317 0.1966726262363467 0.08699397878947394 0 0 0 0 0 0 0 0 0 0 3:1 25:1 36:1 58:1 73:1 87:1 114:1 179:1 243:1 310:1 382:1 9372:1 10004:1 28473:1 29130:1 38680:1 48205:1 48207:1 48209:1 54097:1 54509:1 60856:1 72995:1 73406:1 
-0.4678745708663949 0 0.1754500882578024 0.1416032784629862 0 0.09132568058989465 0 0.07670918911535818 0 0 0 0 0 0 0 3:1 25:1 38:1 56:1 71:1 92:1 114:1 179:1 243:1 310:1 382:1 9374:1 10004:1 27322:1 29152:1 38668:1 48205:1 48207:1 48209:1 53902:1 54509:1 66695:1 68050:1 73406:1 
-0 0 0.1612543414925849 0.1978391262456722 0 0 0 0 0 0 0 0 0 0 0 6:1 25:1 39:1 54:1 78:1 89:1 110:1 169:1 238:1 310:1 382:1 1615:1 10004:1 28663:1 29215:1 38663:1 48205:1 48207:1 48209:1 48530:1 54509:1 60998:1 71170:1 73406:1 
-0 0 0 0 0 0.0922882236173752 0 0 0 0 0 0.09324232585321029 0 0.09420284221946577 0 6:1 25:1 36:1 58:1 78:1 92:1 108:1 186:1 244:1 310:1 383:1 9591:1 10004:1 28600:1 29130:1 38701:1 48205:1 48207:1 48209:1 49229:1 54509:1 60856:1 68555:1 73483:1 
-0 0.1644231271335952 0 0.1018688846404747 0 0 0 0 0.1610755190359688 0 0 0 0 0 0 6:1 25:1 36:1 55:1 73:1 91:1 110:1 184:1 238:1 310:1 382:1 553:1 10004:1 21258:1 29115:1 42724:1 48205:1 48207:1 48209:1 48258:1 54509:1 60808:1 67426:1 73406:1 
-0 0.08022035106881682 0.2 0.2 0.05505147652566868 0.06344308158038209 0.04460602484836826 0.07097748469174524 0.0648540547784809 0.06318151216445449 0.0551968393653398 0.04880312946193233 0.03765686142266662 0.05394530592868237 0.04658969751921416 6:1 25:1 37:1 55:1 71:1 92:1 108:1 179:1 238:1 311:1 382:1 3299:1 10004:1 20851:1 38560:1 38668:1 48205:1 48207:1 48209:1 48258:1 54554:1 67053:1 68033:1 73406:1 
-0 -0 0.1750396409770315 0 0 0 0 0 0 0 0 0 0 0 0 7:1 25:1 37:1 59:1 70:1 93:1 112:1 178:1 238:1 310:1 382:1 468:1 10004:1 19883:1 29434:1 38982:1 48205:1 48207:1 48209:1 48223:1 54509:1 60808:1 67366:1 73406:1 
-0 -0.1636661303093792 0.1140037747532541 0 0 0 0 0 0 0 0 0 0 0 0 7:1 25:1 37:1 55:1 71:1 93:1 112:1 178:1 238:1 310:1 382:1 468:1 10004:1 19910:1 29455:1 39011:1 48205:1 48207:1 48209:1 48223:1 54509:1 61081:1 67381:1 73406:1 
-0 -0 0.1294812753434008 0.1741956299531024 0 0 0.08577244453885041 0 0 0.1058054011998865 0 0.1323877065482975 0 0 0 1:1 25:1 36:1 58:1 72:1 88:1 103:1 183:1 238:1 310:1 382:1 495:1 10004:1 19746:1 29117:1 39310:1 48205:1 48207:1 48209:1 48245:1 54509:1 60842:1 67260:1 73406:1 
-0.2 -0.1390449104317076 0 0 0 0.1631999969482422 0 0.1039616620571405 0 0 0 0 0 0 0 1:1 25:1 36:1 51:1 68:1 88:1 103:1 183:1 238:1 310:1 382:1 1113:1 10004:1 19746:1 29106:1 39310:1 48205:1 48207:1 48209:1 48704:1 54509:1 60909:1 67260:1 73406:1 
-0.1792596708498953 -0 0 0.1298808467079868 0 0 0 0 0.1568043399815366 0 0 0 0 0 0.0987074403772543 7:1 25:1 38:1 54:1 70:1 91:1 112:1 178:1 238:1 310:1 382:1 618:1 10004:1 20098:1 29113:1 39323:1 48205:1 48207:1 48209:1 48341:1 54509:1 60816:1 67519:1 73406:1 
-0 -0.09059764339587341 0 0.1787880238027817 0 0 0 0 0 0 0 0 0 0 0 2:1 25:1 41:1 55:1 76:1 93:1 116:1 178:1 238:1 310:1 382:1 480:1 10004:1 20504:1 29268:1 39603:1 48205:1 48207:1 48209:1 48233:1 54509:1 60831:1 67800:1 73406:1 
-0 -0 0.1243559489566991 0.1927073859112004 0 0 0 0 0 0 0 0 0 0 0 7:1 25:1 36:1 57:1 74:1 91:1 112:1 178:1 238:1 310:1 382:1 618:1 10004:1 20744:1 29130:1 39843:1 48205:1 48207:1 48209:1 48341:1 54509:1 60849:1 67966:1 73406:1 
-0 -0 0 0.09773947936031618 0 0 0 0 0 0 0 0 0 0 0 7:1 25:1 36:1 58:1 71:1 88:1 112:1 178:1 238:1 310:1 382:1 468:1 10004:1 20143:1 29130:1 39988:1 48205:1 48207:1 48209:1 48223:1 54509:1 60831:1 67554:1 73406:1 
-0 -0 0.1789536213904979 0 0 0 0 0 0 0 0 0 0 0 0 7:1 25:1 41:1 59:1 71:1 95:1 112:1 178:1 238:1 310:1 382:1 468:1 10004:1 20143:1 29118:1 39750:1 48205:1 48207:1 48209:1 48223:1 54509:1 60862:1 67554:1 73406:1 
-0 -0 0.2084477493789222 0 0 0 0 0 0 0 0 0 0 0 0 7:1 25:1 36:1 52:1 70:1 88:1 112:1 178:1 238:1 310:1 382:1 468:1 10004:1 20143:1 29115:1 40166:1 48205:1 48207:1 48209:1 48223:1 54509:1 60831:1 67554:1 73406:1 
-0.08925895234694851 -0.1262514845789564 0 0 0 0.1003477101787317 0 0 0 0 0 0 0 0 0 7:1 25:1 36:1 58:1 74:1 91:1 112:1 178:1 238:1 310:1 383:1 618:1 10004:1 21070:1 29130:1 40169:1 48205:1 48207:1 48209:1 48341:1 54509:1 60939:1 68164:1 73423:1 
-0 -0.1270954641279599 0 0 0 0 0 0 0 0 0 0 0 0 0 7:1 25:1 36:1 51:1 68:1 93:1 112:1 178:1 238:1 310:1 382:1 806:1 10004:1 21297:1 29106:1 40396:1 48205:1 48207:1 48209:1 48341:1 54509:1 61975:1 68317:1 73406:1 
-0 -0 0 0 0 0 0 0.09244321726722948 0 0 0 0 0 0 0 7:1 25:1 38:1 54:1 72:1 93:1 112:1 178:1 238:1 310:1 382:1 806:1 10004:1 21297:1 29559:1 40396:1 48205:1 48207:1 48209:1 48341:1 54509:1 61975:1 68317:1 73406:1 
-0.1406754135711569 -0.08267256254137254 0 0.1000421577319947 0 0 0 0 0 0 0 0 0 0 0 1:1 25:1 36:1 60:1 75:1 91:1 103:1 185:1 238:1 310:1 382:1 2869:1 10004:1 19746:1 29148:1 38745:1 48205:1 48207:1 48209:1 49827:1 54509:1 61021:1 67260:1 73406:1 
-0 -0 0.1631904423666633 0 0 0 0 0 0 0 0 0 0 0 0 1:1 25:1 36:1 53:1 77:1 91:1 103:1 185:1 238:1 310:1 382:1 2950:1 10004:1 19746:1 29148:1 38745:1 48205:1 48207:1 48209:1 49884:1 54509:1 60816:1 67260:1 73406:1 
-0.1155071663845749 -0.1518486156507378 0.1013801595130099 0.1706521725448569 0 0.08967654269597847 0 0.1682291568360399 0.101097616514395 0 0 0 0.1544462423583044 0.1029341650412759 0 1:1 25:1 36:1 53:1 68:1 91:1 103:1 176:1 238:1 310:1 382:1 3041:1 10004:1 19746:1 29117:1 41461:1 48205:1 48207:1 48209:1 49942:1 54509:1 60808:1 67260:1 73406:1 
-0.07672916041783027 -0 0.1752478928679885 0.1942547206159563 0.1379118568402999 0 0 0 0 0 0 0 0.08614175405827156 0 0.09152324382807671 2:1 25:1 41:1 59:1 70:1 88:1 116:1 178:1 238:1 310:1 382:1 480:1 10004:1 23114:1 29118:1 42213:1 48205:1 48207:1 48209:1 48233:1 54509:1 60825:1 69428:1 73406:1 
-0 -0 0.1947590701636379 0 0 0 0 0 0 0 0 0 0 0 0 7:1 25:1 37:1 53:1 75:1 93:1 112:1 178:1 238:1 310:1 382:1 468:1 10004:1 23930:1 33000:1 43029:1 48205:1 48207:1 48209:1 48223:1 54509:1 60808:1 69999:1 73406:1 
-0 -0 0.0840582068363674 0 0 0 0 0 0 0 0 0 0 0 0 7:1 25:1 40:1 61:1 75:1 93:1 112:1 178:1 238:1 310:1 382:1 618:1 10004:1 24263:1 34852:1 44401:1 48205:1 48207:1 48209:1 48341:1 54509:1 60856:1 70218:1 73406:1 
-0 -0 0 0.1708652617366567 0 0 0 0 0 0 0 0 0 0 0 7:1 25:1 43:1 60:1 76:1 93:1 112:1 178:1 238:1 310:1 382:1 468:1 10004:1 24000:1 29159:1 44565:1 48205:1 48207:1 48209:1 48223:1 54509:1 61196:1 68645:1 73406:1 
-0 -0 0 0.1117878316941208 0 0 0 0 0 0 0 0 0 0 0 7:1 25:1 36:1 51:1 68:1 93:1 112:1 178:1 238:1 310:1 383:1 596:1 10004:1 23660:1 29106:1 42751:1 48205:1 48207:1 48209:1 48326:1 54509:1 61196:1 69585:1 73451:1 
-0.1456121776520731 -0.1644231271335952 0 0.1962873310639383 0 0.12973392654645 0.1458763324828521 0.1653119799706877 0.1029394611262077 0 0 0 0 0 0 2:1 25:1 41:1 59:1 71:1 91:1 116:1 178:1 238:1 310:1 382:1 480:1 10004:1 26063:1 29118:1 45162:1 48205:1 48207:1 48209:1 48233:1 54509:1 60808:1 71366:1 73406:1 
-0 -0 0.2569161724817717 0 0 0 0 0 0 0 0 0 0 0 0 7:1 25:1 37:1 59:1 72:1 93:1 112:1 178:1 238:1 310:1 382:1 468:1 10004:1 26064:1 33535:1 45163:1 48205:1 48207:1 48209:1 48223:1 54509:1 60831:1 69761:1 73406:1 
-0 -0 0.1640456348170299 0.1788525067107075 0 0 0 0 0 0 0 0.0925267003075744 0.1013594384445487 0.07448064650370798 0 2:1 25:1 37:1 58:1 71:1 93:1 116:1 178:1 238:1 310:1 383:1 480:1 10004:1 26438:1 35989:1 44961:1 48205:1 48207:1 48209:1 48233:1 54509:1 60808:1 71605:1 76214:1 
-0.09822050368037845 -0 0.151723732478816 0.1237788469103747 0 0 0 0 0 0 0 0 0 0.1225252365963295 0 7:1 25:1 38:1 54:1 74:1 88:1 112:1 178:1 238:1 310:1 387:1 468:1 10004:1 23799:1 29108:1 44856:1 48205:1 48207:1 48209:1 48223:1 54509:1 60965:1 68657:1 73412:1 
-0 -0 0 0.1496499482989622 0 0 0 0 0 0 0 0 0 0 0 2:1 25:1 36:1 59:1 72:1 93:1 116:1 178:1 238:1 310:1 382:1 480:1 10004:1 20505:1 29130:1 41139:1 48205:1 48207:1 48209:1 48233:1 54509:1 64240:1 67235:1 73406:1 
-0.118243851887481 -0 0 0 0 0 0 0 0 0 0 0 0 0 0 2:1 25:1 38:1 59:1 71:1 93:1 116:1 178:1 238:1 310:1 382:1 480:1 10004:1 28775:1 29108:1 39605:1 48205:1 48207:1 48209:1 48233:1 54509:1 60831:1 67924:1 73406:1 
-0 -0 0 0.1376810921793378 0 0 0 0 0 0 0 0 0 0 0 2:1 25:1 41:1 59:1 71:1 93:1 116:1 178:1 238:1 310:1 382:1 480:1 10004:1 28850:1 29268:1 44990:1 48205:1 48207:1 48209:1 48233:1 54509:1 64686:1 72335:1 73406:1 
-0.1855287451398442 -0 0.04282527552764209 0.08821216830587923 0.1420454553151426 0.1103234573040215 0.06950705718705574 0.09603833794285953 0.0625685137949842 0.1736111042124256 0.1481481481481481 0.1636661303093792 0.09938699108157266 0.05234533668463022 0.05657206134865185 7:1 25:1 36:1 51:1 68:1 93:1 112:1 178:1 238:1 310:1 382:1 468:1 10004:1 27247:1 29106:1 43985:1 48205:1 48207:1 48209:1 48223:1 54509:1 63161:1 72173:1 73406:1 
-0 -0.1659589663358165 -0 0 0 0 0 0 0 0 0 0 0 0 0 6:1 25:1 37:1 55:1 71:1 85:1 118:1 166:1 239:1 310:1 382:1 754:1 10303:1 19855:1 29406:1 38654:1 48205:1 48207:1 48209:1 48258:1 54509:1 60808:1 67345:1 73406:1 
-0.1877590078911336 -0.1786381881393101 -0.1752478928679885 0.1438510323998185 0 0 0 0 0 0 0 0 0 0 0 6:1 25:1 41:1 59:1 71:1 92:1 108:1 186:1 238:1 310:1 382:1 781:1 10004:1 19882:1 29118:1 38980:1 48205:1 48207:1 48209:1 48467:1 54509:1 60808:1 67365:1 73406:1 
-0 -0 -0.1789536213904979 0 0 0 0 0 0 0 0 0 0 0 0 7:1 25:1 37:1 53:1 69:1 88:1 112:1 178:1 238:1 310:1 382:1 468:1 10004:1 20060:1 29611:1 39159:1 48205:1 48207:1 48209:1 48223:1 54509:1 60881:1 67492:1 73406:1 
-0 -0 -0.33389144249495 0 0 0 0 0 0 0 0 0 0 0 0 7:1 25:1 37:1 53:1 69:1 88:1 112:1 178:1 238:1 310:1 382:1 468:1 10004:1 20143:1 29694:1 39242:1 48205:1 48207:1 48209:1 48223:1 54509:1 60831:1 67554:1 73406:1 
-0 -0 -0 0 0 0 0 0.0566580949483399 0 0 0 0 0 0 0 8:1 25:1 37:1 53:1 68:1 89:1 133:1 166:1 238:1 310:1 382:1 698:1 10004:1 19882:1 29956:1 38654:1 48205:1 48207:1 48209:1 48277:1 54509:1 60808:1 67365:1 73406:1 
-0 -0 -0 0 0 0 0 0.2001263726219983 0.1033977477575059 0 0 0 0 0 0 4:1 25:1 37:1 55:1 71:1 91:1 109:1 167:1 238:1 310:1 382:1 766:1 10004:1 21047:1 29552:1 40146:1 48205:1 48207:1 48209:1 48311:1 54509:1 60808:1 68157:1 73406:1 
-0 -0 -0 0.1977129116762861 0 0 0 0 0 0 0 0 0 0 0 4:1 25:1 37:1 53:1 68:1 88:1 109:1 167:1 238:1 310:1 382:1 463:1 10004:1 21290:1 29526:1 40241:1 48205:1 48207:1 48209:1 48214:1 54509:1 60821:1 68311:1 73406:1 
-0 -0.2355559534966294 -0 0 0 0 0 0 0 0 0.09420289837187673 0 0 0 0 6:1 25:1 37:1 53:1 74:1 92:1 108:1 186:1 238:1 310:1 382:1 1785:1 10004:1 21336:1 30887:1 39075:1 48205:1 48207:1 48209:1 48286:1 54509:1 60808:1 67197:1 73406:1 
-0 -0 -0 0 0 0 0 0.2056347460686758 0 0 0 0 0 0 0 4:1 25:1 37:1 60:1 74:1 88:1 113:1 167:1 238:1 310:1 382:1 550:1 10004:1 20714:1 29194:1 40188:1 48205:1 48207:1 48209:1 48214:1 54509:1 60808:1 67267:1 73406:1 
-0 -0 -0 0 0 0 0 0 0 0.1214814781325017 0 0 0.08872875083654509 0 0 4:1 25:1 37:1 53:1 68:1 88:1 109:1 180:1 238:1 310:1 382:1 463:1 10004:1 21446:1 30308:1 40545:1 48205:1 48207:1 48209:1 48214:1 54509:1 60808:1 68065:1 73406:1 
-0 -0 -0 0.1810607424034519 0 0 0 0 0 0 0 0 0 0 0 6:1 25:1 37:1 58:1 71:1 91:1 110:1 185:1 238:1 310:1 382:1 1016:1 10004:1 21492:1 31035:1 40591:1 48205:1 48207:1 48209:1 48636:1 54509:1 61508:1 67749:1 73406:1 
-0 -0 -0 0.1321527413319283 0 0 0 0 0 0 0 0 0 0 0 4:1 25:1 37:1 55:1 73:1 88:1 113:1 180:1 238:1 310:1 382:1 550:1 10004:1 21450:1 29194:1 38834:1 48205:1 48207:1 48209:1 48214:1 54509:1 60909:1 67236:1 73406:1 
-0 -0 -0.1947590701636379 0 0 0 0 0 0 0 0 0 0 0 0 4:1 25:1 37:1 59:1 75:1 93:1 109:1 195:1 238:1 310:1 382:1 766:1 10004:1 22037:1 31588:1 41136:1 48205:1 48207:1 48209:1 48311:1 54509:1 60808:1 68771:1 73406:1 
-0 -0 -0 0 0 0.1027800080998336 0 0 0 0 0 0 0 0 0 8:1 25:1 37:1 55:1 71:1 87:1 115:1 166:1 238:1 310:1 382:1 1691:1 10004:1 21321:1 29500:1 38654:1 48205:1 48207:1 48209:1 48508:1 54509:1 60808:1 67692:1 73406:1 
-0 -0.2 -0 0 0 0 0 0 0 0 0 0 0 0 0 4:1 25:1 37:1 55:1 71:1 92:1 113:1 179:1 238:1 310:1 382:1 792:1 10004:1 20304:1 30468:1 38668:1 48205:1 48207:1 48209:1 48311:1 54509:1 60909:1 67663:1 73406:1 
-0 -0.08072848575372317 -0 0 0 0 0 0 0 0 0 0 0 0 0 6:1 25:1 37:1 53:1 78:1 92:1 108:1 186:1 244:1 310:1 382:1 3718:1 10004:1 21421:1 29526:1 39075:1 48205:1 48207:1 48209:1 49344:1 54509:1 60808:1 67749:1 73406:1 
-0 -0 -0 0 0 0 0 0 0 0 0 0.101543651632239 0 0 0 5:1 25:1 37:1 60:1 78:1 92:1 117:1 166:1 238:1 310:1 382:1 841:1 10004:1 21446:1 30308:1 38654:1 48205:1 48207:1 48209:1 48216:1 54509:1 60808:1 68065:1 73406:1 
-0 -0 -0 0 0 0 0 0.09826372059214589 0 0 0 0 0 0 0 4:1 25:1 37:1 53:1 68:1 88:1 113:1 167:1 238:1 310:1 382:1 471:1 10004:1 21013:1 31130:1 40010:1 48205:1 48207:1 48209:1 48214:1 54509:1 60825:1 68130:1 73406:1 
-0 -0 -0 0 0 0 0 0 0.08939747096479182 0 0 0 0 0 0 7:1 25:1 37:1 61:1 74:1 85:1 119:1 166:1 238:1 310:1 382:1 875:1 10004:1 19882:1 31207:1 38654:1 48205:1 48207:1 48209:1 48251:1 54509:1 60808:1 67365:1 73406:1 
-0.1097734607330091 -0 -0 0 0 0 0 0 0 0 0 0 0 0.2202946042165518 0 5:1 25:1 37:1 60:1 74:1 85:1 117:1 166:1 238:1 310:1 382:1 647:1 10004:1 23799:1 33350:1 38654:1 48205:1 48207:1 48209:1 48216:1 54509:1 60808:1 68657:1 73406:1 
-0.1584828322021512 -0.09227094719097784 -0.08804821335942335 0.182639520985302 0 0 0 0.1652739251216497 0 0 0 0 0 0 0 4:1 25:1 41:1 59:1 71:1 95:1 109:1 167:1 238:1 310:1 382:1 463:1 10004:1 23929:1 29118:1 40175:1 48205:1 48207:1 48209:1 48214:1 54509:1 62821:1 69998:1 73406:1 
-0.1612177993296269 -0 -0 0 0 0 0.1713379623846031 0 0 0 0 0 0 0 0 6:1 25:1 37:1 57:1 73:1 85:1 137:1 166:1 239:1 310:1 382:1 3978:1 10404:1 21421:1 29631:1 38654:1 48205:1 48207:1 48209:1 48526:1 54509:1 60808:1 67749:1 73406:1 
-0.1095479186829825 -0.1578937981242611 -0 0 0 0 0 0 0 0 0 0 0 0 0 6:1 25:1 37:1 59:1 70:1 92:1 137:1 186:1 269:1 310:1 382:1 3870:1 10004:1 23966:1 33807:1 40317:1 48205:1 48207:1 48209:1 48420:1 54509:1 61714:1 70014:1 73406:1 
-0 -0 -0.151723732478816 0.108252744933381 0 0 0 0 0 0 0 0 0 0 0 7:1 25:1 37:1 58:1 74:1 88:1 112:1 178:1 238:1 310:1 382:1 871:1 10004:1 21492:1 33876:1 42548:1 48205:1 48207:1 48209:1 48528:1 54509:1 63954:1 67749:1 73406:1 
-0.1671536216969726 -0.148114430974602 -0 0 0 0 0 0 0 0 0 0 0 0 0 6:1 25:1 37:1 55:1 71:1 89:1 110:1 169:1 238:1 310:1 382:1 5287:1 10004:1 24388:1 33939:1 38663:1 48205:1 48207:1 48209:1 51397:1 54509:1 63763:1 70295:1 73406:1 
-0 -0 -0 0 0 0.1862702418383172 0.0984118065788054 0 0 0 0 0 0 0.1332931589718227 0.1310593643984608 5:1 25:1 37:1 54:1 70:1 92:1 117:1 166:1 238:1 310:1 382:1 482:1 10004:1 24504:1 34055:1 38654:1 48205:1 48207:1 48209:1 48216:1 54509:1 60808:1 68588:1 73406:1 
-0 -0 -0 0 0 0.1155861530483271 0 0 0 0 0 0 0 0 0 4:1 25:1 37:1 57:1 74:1 87:1 113:1 166:1 238:1 310:1 382:1 914:1 10004:1 23600:1 33171:1 38654:1 48205:1 48207:1 48209:1 48227:1 54509:1 60808:1 67350:1 73406:1 
-0 -0 -0 0 0 0 0 0.1151636838976954 0 0 0 0 0 0 0 4:1 25:1 35:1 53:1 69:1 91:1 113:1 167:1 238:1 310:1 382:1 844:1 10004:1 20316:1 29847:1 43297:1 48205:1 48207:1 48209:1 48227:1 54509:1 60808:1 67350:1 73406:1 
-0.1568168361539125 -0.1331773421094591 -0 0.1634299517946347 0 0.1958764015624739 0.09529380020698705 0 0 0 0 0 0 0 0 8:1 25:1 42:1 54:1 76:1 89:1 133:1 166:1 238:1 310:1 382:1 623:1 10004:1 24715:1 34266:1 38654:1 48205:1 48207:1 48209:1 48274:1 54509:1 60808:1 70505:1 73406:1 
-0 -0 -0.1203995360194988 0 0.140799529632798 0 0 0 0 0 0 0 0 0 0 8:1 25:1 37:1 59:1 70:1 93:1 131:1 166:1 238:1 310:1 382:1 5615:1 10004:1 24716:1 31597:1 38654:1 48205:1 48207:1 48209:1 51608:1 54509:1 60808:1 70506:1 73406:1 
-0.1483477433863554 -0 -0 0 0 0 0 0 0 0 0 0 0 0 0 5:1 25:1 37:1 57:1 77:1 92:1 117:1 166:1 238:1 310:1 382:1 565:1 10004:1 25170:1 34721:1 38654:1 48205:1 48207:1 48209:1 48216:1 54509:1 60808:1 68711:1 73406:1 
-0 -0 -0 0.0989172348697701 0 0 0 0 0 0 0 0 0 0 0 4:1 25:1 37:1 55:1 71:1 91:1 109:1 167:1 238:1 310:1 382:1 484:1 10004:1 25188:1 34739:1 44287:1 48205:1 48207:1 48209:1 48236:1 54509:1 60909:1 70819:1 73406:1 
-0 -0 -0 0.08755787782203939 0 0 0 0 0 0 0 0 0 0 0 4:1 25:1 35:1 54:1 73:1 91:1 113:1 167:1 238:1 310:1 382:1 844:1 10004:1 20316:1 30494:1 43756:1 48205:1 48207:1 48209:1 48227:1 54509:1 60808:1 67350:1 73406:1 
-0.1129763559684053 -0.1266222695721876 -0 0 0 0 0 0 0 0 0 0 0 0 0 6:1 25:1 37:1 53:1 77:1 91:1 108:1 185:1 239:1 310:1 382:1 6553:1 10004:1 19904:1 29956:1 39266:1 48205:1 48207:1 48209:1 49475:1 54509:1 63637:1 67286:1 73406:1 
-0 -0 -0 0 0 0 0 0.2127474799828272 0 0 0 0 0 0 0 4:1 25:1 37:1 58:1 72:1 88:1 113:1 198:1 238:1 310:1 382:1 550:1 10004:1 21450:1 34055:1 44900:1 48205:1 48207:1 48209:1 48214:1 54509:1 60838:1 67236:1 73406:1 
-0 -0.1008527911496233 -0 0 0 0 0 0 0 0 0 0 0 0 0 6:1 25:1 37:1 59:1 70:1 89:1 110:1 169:1 238:1 310:1 382:1 6717:1 10004:1 21421:1 33151:1 38663:1 48205:1 48207:1 48209:1 52320:1 54509:1 60999:1 67749:1 73406:1 
-0.1049683643152582 -0.1612543414925849 -0 0 0 0 0 0 0 0 0 0 0 0.09571301716312754 0 8:1 25:1 35:1 54:1 74:1 89:1 133:1 166:1 238:1 310:1 382:1 1215:1 10004:1 20316:1 30494:1 38654:1 48205:1 48207:1 48209:1 48387:1 54509:1 60808:1 67350:1 73406:1 
-0 -0 -0 0 0 0 0 0.1376191031606122 0 0 0 0 0 0 0 4:1 25:1 37:1 55:1 71:1 88:1 113:1 167:1 238:1 310:1 382:1 550:1 10004:1 25888:1 35439:1 44986:1 48205:1 48207:1 48209:1 48214:1 54509:1 60862:1 68386:1 73406:1 
-0 -0 -0 0.1426345873003576 0 0.1960005187922102 0.1133151497910728 0 0.1605856707997208 0 0 0 0 0 0.09555772893211753 9:1 25:1 37:1 53:1 68:1 91:1 121:1 167:1 238:1 310:1 382:1 4515:1 10004:1 25926:1 35477:1 45025:1 48205:1 48207:1 48209:1 50886:1 54509:1 60808:1 71281:1 73406:1 
-0 -0 -0 0 0 0.1250919674021485 0 0 0 0 0 0 0 0 0 1:1 25:1 37:1 58:1 73:1 90:1 103:1 166:1 238:1 310:1 382:1 6908:1 10004:1 26009:1 33260:1 38654:1 48205:1 48207:1 48209:1 52430:1 54509:1 60808:1 71328:1 73406:1 
-0 -0 -0.08707036480385164 0 0 0 0 0 0 0 0 0 0 0 0 4:1 25:1 37:1 55:1 71:1 95:1 113:1 167:1 238:1 310:1 383:1 550:1 10004:1 26029:1 33535:1 38827:1 48205:1 48207:1 48209:1 48214:1 54509:1 65044:1 68537:1 73483:1 
-0.2507768021138169 -0.3276517571245078 -0.1294812753434008 0.1592831303268883 0 0.1850388879668883 0 0.1300852580031223 0 0.08910617471392702 0 0.1211538174481207 0.1450052668976651 0 0 6:1 25:1 36:1 60:1 77:1 85:1 118:1 166:1 261:1 310:1 382:1 7337:1 10004:1 25861:1 29130:1 38654:1 48205:1 48207:1 48209:1 52707:1 54509:1 60808:1 67621:1 73406:1 
-0.1586243595223792 -0 -0.2645706018796732 0 0 0 0 0 0 0 0 0 0 0 0 7:1 25:1 37:1 53:1 70:1 88:1 112:1 178:1 238:1 310:1 382:1 468:1 10004:1 26597:1 35321:1 45696:1 48205:1 48207:1 48209:1 48223:1 54509:1 60825:1 67357:1 73406:1 
-0 -0.1681634241347619 -0.2178649165046736 0.08672602208665826 0 0 0 0 0 0 0 0 0 0 0 7:1 25:1 37:1 57:1 72:1 88:1 112:1 178:1 238:1 310:1 382:1 468:1 10004:1 22123:1 36280:1 42412:1 48205:1 48207:1 48209:1 48223:1 54509:1 60812:1 68829:1 73406:1 
-0 -0 -0.1140037747532541 0.0860033924156408 0 0.1605310532124523 0 0 0 0 0 0 0.1000663708802113 0 0 2:1 25:1 37:1 59:1 76:1 96:1 116:1 166:1 238:1 310:1 382:1 480:1 10004:1 22123:1 36285:1 38654:1 48205:1 48207:1 48209:1 48233:1 54509:1 60808:1 68829:1 73406:1 
-0 -0.1754500882578024 -0 0 0 0 0 0 0 0 0.1259259259259259 0 0 0 0 6:1 25:1 37:1 58:1 71:1 92:1 108:1 186:1 239:1 310:1 382:1 7685:1 10004:1 21421:1 36508:1 38738:1 48205:1 48207:1 48209:1 48288:1 54509:1 61271:1 67749:1 73406:1 
-0.2042068789660372 -0 -0 0.2 0 0 0 0 0 0 0 0 0 0 0 3:1 25:1 37:1 60:1 78:1 89:1 152:1 169:1 238:1 310:1 382:1 8014:1 10004:1 22123:1 35595:1 38966:1 48205:1 48207:1 48209:1 53186:1 54509:1 60808:1 68829:1 73406:1 
-0 -0 -0 0 0 0 0 0 0 0 0 0 0.1793348463572217 0 0 8:1 25:1 37:1 61:1 74:1 91:1 133:1 166:1 238:1 310:1 382:1 1215:1 10004:1 27247:1 36798:1 38654:1 48205:1 48207:1 48209:1 48387:1 54509:1 60808:1 72173:1 73406:1 
-0.09073222879833268 -0 -0 0.1491551298629145 0 0.1048267751425953 0 0 0 0 0 0 0 0 0 9:1 25:1 37:1 53:1 72:1 92:1 121:1 167:1 238:1 310:1 382:1 509:1 10004:1 25520:1 29122:1 38701:1 48205:1 48207:1 48209:1 48256:1 54509:1 60886:1 69647:1 73406:1 
-0.08234749503276632 -0 -0 0 0 0 0 0 0 0 0 0 0 0 0 4:1 25:1 37:1 59:1 75:1 91:1 109:1 201:1 238:1 310:1 382:1 739:1 10004:1 27707:1 34606:1 41965:1 48205:1 48207:1 48209:1 48240:1 54509:1 65236:1 72503:1 73406:1 
-0 -0 -0 0 0 0 0 0 0 0 0 0.2478966412206725 0 0 0 5:1 25:1 37:1 57:1 72:1 89:1 117:1 166:1 238:1 310:1 382:1 565:1 10004:1 22123:1 37484:1 38654:1 48205:1 48207:1 48209:1 48216:1 54509:1 60808:1 68829:1 73406:1 
-0.1746148431121387 -0 -0 0.1105979403136709 0 0 0 0 0 0 0 0.2301481084790671 0 0.2178848872353956 0 5:1 25:1 37:1 55:1 71:1 97:1 117:1 166:1 238:1 310:1 383:1 482:1 10004:1 28100:1 37651:1 38654:1 48205:1 48207:1 48209:1 48216:1 54509:1 60808:1 70099:1 73483:1 
-0.06894131973785936 -0 -0 0 0 0 0 0 0 0 0 0 0 0 0 4:1 25:1 37:1 53:1 68:1 91:1 109:1 167:1 238:1 310:1 382:1 484:1 10004:1 20060:1 33754:1 47332:1 48205:1 48207:1 48209:1 48236:1 54509:1 60812:1 67492:1 73406:1 
-0.1046697844745663 -0 -0 0.269541776204258 0 0.1397207606751366 0 0 0 0 0 0 0 0 0 9:1 25:1 37:1 55:1 71:1 91:1 121:1 167:1 238:1 310:1 382:1 1194:1 10004:1 28479:1 37344:1 47578:1 48205:1 48207:1 48209:1 48283:1 54509:1 60847:1 67492:1 73406:1 
-0 -0 -0.0840582068363674 0.1754500882578024 0.07914908166915323 0 0 0 0 0 0 0 0 0 0 7:1 25:1 37:1 57:1 74:1 89:1 119:1 167:1 238:1 310:1 382:1 501:1 10004:1 28641:1 29206:1 38663:1 48205:1 48207:1 48209:1 48251:1 54509:1 60856:1 73108:1 73406:1 
-0.1692394152682075 -0.1220304504482962 -0.1243559489566991 0.1214193349328427 0 0 0 0 0 0 0 0 0 0 0 4:1 25:1 35:1 54:1 72:1 91:1 113:1 167:1 238:1 310:1 382:1 1383:1 10004:1 28798:1 34472:1 47894:1 48205:1 48207:1 48209:1 48240:1 54509:1 66904:1 71180:1 73406:1 
-0.1140794976360437 -0.0875800648347254 -0 0.2 0.1481481481481481 0.07083109611259202 0.06525432373057376 0.08726502454769833 0.07426865934458733 0.05904197343422111 0.05394524977627141 0.07206745258018663 0.05521313084569487 0.03037297133755645 0.07805337528030812 4:1 25:1 35:1 54:1 70:1 89:1 113:1 169:1 238:1 310:1 382:1 914:1 10004:1 23600:1 29205:1 38702:1 48205:1 48207:1 48209:1 48227:1 54509:1 63021:1 67350:1 73406:1 
-0 -0 -0.1788525067107075 -0 0.1463844813864294 0 0 0 0 0 0 0 0 0 0 2:1 25:1 41:1 59:1 70:1 93:1 116:1 168:1 238:1 310:1 382:1 480:1 10004:1 19886:1 29268:1 38985:1 48205:1 48207:1 48209:1 48233:1 54509:1 61068:1 67368:1 73406:1 
-0 -0 -0.1942547206159563 -0 0 0 0 0 0 0 0 0 0.1031554833360191 0 0.09059988965201046 2:1 25:1 41:1 59:1 70:1 88:1 116:1 168:1 238:1 310:1 382:1 480:1 10004:1 19890:1 29268:1 38672:1 48205:1 48207:1 48209:1 48233:1 54509:1 60808:1 67371:1 73406:1 
-0 -0 -0 -0 0 0 0.09696485266393526 0 0 0 0 0 0 0 0 9:1 25:1 39:1 54:1 74:1 94:1 121:1 190:1 238:1 310:1 382:1 955:1 10004:1 20056:1 29215:1 38658:1 48205:1 48207:1 48209:1 48591:1 54509:1 60856:1 67405:1 73406:1 
-0 -0 -0 -0 0 0.1582245726068298 0 0 0.1043403125974957 0 0 0 0 0 0 9:1 25:1 39:1 54:1 74:1 91:1 121:1 167:1 238:1 334:1 382:1 458:1 10004:1 20056:1 29215:1 39154:1 48205:1 48207:1 48209:1 48591:1 54890:1 60808:1 67405:1 73406:1 
-0.2268981385885659 -0 -0 -0.2 0 0 0 0 0 0 0 0 0 0 0 3:1 25:1 38:1 54:1 70:1 89:1 105:1 169:1 238:1 310:1 382:1 521:1 10004:1 20098:1 29113:1 38673:1 48205:1 48207:1 48209:1 48267:1 54509:1 61219:1 67519:1 73406:1 
-0.04150950994872527 -0.1031115991255521 -0 -0 0 0 0 0 0 0 0 0 0 0 0 4:1 25:1 38:1 54:1 70:1 88:1 109:1 167:1 238:1 313:1 382:1 473:1 10004:1 20098:1 29113:1 39197:1 48205:1 48207:1 48209:1 48227:1 54566:1 60856:1 67519:1 73406:1 
-0.1977507149930694 -0.1706521725448569 -0 -0 0 0 0 0 0 0 0 0 0 0 0 3:1 25:1 38:1 59:1 71:1 89:1 105:1 169:1 238:1 311:1 382:1 1261:1 10004:1 19668:1 29416:1 38663:1 48205:1 48207:1 48209:1 48804:1 54660:1 61130:1 67203:1 73406:1 
-0 -0 -0 -0.1977129116762861 0 0 0 0 0 0 0 0 0 0 0 4:1 25:1 38:1 59:1 71:1 88:1 109:1 167:1 238:1 313:1 382:1 463:1 10004:1 19668:1 29416:1 39076:1 48205:1 48207:1 48209:1 48214:1 55103:1 60812:1 67203:1 73406:1 
-0 -0 -0 -0.04672087218367842 0 0 0 0 0 0 0 0 0 0 0 8:1 25:1 36:1 51:1 68:1 88:1 131:1 167:1 238:1 310:1 382:1 1486:1 10004:1 20590:1 29106:1 39685:1 48205:1 48207:1 48209:1 48242:1 54509:1 60856:1 67198:1 73406:1 
-0 -0 -0 -0.1125622581432099 0 0 0 0 0 0 0 0 0 0 0 8:1 25:1 41:1 53:1 72:1 88:1 131:1 167:1 238:1 310:1 382:1 1486:1 10004:1 19885:1 29153:1 39685:1 48205:1 48207:1 48209:1 48242:1 54509:1 60812:1 67197:1 73406:1 
-0 -0 -0 -0 0 0 0 0.1839718260049751 0 0 0 0 0 0 0 8:1 25:1 36:1 51:1 68:1 88:1 131:1 167:1 238:1 310:1 382:1 1624:1 10004:1 20725:1 29106:1 39823:1 48205:1 48207:1 48209:1 48358:1 54509:1 60838:1 67952:1 73406:1 
-0.1532763540906478 -0 -0 -0 0 0.0853469800658254 0 0 0 0 0.08137706733982922 0 0 0 0 3:1 25:1 36:1 58:1 74:1 89:1 105:1 169:1 243:1 310:1 382:1 474:1 10004:1 21070:1 29130:1 38673:1 48205:1 48207:1 48209:1 48228:1 54509:1 60808:1 68164:1 73406:1 
-0.1737283104414613 -0 -0 -0 0 0 0 0 0 0 0 0 0 0 0 3:1 25:1 41:1 57:1 77:1 92:1 105:1 179:1 238:1 310:1 420:1 522:1 10004:1 21379:1 29188:1 38668:1 48205:1 48207:1 48209:1 48268:1 54509:1 60876:1 68358:1 74656:1 
-0 -0 -0.1000421577319947 -0 0 0 0.1096230274888654 0 0 0 0 0 0 0 0 7:1 25:1 41:1 57:1 77:1 88:1 112:1 178:1 238:1 323:1 420:1 468:1 10004:1 21379:1 29188:1 38734:1 48205:1 48207:1 48209:1 48223:1 54567:1 60812:1 68358:1 74656:1 
-0.1553290329129922 -0 -0 -0 0 0 0 0 0 0 0 0 0 0 0 3:1 25:1 41:1 57:1 77:1 89:1 105:1 169:1 238:1 322:1 420:1 534:1 10004:1 21379:1 29188:1 38663:1 48205:1 48207:1 48209:1 48278:1 54522:1 60847:1 68358:1 74656:1 
-0 -0 -0 -0.1321527413319283 0 0 0 0 0 0 0 0 0 0 0 4:1 25:1 41:1 57:1 77:1 88:1 109:1 167:1 238:1 313:1 420:1 463:1 10004:1 21379:1 29188:1 38772:1 48205:1 48207:1 48209:1 48214:1 54577:1 60816:1 68358:1 74656:1 
-0 -0.1171216481965188 -0 -0 0 0 0 0 0 0 0 0 0 0 0 9:1 25:1 38:1 56:1 71:1 94:1 121:1 190:1 238:1 310:1 382:1 724:1 10004:1 21381:1 29134:1 38658:1 48205:1 48207:1 48209:1 48747:1 54509:1 60808:1 68359:1 73406:1 
-0 -0.0969337652062935 -0 -0 0 0 0 0 0 0 0 0 0 0 0 8:1 25:1 38:1 56:1 71:1 88:1 131:1 167:1 238:1 310:1 383:1 1750:1 10004:1 21780:1 29168:1 39830:1 48205:1 48207:1 48209:1 49135:1 54509:1 62307:1 68608:1 74906:1 
-0 -0 -0 -0.108252744933381 0 0 0 0 0 0 0 0 0 0 0 2:1 25:1 39:1 54:1 72:1 91:1 116:1 168:1 238:1 310:1 382:1 480:1 10004:1 21195:1 29491:1 38717:1 48205:1 48207:1 48209:1 48233:1 54509:1 60808:1 67405:1 73406:1 
-0 -0 -0.1496499482989622 -0 0 0 0 0 0 0 0 0 0 0 0 8:1 25:1 36:1 53:1 73:1 88:1 131:1 167:1 238:1 310:1 382:1 2942:1 10004:1 20393:1 29117:1 39492:1 48205:1 48207:1 48209:1 49878:1 54509:1 60812:1 67722:1 73406:1 
-0.2116700867054138 -0 -0 -0.1810607424034519 0 0 0 0 0 0 0.08196625331245636 0 0 0 0 2:1 25:1 39:1 54:1 74:1 91:1 116:1 168:1 238:1 310:1 382:1 480:1 10004:1 22352:1 29132:1 40356:1 48205:1 48207:1 48209:1 48233:1 54509:1 60847:1 68977:1 73406:1 
-0.1614606754607448 -0 -0 -0 0 0 0 0 0 0 0 0 0 0 0 2:1 25:1 41:1 55:1 71:1 88:1 111:1 177:1 238:1 310:1 383:1 467:1 10004:1 21270:1 29118:1 39153:1 48205:1 48207:1 48209:1 48222:1 54509:1 60821:1 68997:1 73810:1 
-0 -0.1978391262456722 -0 -0 0 0 0 0 0 0 0 0 0 0 0 2:1 25:1 39:1 54:1 78:1 91:1 116:1 168:1 238:1 310:1 382:1 480:1 10004:1 20056:1 29215:1 39138:1 48205:1 48207:1 48209:1 48233:1 54509:1 60808:1 68337:1 73406:1 
-0 -0 -0.1376810921793378 -0 0 0 0 0 0 0 0 0 0 0 0 2:1 25:1 38:1 59:1 71:1 91:1 116:1 168:1 238:1 310:1 382:1 480:1 10004:1 20056:1 29123:1 38711:1 48205:1 48207:1 48209:1 48233:1 54509:1 60808:1 67405:1 73406:1 
-0.1157820282001227 -0.1471932742957824 -0.1962873310639383 -0.1105979403136709 0 0 0 0.1323554605743094 0.1833444190103226 0 0 0 0 0 0 7:1 25:1 36:1 55:1 71:1 92:1 119:1 190:1 238:1 310:1 382:1 570:1 10004:1 22727:1 29130:1 38673:1 48205:1 48207:1 48209:1 48308:1 54509:1 61148:1 69212:1 73406:1 
-0 -0 -0.1927073859112004 -0 0 0 0 0 0 0 0 0 0 0 0 2:1 25:1 39:1 54:1 74:1 91:1 116:1 168:1 238:1 310:1 382:1 480:1 10004:1 21195:1 29132:1 39657:1 48205:1 48207:1 48209:1 48233:1 54509:1 60808:1 67405:1 73406:1 
-0.3526186449285842 -0.1018688846404747 -0 -0.1634299517946347 0 0.1532789180753895 0 0 0 0 0 0 0.1022639438145991 0 0 10:1 25:1 36:1 51:1 68:1 89:1 140:1 169:1 238:1 310:1 382:1 2157:1 10004:1 22774:1 29106:1 38774:1 48205:1 48207:1 48209:1 48871:1 54509:1 60808:1 69238:1 73406:1 
-0.1748697703396454 -0 -0 -0 0 0 0 0 0 0 0 0 0 0 0 8:1 25:1 38:1 57:1 73:1 91:1 131:1 185:1 238:1 310:1 382:1 691:1 10004:1 23182:1 29416:1 42281:1 48205:1 48207:1 48209:1 48267:1 54509:1 60849:1 67695:1 73406:1 
-0.5 -0.1416032784629862 -0 -0 0 0 0 0 0 0 0 0 0 0 0 3:1 25:1 38:1 54:1 75:1 91:1 114:1 185:1 243:1 311:1 382:1 2243:1 10004:1 23282:1 29259:1 42143:1 48205:1 48207:1 48209:1 48405:1 54513:1 60939:1 69508:1 73406:1 
-0.08707281127011682 -0 -0 -0 0 0 0 0 0 0 0 0 0.2319860967111893 0 0 2:1 25:1 36:1 61:1 74:1 88:1 135:1 216:1 238:1 310:1 382:1 4221:1 10004:1 23352:1 29130:1 42451:1 48205:1 48207:1 48209:1 50636:1 54509:1 60812:1 69564:1 73406:1 
-0.1823582641790878 -0 -0 -0 0 0 0 0 0 0 0 0 0 0 0 3:1 25:1 36:1 51:1 68:1 89:1 105:1 169:1 238:1 310:1 382:1 1349:1 10004:1 20654:1 29106:1 38663:1 48205:1 48207:1 48209:1 48863:1 54509:1 60946:1 67636:1 73406:1 
-0.1134460602643933 -0 -0 -0 0 0 0 0 0 0 0 0 0 0 0 3:1 25:1 38:1 54:1 77:1 89:1 105:1 169:1 238:1 310:1 383:1 4484:1 10004:1 24485:1 29200:1 38888:1 48205:1 48207:1 48209:1 50669:1 54509:1 63729:1 70356:1 73483:1 
-0 -0 -0 -0 0 0 0 0 0 0 0 0.07297042440780173 0 0 0 4:1 25:1 38:1 54:1 77:1 88:1 109:1 167:1 238:1 313:1 383:1 688:1 10004:1 24485:1 29200:1 43085:1 48205:1 48207:1 48209:1 48214:1 56968:1 60808:1 70356:1 73483:1 
-0.2466088468726703 -0 -0 -0 0 0 0 0 0 0 0 0 0 0 0 3:1 25:1 38:1 54:1 76:1 89:1 152:1 169:1 238:1 310:1 383:1 5904:1 10004:1 25005:1 29134:1 41830:1 48205:1 48207:1 48209:1 51796:1 54509:1 64393:1 70694:1 73483:1 
-0 -0 -0 -0.08755787782203939 0 0 0 0.1096331625186738 0 0 0 0 0 0 0 4:1 25:1 38:1 54:1 76:1 88:1 113:1 167:1 238:1 313:1 383:1 3630:1 10004:1 25005:1 29134:1 44103:1 48205:1 48207:1 48209:1 48214:1 58095:1 60808:1 70694:1 73483:1 
-0 -0 -0 -0 0 0 0 0 0 0 0 0 0.1173004863237439 0 0 8:1 25:1 36:1 53:1 68:1 88:1 131:1 167:1 238:1 310:1 431:1 2236:1 10004:1 25087:1 32871:1 39939:1 48205:1 48207:1 48209:1 48300:1 54509:1 63866:1 70225:1 75832:1 
-0.09047448587290137 -0 -0 -0 0 0 0 0 0 0 0 0 0 0 0 3:1 25:1 38:1 54:1 70:1 89:1 105:1 169:1 238:1 311:1 383:1 764:1 10004:1 25458:1 29108:1 38663:1 48205:1 48207:1 48209:1 48455:1 57412:1 64094:1 70040:1 73483:1 
-0.1263120212108944 -0.07592535737707702 -0 -0 0 0 0 0 0 0 0 0 0 0 0.1024334059831416 4:1 25:1 38:1 54:1 70:1 88:1 109:1 180:1 238:1 313:1 383:1 463:1 10004:1 25458:1 29108:1 43645:1 48205:1 48207:1 48209:1 48214:1 54754:1 60812:1 70040:1 73483:1 
-0.1699221354107808 -0 -0 -0 0 0 0 0 0 0 0 0 0 0.1239589238181023 0 3:1 25:1 38:1 54:1 70:1 89:1 105:1 169:1 238:1 324:1 383:1 5445:1 10004:1 25458:1 29108:1 38663:1 48205:1 48207:1 48209:1 51496:1 54513:1 64161:1 70040:1 73483:1 
-0.1589619953389007 -0.148224154555412 -0 -0.1438510323998185 0 0 0 0 0 0 0 0.08815814875383217 0 0 0 8:1 25:1 41:1 60:1 76:1 92:1 131:1 179:1 238:1 310:1 383:1 4900:1 10004:1 23651:1 29246:1 38668:1 48205:1 48207:1 48209:1 49748:1 54509:1 64693:1 69530:1 74052:1 
-0.1005167455934205 -0 -0.1787880238027817 -0 0 0 0 0 0 0 0 0 0 0 0 7:1 25:1 41:1 60:1 76:1 93:1 112:1 178:1 238:1 323:1 383:1 468:1 10004:1 23651:1 29246:1 44565:1 48205:1 48207:1 48209:1 48223:1 56047:1 61196:1 69530:1 74052:1 
-0 -0 -0 -0 0.09353765467965504 0 0 0 0 0 0 0 0 0 0 8:1 25:1 41:1 60:1 76:1 88:1 131:1 167:1 238:1 322:1 383:1 6365:1 10004:1 23651:1 29246:1 39165:1 48205:1 48207:1 48209:1 52095:1 54522:1 60812:1 69530:1 74052:1 
-0.2087703598760036 -0 -0 -0 0.1034748473037005 0 0 0 0 0 0 0 0 0 0 3:1 25:1 36:1 51:1 68:1 89:1 105:1 169:1 238:1 311:1 382:1 1207:1 10004:1 25576:1 29106:1 38663:1 48205:1 48207:1 48209:1 48768:1 55043:1 61996:1 71066:1 73406:1 
-0 -0 -0 -0 0 0.1163753304366688 0 0.2225132452340621 0 0.1807851106666188 0 0 0 0 0 4:1 25:1 36:1 51:1 68:1 88:1 109:1 167:1 238:1 313:1 382:1 463:1 10004:1 25576:1 29106:1 44674:1 48205:1 48207:1 48209:1 48214:1 55067:1 60808:1 71066:1 73406:1 
-0.2006360758071207 -0.1260998677582968 -0 -0.0860033924156408 0 0 0.1599971934477701 0.1502078618010732 0.1702413267065752 0 0 0 0 0 0 10:1 25:1 38:1 54:1 70:1 91:1 140:1 167:1 239:1 310:1 382:1 1330:1 10004:1 25255:1 29416:1 38875:1 48205:1 48207:1 48209:1 48427:1 54509:1 60808:1 71112:1 73406:1 
-0.2933810192332152 -0 -0 -0 0 0 0 0 0 0 0 0 0 0 0 8:1 25:1 36:1 51:1 68:1 88:1 131:1 167:1 238:1 310:1 382:1 5371:1 10004:1 23651:1 29106:1 43145:1 48205:1 48207:1 48209:1 51098:1 54509:1 60812:1 69530:1 73406:1 
-0 -0.1117705474387753 -0 -0 0 0 0 0 0 0 0 0 0 0 0 2:1 25:1 36:1 51:1 68:1 88:1 135:1 216:1 238:1 310:1 382:1 4221:1 10004:1 23352:1 29106:1 42451:1 48205:1 48207:1 48209:1 50636:1 54509:1 60812:1 69564:1 73406:1 
-0 -0 -0 -0.182639520985302 0 0 0 0 0 0 0 0 0 0 0 8:1 25:1 41:1 55:1 71:1 88:1 131:1 167:1 238:1 310:1 382:1 4252:1 10004:1 23856:1 29118:1 42955:1 48205:1 48207:1 48209:1 50667:1 54509:1 60909:1 69950:1 73406:1 
-0 -0 -0 -0.1491551298629145 0 0 0 0 0 0 0 0 0 0 0 9:1 25:1 36:1 58:1 73:1 91:1 121:1 167:1 238:1 310:1 382:1 2367:1 10004:1 21675:1 29130:1 38875:1 48205:1 48207:1 48209:1 49516:1 54509:1 60808:1 67280:1 73406:1 
-0 -0 -0.09773947936031618 -0.0989172348697701 0 0 0 0 0 0 0 0 0 0 0 2:1 25:1 41:1 55:1 71:1 88:1 135:1 216:1 238:1 310:1 382:1 4221:1 10004:1 23651:1 29118:1 42451:1 48205:1 48207:1 48209:1 50636:1 54509:1 60881:1 69530:1 73406:1 
-0.1529168141201343 -0 -0 -0 0 0 0 0 0 0 0 0 0 0 0 3:1 25:1 36:1 51:1 68:1 89:1 105:1 169:1 238:1 310:1 382:1 6049:1 10004:1 25994:1 29106:1 38663:1 48205:1 48207:1 48209:1 51130:1 54509:1 65018:1 71318:1 73406:1 
-0.1268505373070223 -0 -0.1237788469103747 -0 0 0 0 0 0 0 0 0 0 0 0 2:1 25:1 41:1 56:1 71:1 94:1 116:1 177:1 238:1 310:1 383:1 480:1 10004:1 26214:1 29188:1 40822:1 48205:1 48207:1 48209:1 48233:1 54509:1 60924:1 71460:1 77758:1 
-0 -0 -0 -0 0.108817860579907 0 0 0 0 0 0 0 0 0.1064229269319318 0 2:1 25:1 36:1 57:1 73:1 88:1 111:1 175:1 238:1 310:1 387:1 465:1 10004:1 19883:1 29130:1 38956:1 48205:1 48207:1 48209:1 48220:1 54509:1 60812:1 67366:1 73412:1 
-0 -0 -0.1708652617366567 -0.2621761103444606 0 0.283089937518898 0 0 0 0 0 0 0 0 0 9:1 25:1 37:1 58:1 71:1 94:1 121:1 190:1 238:1 310:1 382:1 3489:1 10004:1 26438:1 35989:1 38966:1 48205:1 48207:1 48209:1 51018:1 54509:1 60808:1 71605:1 73406:1 
-0.1439218996370128 -0 -0 -0 0 0 0 0 0 0.121787966737421 0 0.1109794496603956 0 0 0 3:1 25:1 36:1 51:1 68:1 89:1 105:1 169:1 238:1 310:1 383:1 7830:1 10004:1 26931:1 29106:1 38795:1 48205:1 48207:1 48209:1 51395:1 54509:1 60808:1 70694:1 73486:1 
-0.3829743873227331 -0 -0 -0 0 0 0 0 0 0 0 0 0 0 0 3:1 25:1 36:1 51:1 68:1 88:1 114:1 190:1 238:1 310:1 382:1 5332:1 10004:1 26081:1 29106:1 46077:1 48205:1 48207:1 48209:1 53091:1 54509:1 60838:1 67400:1 73406:1 
-0 -0 -0 -0 0 0.1256659824694688 0 0 0 0 0 0 0 0 0 2:1 25:1 38:1 57:1 77:1 88:1 116:1 168:1 238:1 310:1 382:1 480:1 10004:1 26872:1 29113:1 46093:1 48205:1 48207:1 48209:1 48233:1 54509:1 60965:1 68666:1 73406:1 
-0.1409376510899389 -0 -0.1298808467079868 -0.1426345873003576 0 0 0 0 0 0 0 0 0 0 0 9:1 25:1 38:1 54:1 76:1 91:1 121:1 167:1 238:1 310:1 382:1 986:1 10004:1 27073:1 29113:1 39196:1 48205:1 48207:1 48209:1 48614:1 54509:1 60886:1 72050:1 73406:1 
-0.07934658629131991 -0 -0 -0 0 0 0 0 0 0 0 0 0 0 0 9:1 25:1 38:1 59:1 72:1 91:1 121:1 167:1 238:1 310:1 383:1 8157:1 10004:1 27258:1 29113:1 41499:1 48205:1 48207:1 48209:1 53226:1 54509:1 60880:1 71544:1 74921:1 
-0.08418314376523003 -0 -0 -0 0 0 0 0 0 0 0 0 0 0 0 8:1 25:1 44:1 57:1 73:1 88:1 131:1 167:1 238:1 310:1 382:1 1369:1 10004:1 27553:1 29188:1 46652:1 48205:1 48207:1 48209:1 48882:1 54509:1 60834:1 69944:1 73406:1 
-0.26796532335602 -0.1934653719726628 -0.2 -0 0 0 0 0 0 0 0 0 0 0 0 3:1 25:1 36:1 51:1 68:1 89:1 105:1 169:1 238:1 310:1 382:1 1136:1 10004:1 23954:1 29106:1 38663:1 48205:1 48207:1 48209:1 48718:1 54509:1 60964:1 67262:1 73406:1 
-0.24016095245632 -0.08089054091800446 -0 -0 0 0.1195567408450548 0.08979847269408434 0 0 0 0 0 0 0 0 9:1 25:1 36:1 57:1 73:1 92:1 121:1 179:1 238:1 310:1 382:1 993:1 10004:1 27773:1 29130:1 38818:1 48205:1 48207:1 48209:1 49677:1 54509:1 60885:1 72544:1 73406:1 
-0.1757757740813093 -0 -0.1706521725448569 -0 0 0 0 0 0.1126909141656439 0 0 0 0 0.08490287262939962 0 7:1 25:1 36:1 57:1 73:1 94:1 112:1 178:1 238:1 323:1 382:1 618:1 10004:1 27773:1 29130:1 38743:1 48205:1 48207:1 48209:1 48341:1 55976:1 60808:1 72544:1 73406:1 
-0.1106500368696146 -0 -0 -0 0 0 0 0 0 0 0 0 0 0 0 3:1 25:1 42:1 54:1 76:1 91:1 105:1 167:1 239:1 310:1 383:1 2568:1 10163:1 23219:1 33476:1 40914:1 48205:1 48207:1 48209:1 49647:1 54509:1 60924:1 69478:1 78969:1 
-0.1609845195728611 -0 -0 -0 0 0 0 0 0 0 0 0 0 0 0 9:1 25:1 38:1 57:1 75:1 91:1 121:1 167:1 238:1 334:1 382:1 688:1 10004:1 28589:1 29389:1 38875:1 48205:1 48207:1 48209:1 54177:1 60476:1 66773:1 68454:1 73406:1 
-0.5 -0.1966726262363467 -0 -0.2 0 0 0 0 0 0 0 0 0 0 0 3:1 25:1 36:1 57:1 73:1 89:1 114:1 169:1 238:1 310:1 382:1 1290:1 10004:1 28600:1 29130:1 38966:1 48205:1 48207:1 48209:1 48822:1 54509:1 64281:1 68555:1 73406:1 
-0 -0 -0 -0 0 0 0 0 0 0.1048900075990366 0 0 0 0 0 4:1 25:1 36:1 57:1 73:1 88:1 109:1 167:1 238:1 313:1 382:1 766:1 10004:1 28600:1 29130:1 46174:1 48205:1 48207:1 48209:1 48311:1 55121:1 66782:1 68555:1 73406:1 
-0.3852118372343215 -0 -0 -0.1214193349328427 0 0 0 0 0 0 0 0 0 0 0 3:1 25:1 42:1 55:1 71:1 88:1 114:1 167:1 238:1 310:1 382:1 8685:1 10004:1 24471:1 29461:1 47852:1 48205:1 48207:1 48209:1 53653:1 54509:1 60838:1 69995:1 73406:1 
-0 -0 -0.1741956299531024 -0 0 0 0 0.11341077275256 0 0 0 0.157690674666399 0 0 0 2:1 25:1 36:1 57:1 72:1 88:1 116:1 175:1 238:1 310:1 382:1 480:1 10004:1 29011:1 29130:1 48110:1 48205:1 48207:1 48209:1 48233:1 54509:1 60808:1 68345:1 73406:1 
-0 -0.2 -0 -0.269541776204258 0.04467330084444765 0.2178649165046736 0.07664625154849039 0.1855287451398442 0.06927079161492998 0.03715544771610597 0.0733132484134498 0.06712135297207399 0.05212401838988706 0.07037662909650653 0.08301121456041519 9:1 25:1 37:1 55:1 71:1 91:1 121:1 167:1 238:1 310:1 382:1 612:1 10004:1 20851:1 38560:1 41499:1 48205:1 48207:1 48209:1 48255:1 54509:1 60821:1 68033:1 73406:1 
-0.2493178516592486 -0.20642921273823 -0.1420454553151426 -0.2272972298173014 -0.2569660087280552 0.1281121792285541 0.1258200159806453 0.1532660545911587 0.1377314813246932 0.116228402289865 0.07059455775810394 0.1144147434851773 0.119310408139105 0.105424365408906 0.0891419350877551 8:1 25:1 41:1 59:1 70:1 88:1 131:1 167:1 238:1 312:1 382:1 785:1 10004:1 19886:1 29268:1 38984:1 48205:1 48207:1 48209:1 48300:1 54532:1 61065:1 67368:1 73406:1 
-0.2618010137779643 -0.2153711903769288 -0.1379118568402999 -0.140799529632798 -0.2399221360660844 0.1736111042124256 0.1367989066795754 0.1420454553151426 0.1420454553151426 0.1367989066795754 0.1283697053782947 0.1636661303093792 0.1367989066795754 0.1736111042124256 0.1322751332763021 3:1 25:1 36:1 57:1 73:1 89:1 114:1 169:1 238:1 319:1 387:1 756:1 10004:1 19883:1 29130:1 38663:1 48205:1 48207:1 48209:1 48449:1 54519:1 65280:1 67366:1 73412:1 
-0 -0 -0 -0.1048267751425953 -0 -0 0 0 0 0 0 0 0 0 0 9:1 25:1 38:1 54:1 72:1 88:1 121:1 166:1 238:1 310:1 382:1 509:1 10004:1 20403:1 29259:1 38654:1 48205:1 48207:1 48209:1 48256:1 54509:1 60808:1 67596:1 73406:1 
-0.2211632108599151 -0.1691573817188651 -0.12973392654645 -0.1862702418383172 -0.1195567408450548 -0.1281121792285541 0 0.1603511053691176 0 0.1497758108384484 0 0.1368421813658463 0.1685522561370016 0.1042360750064449 0 4:1 25:1 36:1 58:1 74:1 92:1 109:1 166:1 238:1 313:1 382:1 473:1 10004:1 21070:1 29130:1 38654:1 48205:1 48207:1 48209:1 48227:1 54527:1 60808:1 68164:1 73406:1 
-0.09031110889979983 -0 -0 -0 -0 -0 0 0 0.1574857725159152 0 0 0 0 0 0 9:1 25:1 38:1 56:1 71:1 91:1 121:1 166:1 238:1 334:1 382:1 458:1 10004:1 21381:1 29134:1 38654:1 48205:1 48207:1 48209:1 48747:1 55046:1 60808:1 68359:1 73406:1 
-0 -0 -0.1003477101787317 -0 -0 -0 0 0.1095426765439684 0 0 0 0 0 0 0 9:1 25:1 41:1 55:1 71:1 87:1 121:1 166:1 238:1 310:1 382:1 986:1 10004:1 21270:1 29118:1 38654:1 48205:1 48207:1 48209:1 48614:1 54509:1 60808:1 68997:1 73406:1 
-0.1338568015854395 -0 -0 -0 -0 -0 0 0 0 0 0 0 0 0 0 9:1 25:1 40:1 56:1 71:1 85:1 121:1 166:1 238:1 310:1 382:1 921:1 10004:1 23003:1 29325:1 38654:1 48205:1 48207:1 48209:1 48256:1 54509:1 60808:1 69372:1 73406:1 
-0 -0.1787629102031804 -0 -0 -0 -0 0 0.1118508270068966 0 0 0 0 0 0 0 9:1 25:1 38:1 55:1 71:1 88:1 121:1 166:1 238:1 310:1 382:1 2719:1 10004:1 23983:1 29223:1 38654:1 48205:1 48207:1 48209:1 49740:1 54509:1 60808:1 68866:1 73406:1 
-0 -0 -0 -0 -0 -0 0.1818363375485126 0 0 0 0 0 0 0 0 9:1 25:1 38:1 54:1 77:1 88:1 121:1 166:1 238:1 310:1 382:1 543:1 10004:1 24485:1 29200:1 38654:1 48205:1 48207:1 48209:1 48287:1 54509:1 60808:1 70356:1 73406:1 
-0 -0 -0 -0 -0 -0 0.1415130817567775 0 0 0 0 0 0 0 0 9:1 25:1 36:1 51:1 68:1 91:1 121:1 166:1 239:1 310:1 382:1 543:1 10004:1 24910:1 32987:1 38654:1 48205:1 48207:1 48209:1 48287:1 54509:1 60808:1 70636:1 73406:1 
-0 -0 -0 -0 -0 -0 0 0 0 0 0 0 0 0 0.1913580028881028 9:1 25:1 38:1 54:1 70:1 93:1 121:1 166:1 238:1 310:1 382:1 543:1 10004:1 25458:1 29108:1 38654:1 48205:1 48207:1 48209:1 48287:1 54509:1 60808:1 70040:1 73406:1 
-0.1248123257101968 -0.0922882236173752 -0 -0.1850388879668883 -0 -0 0.1555901926823172 0 0 0 0 0 0 0 0 9:1 25:1 41:1 60:1 76:1 93:1 121:1 166:1 239:1 310:1 382:1 1332:1 10004:1 23651:1 29246:1 38654:1 48205:1 48207:1 48209:1 48856:1 54509:1 60808:1 69530:1 73406:1 
-0 -0 -0 -0 -0.1582245726068298 -0 0 0 0 0 0 0 0 0 0 9:1 25:1 36:1 51:1 68:1 92:1 121:1 166:1 238:1 310:1 382:1 612:1 10004:1 23660:1 29106:1 38654:1 48205:1 48207:1 48209:1 48255:1 54509:1 60808:1 69585:1 73406:1 
-0 -0.09132568058989465 -0 -0 -0 -0 0 0 0 0 0 0 0 0 0 9:1 25:1 36:1 56:1 71:1 87:1 121:1 166:1 238:1 310:1 382:1 3661:1 10004:1 25505:1 29130:1 38654:1 48205:1 48207:1 48209:1 50336:1 54509:1 60808:1 71020:1 73406:1 
-0 -0 -0 -0.1605310532124523 -0 -0 0 0 0 0 0 0 0 0 0 9:1 25:1 37:1 55:1 71:1 89:1 121:1 166:1 238:1 310:1 382:1 543:1 10004:1 26029:1 33535:1 38654:1 48205:1 48207:1 48209:1 48287:1 54509:1 60808:1 68537:1 73406:1 
-0.1720541819496116 -0 -0 -0 -0 -0 0.142321420383282 0 0 0 0 0 0.1226764496389113 0 0 9:1 25:1 41:1 56:1 71:1 87:1 121:1 166:1 238:1 310:1 382:1 7113:1 10004:1 26214:1 29188:1 38654:1 48205:1 48207:1 48209:1 52562:1 54509:1 60808:1 71460:1 73406:1 
-0 -0 -0 -0.1736111042124256 -0 -0 0 0 0 0 0 0 0 0 0 9:1 25:1 40:1 54:1 70:1 94:1 121:1 166:1 238:1 310:1 382:1 543:1 10004:1 26326:1 35877:1 38654:1 48205:1 48207:1 48209:1 48287:1 54509:1 60808:1 71526:1 73406:1 
-0.1178652271780777 -0.1224229668327464 -0 -0 -0 -0 0.1040397723213923 0 0 0 0 0.129292678530048 0 0.1529513818177363 0 9:1 25:1 40:1 54:1 70:1 88:1 121:1 166:1 238:1 310:1 383:1 7225:1 10004:1 26326:1 35877:1 38654:1 48205:1 48207:1 48209:1 52628:1 54509:1 60808:1 71526:1 73483:1 
-0 -0 -0 -0 -0 -0.1736111042124256 0 0 0 0 0 0 0 0 0 9:1 25:1 36:1 57:1 73:1 90:1 121:1 166:1 238:1 310:1 382:1 543:1 10004:1 19883:1 29130:1 38654:1 48205:1 48207:1 48209:1 48287:1 54509:1 60808:1 67366:1 73406:1 
-0 -0 -0 -0.1250919674021485 -0.283089937518898 -0 0 0 0 0 0 0 0 0 0 9:1 25:1 37:1 58:1 71:1 87:1 121:1 166:1 238:1 334:1 382:1 766:1 10004:1 26438:1 35989:1 38654:1 48205:1 48207:1 48209:1 51018:1 57317:1 60808:1 71605:1 73406:1 
-0.2469002628902193 -0 -0 -0 -0.0853469800658254 -0 0 0 0 0 0 0 0 0 0 9:1 25:1 36:1 57:1 73:1 88:1 121:1 166:1 238:1 310:1 382:1 7540:1 10004:1 26641:1 29130:1 38654:1 48205:1 48207:1 48209:1 52863:1 54509:1 60808:1 71761:1 73406:1 
-0 -0 -0 -0 -0 -0 0 0 0 0.1683307697621148 0 0 0 0 0 9:1 25:1 36:1 51:1 68:1 88:1 121:1 166:1 238:1 310:1 382:1 2368:1 10004:1 26931:1 29106:1 38654:1 48205:1 48207:1 48209:1 48290:1 54509:1 60808:1 70694:1 73406:1 
-0.2 -0 -0.1631999969482422 -0.1960005187922102 -0.1163753304366688 -0 0 0.1814236005906158 0 0 0 0 0 0 0 9:1 25:1 36:1 51:1 68:1 91:1 121:1 166:1 238:1 310:1 382:1 8223:1 10004:1 27324:1 29106:1 38654:1 48205:1 48207:1 48209:1 53332:1 54509:1 60808:1 70438:1 73406:1 
-0 -0 -0 -0.1397207606751366 -0.1532789180753895 -0 0 0 0 0 0 0 0 0 0 9:1 25:1 38:1 57:1 78:1 91:1 121:1 166:1 238:1 310:1 382:1 8276:1 10004:1 26872:1 29113:1 38654:1 48205:1 48207:1 48209:1 53364:1 54509:1 60808:1 68666:1 73406:1 
-0 -0 -0 -0 -0 -0 0 0 0 0 0 0 0 0 0.2422670987635823 9:1 25:1 38:1 54:1 72:1 88:1 121:1 166:1 238:1 310:1 382:1 543:1 10004:1 27662:1 29108:1 38654:1 48205:1 48207:1 48209:1 48287:1 54509:1 60808:1 67492:1 73406:1 
-0 -0 -0 -0.1958764015624739 -0.1256659824694688 -0 0 0 0 0 0 0 0 0 0 9:1 25:1 42:1 54:1 76:1 88:1 121:1 166:1 238:1 310:1 382:1 8873:1 10004:1 23219:1 33476:1 38654:1 48205:1 48207:1 48209:1 53773:1 54509:1 60808:1 69478:1 73406:1 
-0 -0.1636661303093792 -0 -0.1155861530483271 -0.2178649165046736 -0 0 0 0 0 0 0 0 0 0 9:1 25:1 37:1 55:1 71:1 90:1 121:1 166:1 238:1 310:1 382:1 543:1 10004:1 28100:1 37651:1 38654:1 48205:1 48207:1 48209:1 48287:1 54509:1 60808:1 70099:1 73406:1 
-0 -0 -0.2 -0 -0 -0 0 0 0 0 0 0 0 0 0 9:1 25:1 36:1 51:1 68:1 88:1 121:1 166:1 238:1 310:1 382:1 543:1 10004:1 27137:1 29106:1 38654:1 48205:1 48207:1 48209:1 48287:1 54509:1 60808:1 68555:1 73406:1 
-0 -0 -0 -0 -0 -0 0.1280286944474805 0.09045732345603158 0.1736111042124256 0.01719797537772946 0.1481481481481481 0.2178649165046736 0.2178649165046736 0.09576392499355516 0.06637489834831492 9:1 25:1 36:1 57:1 72:1 88:1 121:1 166:1 238:1 310:1 382:1 543:1 10004:1 28764:1 29130:1 38654:1 48205:1 48207:1 48209:1 48287:1 54509:1 60808:1 69882:1 73406:1 
-0.2414492535609448 -0.2248581329653074 -0.1552795017259062 -0.2666317625915902 -0.2696202209366354 -0.1367989066795754 -0.4251319688865752 0.1531528548599706 0.1211419776082038 0.1062801924020914 0 0.1406664654131973 0.1722222208424851 0.1375360717151382 0.1513532897666326 9:1 25:1 41:1 57:1 77:1 88:1 121:1 166:1 238:1 310:1 382:1 2278:1 10004:1 21379:1 29188:1 38654:1 48205:1 48207:1 48209:1 49460:1 54509:1 60808:1 68358:1 73406:1 
-0.2772546178192679 -0.1821022727657571 -0.1458763324828521 -0.2769812801004519 -0.26340957690651 -0.1258200159806453 -0.4281975302531869 0.1736111042124256 0.1736111042124256 0.1552795017259062 0.1552795017259062 0.1552795017259062 0.1736111042124256 0.1855287451398442 0.3086419971118972 9:1 25:1 39:1 54:1 70:1 91:1 121:1 166:1 239:1 310:1 382:1 543:1 10004:1 26051:1 29132:1 38654:1 48205:1 48207:1 48209:1 48287:1 54509:1 60808:1 71358:1 73406:1 
-0 -0 -0 -0.1652739251216497 -0 -0.1532660545911587 -0 -0 0 0 0 0.07737940785473491 0 0 0 4:1 25:1 41:1 60:1 72:1 88:1 113:1 167:1 238:1 310:1 382:1 487:1 10004:1 20348:1 29268:1 40580:1 48205:1 48207:1 48209:1 48214:1 54509:1 60812:1 67855:1 73406:1 
-0.1374903688406669 -0.1286321158728808 -0.1653119799706877 -0.2001263726219983 -0.1096331625186738 -0 -0.1118508270068966 -0 0 0 0 0 0.0885510159117994 0 0 4:1 25:1 41:1 56:1 71:1 88:1 113:1 198:1 238:1 310:1 382:1 487:1 10004:1 20348:1 29118:1 40657:1 48205:1 48207:1 48209:1 48214:1 54509:1 60808:1 67855:1 73406:1 
-0.08214700511427504 -0.07670918911535818 -0 -0.1151636838976954 -0.2225132452340621 -0 -0 -0 0 0 0 0 0 0 0 4:1 25:1 36:1 51:1 68:1 95:1 113:1 167:1 238:1 310:1 382:1 487:1 10004:1 20348:1 29106:1 39079:1 48205:1 48207:1 48209:1 48214:1 54509:1 60838:1 67855:1 73406:1 
-0.1493567241523058 -0 -0.09244321726722948 -0.2127474799828272 -0.1323554605743094 -0 -0 -0 0 0 0 0 0 0 0 4:1 25:1 36:1 55:1 75:1 88:1 113:1 167:1 238:1 310:1 382:1 550:1 10004:1 22453:1 29130:1 39023:1 48205:1 48207:1 48209:1 48214:1 54509:1 60909:1 69036:1 73406:1 
-0.1752047434403021 -0.1468403978713519 -0.1682291568360399 -0.3243624561120744 -0.297382598757535 -0 -0.1814236005906158 -0.1531528548599706 0.1929681107505292 0.1217288560178998 0 0.1449083327516576 0.1344273042818613 0.1320689924640861 0.08680555594592619 4:1 25:1 38:1 55:1 72:1 91:1 109:1 167:1 238:1 310:1 382:1 473:1 10004:1 22569:1 29416:1 41668:1 48205:1 48207:1 48209:1 48227:1 54509:1 60808:1 69111:1 73406:1 
-0 -0.1552795017259062 -0 -0.2056347460686758 -0.1855287451398442 -0 -0.1603511053691176 -0 0.1023669923797199 0 0 0 0 0 0 4:1 25:1 36:1 55:1 71:1 88:1 113:1 167:1 238:1 310:1 382:1 550:1 10004:1 28363:1 29130:1 44343:1 48205:1 48207:1 48209:1 48214:1 54509:1 60808:1 69742:1 73406:1 
-0.1855287451398442 -0.1449468424527061 -0.2 -0.1855287451398442 -0.1502078618010732 -0.1420454553151426 -0.2 -0.1736111042124256 0.0612991379296593 0.2403846242018708 0.1481481481481481 0.1855287451398442 0.2178649165046736 0.1855287451398442 0.1855287451398442 4:1 25:1 36:1 51:1 68:1 89:1 113:1 166:1 238:1 310:1 382:1 471:1 10004:1 28859:1 29106:1 38654:1 48205:1 48207:1 48209:1 48214:1 54509:1 60808:1 73248:1 73406:1 
-0.1573619449980953 -0.1552795017259062 -0.1568043399815366 -0.1605856707997208 -0.3535857457168978 -0.1420454553151426 -0.1574857725159152 -0.1211419776082038 -0.1929681107505292 0.1017466318421009 0 0.1201740419077086 0.1218600966312461 0.1048581095814512 0 7:1 25:1 36:1 55:1 71:1 91:1 119:1 167:1 238:1 334:1 382:1 473:1 10004:1 22727:1 29130:1 39454:1 48205:1 48207:1 48209:1 48308:1 54607:1 60808:1 69212:1 73406:1 
-0.2616462965440766 -0.1610755190359688 -0.2666055914355869 -0.267063878066885 -0.2863020183780696 -0.1377314813246932 -0.1736111042124256 -0.1736111042124256 -0.1636661303093792 0.1481481481481481 0.1481481481481481 0.1736111042124256 0.1636661303093792 0.1855287451398442 0.1855287451398442 7:1 25:1 38:1 54:1 72:1 91:1 120:1 167:1 238:1 310:1 382:1 502:1 10004:1 28573:1 29113:1 46155:1 48205:1 48207:1 48209:1 48252:1 54509:1 60808:1 73063:1 73406:1 
-0.1636661303093792 -0.1420454553151426 -0.1736111042124256 -0.1481481481481481 -0.2638334220525636 -0.116228402289865 -0.1855287451398442 -0.1552795017259062 -0.2403846242018708 -0.1481481481481481 0 0.1041626474596916 0.1313276249095398 0.1005864776129277 0 4:1 25:1 36:1 51:1 68:1 88:1 109:1 166:1 238:1 313:1 382:1 574:1 10004:1 22774:1 29106:1 38654:1 48205:1 48207:1 48209:1 48311:1 55170:1 60808:1 69238:1 73406:1 
-0.1220521464116574 -0.1433241012884677 -0.1058054011998865 -0.1214814781325017 -0.1807851106666188 -0.1367989066795754 -0.1497758108384484 -0.1062801924020914 -0.1217288560178998 -0.1017466318421009 0.1283697053782947 0.1552795017259062 0.1636661303093792 0.1736111042124256 0.1481481481481481 4:1 25:1 36:1 51:1 68:1 87:1 106:1 166:1 238:1 313:1 383:1 595:1 10004:1 26931:1 29106:1 38654:1 48205:1 48207:1 48209:1 48311:1 57694:1 60808:1 70694:1 73486:1 
-0.3244302075943248 -0.2872340501083303 -0.1481481481481481 -0.2740740740740741 -0.2366565690657354 -0.1989642631363986 -0.1481481481481481 -0.1552795017259062 -0.1481481481481481 -0.1481481481481481 -0.1283697053782947 0.1481481481481481 0.1552795017259062 0.1636661303093792 0.1481481481481481 6:1 25:1 42:1 55:1 74:1 92:1 108:1 186:1 239:1 310:1 382:1 4081:1 10004:1 19791:1 32732:1 38701:1 48205:1 48207:1 48209:1 48265:1 54509:1 60847:1 67164:1 73406:1 
-0.1500928842798549 -0.1055133267857361 -0.0925267003075744 -0.2478966412206725 -0.1109794496603956 -0 -0.129292678530048 -0 -0.07737940785473491 -0 -0 -0 0 0.1401943521108451 0 5:1 25:1 40:1 57:1 72:1 85:1 117:1 166:1 238:1 310:1 383:1 647:1 10004:1 23582:1 30459:1 38654:1 48205:1 48207:1 48209:1 48216:1 54509:1 60808:1 69761:1 73483:1 
-0.2248180543987901 -0.1363959207072166 -0.1323877065482975 -0.2301481084790671 -0.157690674666399 -0.1144147434851773 -0.1368421813658463 -0.1406664654131973 -0.1449083327516576 -0.1201740419077086 -0.1552795017259062 -0 0.1307055924357915 0.273640453756848 0 5:1 25:1 40:1 60:1 72:1 92:1 117:1 166:1 238:1 310:1 383:1 482:1 10004:1 26303:1 35854:1 38654:1 48205:1 48207:1 48209:1 48216:1 54509:1 60808:1 71514:1 73483:1 
-0.2860628582471411 -0.1420454553151426 -0.1636661303093792 -0.2947649216605463 -0.2282499261337079 -0.1636661303093792 -0.2178649165046736 -0.1552795017259062 -0.1855287451398442 -0.1736111042124256 -0.1041626474596916 -0.1481481481481481 0.1736111042124256 0.2178649165046736 0.1636661303093792 5:1 25:1 36:1 57:1 72:1 89:1 117:1 169:1 238:1 310:1 382:1 841:1 10004:1 28743:1 29130:1 39343:1 48205:1 48207:1 48209:1 48216:1 54509:1 60808:1 73172:1 73406:1 
-0.1479871957817253 -0.1093129213871753 -0.1013594384445487 -0.1450052668976651 -0.1173004863237439 -0 -0.1685522561370016 -0.1722222208424851 -0.0885510159117994 -0 -0 -0 -0 0 0 2:1 25:1 36:1 58:1 77:1 87:1 135:1 166:1 238:1 310:1 382:1 4221:1 10004:1 24613:1 32871:1 38654:1 48205:1 48207:1 48209:1 50636:1 54509:1 60808:1 70441:1 73406:1 
-0 -0.1459976249601165 -0.1855287451398442 -0.1793348463572217 -0.1022639438145991 -0.119310408139105 -0.1226764496389113 -0 -0 -0.1218600966312461 -0 -0 -0.1307055924357915 0.131944437545759 0 2:1 25:1 36:1 53:1 68:1 93:1 135:1 166:1 238:1 310:1 382:1 4221:1 10004:1 25087:1 32871:1 38654:1 48205:1 48207:1 48209:1 50636:1 54509:1 60808:1 70225:1 73406:1 
-0.1736111042124256 -0 -0 -0 -0.2319860967111893 -0 -0 -0 -0.2178649165046736 -0 -0.1636661303093792 -0 -0 0 0 2:1 25:1 36:1 53:1 68:1 88:1 135:1 166:1 238:1 310:1 382:1 4221:1 10004:1 19725:1 32871:1 38654:1 48205:1 48207:1 48209:1 50636:1 54509:1 60808:1 67243:1 73406:1 
-0.1541702787860379 -0.1420454553151426 -0.1544462423583044 -0.2440082525624512 -0.1552795017259062 -0.1367989066795754 -0.2178649165046736 -0.1736111042124256 -0.1344273042818613 -0.1636661303093792 -0.1313276249095398 -0.1552795017259062 -0.1736111042124256 0.2 0.2 2:1 25:1 36:1 61:1 74:1 88:1 135:1 166:1 238:1 310:1 382:1 4339:1 10004:1 28580:1 32989:1 38654:1 48205:1 48207:1 48209:1 50742:1 54509:1 60808:1 73067:1 73406:1 
-0.3003464901666835 -0.1592078140754107 -0.1225252365963295 -0.3160076213796794 -0.230381850750034 -0.1736111042124256 -0.2 -0.1375360717151382 -0.1320689924640861 -0.1048581095814512 -0.1736111042124256 -0 -0.3580592686155187 -0.131944437545759 0 5:1 25:1 36:1 57:1 73:1 87:1 117:1 166:1 238:1 310:1 383:1 482:1 10004:1 19883:1 29130:1 38654:1 48205:1 48207:1 48209:1 48216:1 54509:1 60808:1 67366:1 73483:1 
-0.288927934719151 -0.1481481481481481 -0.2297601482296141 -0.3815510175447748 -0.1552795017259062 -0.105424365408906 -0.1529513818177363 -0.1855287451398442 -0.1855287451398442 -0.1855287451398442 -0.1005864776129277 -0.1636661303093792 -0.273640453756848 -0.2 0.2403846242018708 5:1 25:1 38:1 54:1 74:1 92:1 117:1 166:1 238:1 310:1 382:1 482:1 10004:1 23799:1 29108:1 38654:1 48205:1 48207:1 48209:1 48216:1 54509:1 60808:1 68657:1 73406:1 
-0.2899227219383558 -0.3011636904689743 -0.2468027455539828 -0.3046704686108864 -0.2760445101955672 -0.2214170683640572 -0.5 -0.4599952868785299 -0.2723343010857704 -0.1855287451398442 -0.1481481481481481 -0.1481481481481481 -0.1636661303093792 -0.2 -0.2403846242018708 9:1 25:1 38:1 54:1 70:1 88:1 121:1 166:1 238:1 310:1 382:1 543:1 10004:1 24934:1 29108:1 38654:1 48205:1 48207:1 48209:1 48287:1 54509:1 60808:1 70649:1 73406:1 
